XscanNumber_YscanNumber,Type,BCID,xsec,xsecErr,SBIL,SBILErr
2_1,XY,103,952.6136851431066,2.7167513675999433,0.06329430013628247,0.00020985927673100412
2_1,XY,124,937.4950469126003,2.6400826735815404,0.08038209800233295,0.00025857717712890173
2_1,XY,145,940.6065745009663,2.694191462809751,0.06513736253819409,0.00021013306210298344
2_1,XY,166,939.335953707662,2.594060370058863,0.07487452556088897,0.00023829336388196613
2_1,XY,187,944.0877657536277,2.9906416229861605,0.0650206795098674,0.00023598381588518878
2_1,XY,208,948.036128592873,2.7283633930782667,0.06751113398731569,0.00022220198523883105
2_1,XY,229,938.3878512502027,2.622576940241271,0.06962861189103389,0.00022465589081010443
2_1,XY,250,938.7070186895304,2.4365116389950314,0.07748031624350765,0.00023291789565213513
2_1,XY,282,945.9530571820951,2.603035180906046,0.07497646322833622,0.00023732630364700278
2_1,XY,303,937.8900543499573,2.7149912631284923,0.07910415664790182,0.000266474574915864
2_1,XY,324,940.2859412156445,2.4364744198150285,0.07093168256173799,0.0002102173667365722
2_1,XY,345,938.4907114334895,2.5089666671966735,0.08037036480628756,0.0002503051556845153
2_1,XY,366,940.8377441887109,2.706791526871296,0.07268929118685687,0.0002398060773990217
2_1,XY,387,940.196420946442,2.600888842209493,0.07999495849774219,0.00025787909835993183
2_1,XY,408,940.8698853703361,2.560274579643523,0.06852529380389799,0.0002120302063052833
2_1,XY,429,939.3376297294318,2.6075009432245304,0.07724492431772063,0.00024320318183498928
2_1,XY,464,943.732404560403,3.004201252839629,0.07494130385803367,0.0002768757938833943
2_1,XY,485,942.6961002385929,2.658482842969608,0.07743255087685114,0.00025384802353542864
2_1,XY,506,942.9557302370579,2.6318281694425965,0.0665842967087847,0.00021340949206750538
2_1,XY,527,940.6404368304197,2.828525678684083,0.07386502888818669,0.00026109160832504536
2_1,XY,548,939.0282000937568,2.5355790703537693,0.0725493115769504,0.00022499499780702874
2_1,XY,569,941.0075580790235,2.5556704001069894,0.08087686219624561,0.00025213435237454425
2_1,XY,590,943.6800151846786,2.558887174134912,0.0698113918671168,0.0002187506022040223
2_1,XY,611,939.0071009928746,2.5799213917391093,0.07834688956565612,0.00024844912806930666
2_1,XY,643,946.7029369457791,2.4962867924217464,0.0727404308628778,0.00021728169199689858
2_1,XY,664,943.8445213832714,2.5560028614083774,0.07687521861121757,0.00024184290163435562
2_1,XY,685,938.5014948608514,2.8479155946262007,0.06710897931828286,0.00023553292546247247
2_1,XY,706,953.6658852293016,2.5553806114007114,0.06929336610438717,0.00021681651320029904
2_1,XY,727,943.9811286502489,2.4667078313957673,0.06926624785658958,0.0002054428645395482
2_1,XY,748,937.3077334345584,2.5350044937959493,0.07923048488954797,0.000244248491312747
2_1,XY,769,939.6459774723074,2.8355335679516807,0.0640463236911713,0.0002257452894432832
2_1,XY,790,940.0318500425512,2.419491297660616,0.07267893243522723,0.0002137541449967321
2_1,XY,822,954.4791270288777,2.7488999261110196,0.06544761127357271,0.0002168429126929962
2_1,XY,843,947.5514004636152,2.3520652715038377,0.07682181310082077,0.00022368571754904224
2_1,XY,864,944.127156036213,2.5227509885975863,0.07013204893554384,0.00021789304691609407
2_1,XY,885,939.4075046579499,2.4409305844761597,0.08066163034446584,0.00024281406469379597
2_1,XY,906,942.8437437892251,2.4594969111988725,0.06836070458026794,0.0002048719079183154
2_1,XY,927,938.4059306198537,2.362553929449068,0.0783373806081814,0.00022750895698025236
2_1,XY,948,943.765551020402,2.7097053952063357,0.06878998984952749,0.0002292049688920053
2_1,XY,969,939.5890766577237,2.372631117032592,0.07647727965538624,0.00022112234065697523
2_1,XY,1018,942.7292810934113,2.520837872367168,0.07478833012082649,0.00023161498401733674
2_1,XY,1039,940.324874714642,2.220838859786666,0.07866213952292353,0.00021541469711122233
2_1,XY,1060,943.2607902960968,2.5793536244565627,0.06987191658992262,0.00021805628244884066
2_1,XY,1081,944.7993848222567,2.4072815884428196,0.07724198233753586,0.0002279404307258073
2_1,XY,1102,946.821861330993,2.8477839160625043,0.06787128457133795,0.00023412596041258094
2_1,XY,1123,942.5231618240758,2.406420605494203,0.07462596057753046,0.00022021888282212646
2_1,XY,1144,943.2991459067165,2.3907644556638523,0.06962534580765083,0.00020361022972388074
2_1,XY,1165,944.0883811467361,2.324231514095404,0.07984959283834954,0.0002273785877852374
2_1,XY,1197,942.7130131831632,2.402718731147943,0.07231592018022395,0.0002149535503463426
2_1,XY,1218,942.7985048535767,2.429172844881398,0.07856082148394535,0.00023353831525866755
2_1,XY,1239,944.0358343041642,2.7637530935246173,0.06958079209568535,0.00023813244355203153
2_1,XY,1260,947.9584661298942,2.2885369475447157,0.0776150262129208,0.0002176112629452006
2_1,XY,1281,941.8046558397351,2.7156690496135925,0.07114897010016666,0.00023149374652957342
2_1,XY,1302,944.4472419522444,2.49218272488016,0.07906273629426189,0.0002395069514344448
2_1,XY,1323,945.4167207115486,2.976816805888138,0.06506634270028641,0.0002352323893830089
2_1,XY,1344,941.1336971958895,2.4546556074272203,0.07636535690152307,0.00022629584423113566
2_1,XY,1376,944.1271728489967,2.5328971573506056,0.07183010125676605,0.00022232647516468024
2_1,XY,1397,948.7945793555825,2.648029952467653,0.06871165375804068,0.00021963654020022756
2_1,XY,1418,946.2132244907075,2.607691351514221,0.07271989629058195,0.0002321269929222328
2_1,XY,1439,956.5174532572934,2.629094979071363,0.06449015690904254,0.00020507084088303542
2_1,XY,1460,943.1781495473807,2.4723102751505186,0.07037698880225983,0.00021149607658294266
2_1,XY,1481,940.9507043626475,2.486428178068589,0.07712119241901516,0.00023654315792386252
2_1,XY,1502,950.2766857243201,2.433336276627292,0.06893830913311072,0.00020445416748989128
2_1,XY,1523,956.6822617574461,2.730822192209385,0.06158260405386449,0.00020315805037387317
2_1,XY,1555,959.0701176503005,2.741842092283679,0.06349602983587474,0.00020864320499906877
2_1,XY,1576,955.45679899854,2.797769899349172,0.06712193140579537,0.00022485170068201133
2_1,XY,1597,956.9916487516572,2.7192652517239386,0.05915870534313721,0.00019098681828468565
2_1,XY,1618,955.93970990466,2.7371422282238766,0.0651423410492079,0.00021613433725777795
2_1,XY,1639,941.5694104456733,2.298177945645784,0.07981885128236593,0.00022304323627554337
2_1,XY,1660,946.3277419959453,2.3192232631263385,0.08019031473389263,0.00022711879269745144
2_1,XY,1681,945.2173143406754,2.5888853020747744,0.07511411524941074,0.00023520598871108357
2_1,XY,1702,944.1672578739855,2.4961310143562767,0.08130296976758535,0.0002469577239537583
2_1,XY,1734,944.6584159543404,2.482240304663363,0.07388953731184066,0.0002218214081899781
2_1,XY,1755,956.740878105803,2.6927327594899566,0.06055364843339484,0.00019535657502501845
2_1,XY,1776,947.4089980350991,2.5121524173245637,0.07382084312737969,0.00022789877804584502
2_1,XY,1797,941.4644027960688,2.5337290362967826,0.08002530715559819,0.0002462475084537204
2_1,XY,1818,953.5090068668211,2.4793340074952375,0.06674016993764059,0.00019856283310639263
2_1,XY,1839,960.6636672524029,2.913198746953549,0.06129257240027695,0.00021638452376874904
2_1,XY,1860,942.9501177912063,2.558925522902012,0.07657440779131078,0.00023697577614116704
2_1,XY,1881,942.7899703236191,2.3536941993149845,0.08063607190749919,0.00023480062086973078
2_1,XY,1916,946.2986236949897,2.585596790076672,0.0732023796908441,0.00022912679440692757
2_1,XY,1937,954.6493688954698,2.734707423554771,0.06134408866701055,0.00020505253661909508
2_1,XY,1958,946.9077260190548,2.643321160043584,0.0720115954430738,0.00023158048001539893
2_1,XY,1979,940.40450776692,2.632634865215213,0.077105067805335,0.0002500615974574236
2_1,XY,2000,944.7163139442152,2.6238841305524505,0.07654397780562372,0.00024698244558924
2_1,XY,2021,943.246493538199,2.6299201304887516,0.08048170577325256,0.0002572587926188991
2_1,XY,2042,941.5839645910233,2.7031079704575456,0.0758681663361528,0.00025213276051726816
2_1,XY,2063,942.149860960631,2.497400064929904,0.07956310873436531,0.00024122708566226775
2_1,XY,2095,943.2602125688558,2.471181329315953,0.07400589191316422,0.00022210601221556362
2_1,XY,2116,944.575873800048,2.5718485599495344,0.07674876469963136,0.00024259780762404083
2_1,XY,2137,941.2420712670572,2.6512900758664735,0.07354802614619566,0.0002365159383852408
2_1,XY,2158,944.5979136844,2.2711742775672668,0.07904104182591695,0.00021957695398108212
2_1,XY,2179,942.1552780882228,2.531395629471441,0.07572939480695058,0.00023476087421140632
2_1,XY,2200,941.3457021359402,2.768739635180755,0.08083976008119946,0.0002746093870391003
2_1,XY,2221,945.9246962310403,2.5559568624215587,0.07617059535001953,0.0002370943713829643
2_1,XY,2242,941.6653259417482,2.499928312611357,0.07965380033733042,0.00024114271154372524
2_1,XY,2274,943.7010776649284,2.5803024999705158,0.07602729965816651,0.00024029988351374494
2_1,XY,2295,946.60125318514,2.5079156469767225,0.07910507029448678,0.0002418539011786037
2_1,XY,2316,943.7410864002572,2.726443264017811,0.07481500258128808,0.0002469196692993179
2_1,XY,2337,948.0705086950308,2.4899454687220923,0.06856084015427195,0.00021028974143510437
2_1,XY,2358,957.716308888864,2.6348543736392536,0.06300370825906143,0.00020050210845523557
2_1,XY,2379,943.4404430853336,2.6266141878721387,0.07858519394453561,0.0002560933233541984
2_1,XY,2400,944.281409395596,2.587795738948397,0.07213360791943231,0.00022727623049421304
2_1,XY,2421,939.4764779509187,2.538230298571418,0.07819547711433975,0.00024151542861120358
2_1,XY,2453,941.2320759913297,2.4766060581860594,0.07797882820819652,0.0002361413248698711
2_1,XY,2474,940.6662601489578,2.2907437751008013,0.08176725373521315,0.0002288055144275871
2_1,XY,2495,945.0780637452524,2.3817490031435966,0.07421793716669861,0.00021691398033986262
2_1,XY,2516,942.3006976900334,2.591558373177921,0.07899141504098718,0.0002526586821200606
2_1,XY,2537,943.0315414304556,2.37648570888311,0.07629997695937273,0.0002214848032445132
2_1,XY,2558,942.6704217973733,2.5422477134940924,0.08279696701610598,0.00025987729400595006
2_1,XY,2579,944.9050654174722,2.3146281829173927,0.07816980902434315,0.00021871712194772172
2_1,XY,2600,941.5289076657074,2.5400958361506056,0.0812981452495041,0.000251756654381055
2_1,XY,2632,946.1303889673651,2.6527534078438246,0.07358009765300698,0.00023911175600996442
2_1,XY,2653,941.6678454636373,2.281546345416346,0.07791299712183794,0.0002173646936903803
2_1,XY,2674,951.8872940205309,2.5469879872322942,0.06822148974197169,0.00021077927521715104
2_1,XY,2695,942.1385887444878,2.363824711816015,0.08204149728681709,0.0002358331105456199
2_1,XY,2716,953.7787163089636,2.7347828675933417,0.06766451741490702,0.00022402252994538422
2_1,XY,2737,940.0086405265272,2.49782547229933,0.07869884370642313,0.00024393176547935955
2_1,XY,2758,944.7496909909712,2.68650517174407,0.07341477478558692,0.00024026832776328214
2_1,XY,2779,940.7786197301778,2.4010776571459282,0.07848845512574515,0.00023071391544226047
2_1,XY,2818,940.1381190741424,2.579291664435109,0.07693217925612894,0.00024338061862107284
2_1,XY,2839,939.3087528108462,2.52832419233462,0.08134260261843014,0.0002541361283960019
2_1,XY,2860,941.0803956314394,2.6458274444831202,0.0760253050908111,0.0002486967689508226
2_1,XY,2881,937.0986938359332,2.6311430632659234,0.08140448344848852,0.0002633403323106916
2_1,XY,2902,942.3615643232429,2.7214138571307704,0.07647017249222919,0.00025957118157848456
2_1,XY,2923,941.7037349218152,2.435603171607203,0.08057915282669313,0.00023773375399967016
2_1,XY,2944,941.0809783952366,2.644954568487084,0.07398896950558538,0.00024141447615602568
2_1,XY,2965,940.9084314877272,2.488493102342855,0.07730080104436221,0.00023467792579328945
2_1,XY,2997,944.2117083429073,2.562602232229979,0.07470860184308921,0.0002325398747403866
2_1,XY,3018,945.7997560936926,2.683877291751327,0.07852783663297569,0.0002586304686251797
2_1,XY,3039,942.7373800248637,2.79958295846922,0.07097745725153556,0.00024389934774120316
2_1,XY,3060,940.8518400583874,2.505050360421357,0.0762865729859828,0.00023634477357152084
2_1,XY,3081,937.4389323523002,2.5771129752590216,0.07487616259463468,0.00023565529042752893
2_1,XY,3102,940.5987994420567,2.3311860076122684,0.07933812130425741,0.00022431650796674626
2_1,XY,3123,946.1373992500354,2.3337666626386313,0.07684481718462814,0.00021767702386608066
2_1,XY,3144,936.7867157288622,2.3124254721975284,0.08165659207369123,0.00022915653596376564
