XscanNumber_YscanNumber,Type,BCID,xsec,xsecErr,SBIL,SBILErr
1_2,XY,103,301.0803398939581,3.0359159316582174,0.07032193584281166,0.0008085403166621769
1_2,XY,124,300.8666986193942,3.171251683153367,0.0784331292777954,0.0009374941837312541
1_2,XY,145,300.1114173175566,3.0828159463030214,0.06378582122069662,0.000749934020144297
1_2,XY,166,301.6175790569064,2.9035745473258467,0.07394320280351972,0.00081057269248476
1_2,XY,187,299.06867194023636,3.3179976445450303,0.06456631469259468,0.0008224436134546939
1_2,XY,208,297.7763976475959,3.212576657604468,0.07327921998850787,0.0009115707158477187
1_2,XY,229,299.0146681418388,3.0385906281131545,0.069344243000532,0.0008135385832708149
1_2,XY,250,301.712112343158,2.9644455292343515,0.07659177945580767,0.0008637669024553644
1_2,XY,282,301.1169049951959,3.054189212748421,0.07197608723355259,0.0008350743700292455
1_2,XY,303,298.7548241998978,2.8763499058685307,0.07831453176860025,0.0008641127607283273
1_2,XY,324,297.9559377403326,3.29053081819896,0.07107032861823458,0.0008920053998863392
1_2,XY,345,296.5791304485392,2.921539894169662,0.08154560911542638,0.0009174444356490114
1_2,XY,366,300.38155670377546,3.271878473593619,0.0718512802798679,0.0008913817651844347
1_2,XY,387,298.119137650747,3.1126140675415046,0.08161029681248674,0.0009857730360551152
1_2,XY,408,302.81237041664434,3.103651246382292,0.06680265070697303,0.0007821014650695203
1_2,XY,429,301.8173682559778,2.9543663077569735,0.07647195459756069,0.0008440099919214262
1_2,XY,464,298.2484193094847,3.2290235040477713,0.07251994509305074,0.0008881874448823784
1_2,XY,485,300.5543782823864,2.83893972326879,0.07495428650455292,0.0008180380411758809
1_2,XY,506,300.5582061513903,3.074093903674926,0.0645877005543213,0.0007454533720351231
1_2,XY,527,297.50829171419366,3.1430133872030654,0.07393836185098333,0.0008891494744571706
1_2,XY,548,300.18832586923764,2.8381679970267832,0.07123193624503225,0.0007728430317760175
1_2,XY,569,298.4671577090086,2.6688690333790435,0.08018804058698349,0.0008210970237499095
1_2,XY,590,301.2334497894286,2.9599787649749234,0.067989740947276,0.0007659564272737999
1_2,XY,611,298.3541735803385,2.872174645611584,0.07668519543243829,0.0008521972727717618
1_2,XY,643,300.8179279535691,3.3768060936523265,0.0708018191791531,0.0009128643149671978
1_2,XY,664,300.3679659691452,3.1603943920970696,0.07457345615336065,0.0009041736061692934
1_2,XY,685,299.9760927095896,3.5414724695306705,0.06406925812906847,0.0008591966490607204
1_2,XY,706,299.8140211524733,2.872604668369422,0.07107239498322405,0.0007824915076184818
1_2,XY,727,300.10501815337466,3.3487960849195635,0.06760952689339228,0.0008577962726631336
1_2,XY,748,299.6188192429659,2.7353373379001984,0.07796598523661186,0.0008116526989158587
1_2,XY,769,293.4057544864719,3.177681443219993,0.06351896646907777,0.0007757445895441166
1_2,XY,790,303.10254004405385,3.1920449494119034,0.06934110609283879,0.0008457934552014359
1_2,XY,822,299.43853631643816,3.097344544944013,0.07297370976108283,0.0008650742905494373
1_2,XY,843,299.3817837848996,2.9896925417096334,0.0735193545120233,0.0008405259537825411
1_2,XY,864,297.4605639896087,3.131160860525154,0.06963666300023472,0.0008347590608739367
1_2,XY,885,298.9903187056778,2.8647595685803138,0.08080128299052157,0.0008837577729568516
1_2,XY,906,298.76585862085767,3.2874966965760386,0.06657834849127633,0.0008339852602302634
1_2,XY,927,296.57133376901834,3.23150462090012,0.0787005143745528,0.0009695911216987864
1_2,XY,948,300.3804260872604,3.052016903552285,0.06680957194542893,0.0007666483881216578
1_2,XY,969,298.4054973588436,3.1914606422959726,0.07534471169803725,0.0009291015214990732
1_2,XY,1018,298.69094687141364,2.8161443067766148,0.07441873336279815,0.0008001644958306753
1_2,XY,1039,301.47682967209875,2.8195368094366775,0.07851315738654377,0.0008384924711557071
1_2,XY,1060,299.2782693707569,2.902418967062433,0.07022864360685031,0.0007729162454031838
1_2,XY,1081,300.7288649801808,2.764306363728063,0.07622857453768585,0.0008036965213991707
1_2,XY,1102,298.3696197390373,2.941620328905357,0.0673472613790765,0.0007523697585014988
1_2,XY,1123,300.69573345250143,3.104373795147816,0.07509147312883303,0.000876820735977677
1_2,XY,1144,297.886562452926,3.604413079518325,0.06988357168762992,0.0009658797857845752
1_2,XY,1165,297.2129099211716,2.7365756375003945,0.07953062230739885,0.0008353251646820529
1_2,XY,1197,301.8934168152378,3.2286541324599884,0.07114381223073682,0.0008822917566352144
1_2,XY,1218,299.8421176703673,3.0842930374553053,0.0786856378018204,0.0009321425807061809
1_2,XY,1239,303.2539369118784,3.2877684268525953,0.06838177459953483,0.000843800923509692
1_2,XY,1260,300.07632740972844,3.154684751541816,0.07867575970466617,0.0009466833650536937
1_2,XY,1281,300.43220631219293,3.5373243032122548,0.07154673596592834,0.0009586101181516323
1_2,XY,1302,297.8185627781124,2.861613744825669,0.0803119577630177,0.0008796430453371197
1_2,XY,1323,300.64256431658157,3.237189172621373,0.06507368582931405,0.0007920253718433211
1_2,XY,1344,298.4427923932643,2.913299239131455,0.0754384678036528,0.0008432225837130469
1_2,XY,1376,305.7502761226918,2.8290836176646343,0.06797464606772742,0.0007140802736534867
1_2,XY,1397,302.7553573657142,2.7197068050092135,0.07695594762148056,0.0007976903964757566
1_2,XY,1418,300.80910073854324,3.1985215091875423,0.07075794063702172,0.0008586422581054851
1_2,XY,1439,300.99900437902494,3.0951176384781727,0.07432217761490126,0.0008776774901994574
1_2,XY,1460,299.0174578287047,3.0063388200348995,0.06862878094142753,0.0007844930890462235
1_2,XY,1481,297.0912031254683,3.1979565332839877,0.07734283663650221,0.0009475112396272144
1_2,XY,1502,299.8566678281871,3.6456927951276934,0.06821626656396544,0.0009482442867377336
1_2,XY,1523,302.15652488793523,2.8544169815095235,0.07059850172868175,0.0007534009068395313
1_2,XY,1555,295.5264560757544,3.305294726711581,0.07200903184347392,0.0009111773663276781
1_2,XY,1576,301.36966931371325,2.935732815400783,0.06766440148606316,0.0007519548794084808
1_2,XY,1597,301.21686916058087,3.326058787751698,0.06943465514611391,0.0008577970013383298
1_2,XY,1618,303.1194515362375,3.096772766128998,0.07302942784443452,0.0008481597127463544
1_2,XY,1639,299.2572737485334,3.5182599890098762,0.07799352140996774,0.0010416386699952137
1_2,XY,1660,302.0371541098187,2.807893136815478,0.08065645296375476,0.0008536326348880817
1_2,XY,1681,303.87325285600696,3.107005540828087,0.07289453716883747,0.0008506342647005889
1_2,XY,1702,301.6391859949542,2.807972433210138,0.07926303671226313,0.0008287494597614773
1_2,XY,1734,300.6365986432601,3.395001829849951,0.07219247918364967,0.0009057151863159457
1_2,XY,1755,300.27466026493795,2.8178784785091016,0.07220230503411716,0.0007692603940734495
1_2,XY,1776,301.54949140058756,2.9748226615105753,0.07277304927009697,0.0008198806386233131
1_2,XY,1797,303.46664796387637,2.8625627189157163,0.07903665323015115,0.0008488034348966707
1_2,XY,1818,301.53237425491295,3.3897920658456258,0.07245299604175709,0.0009156984594463778
1_2,XY,1839,313.0568627707611,2.9741696138366676,0.07020963724269051,0.0007548930164020847
1_2,XY,1860,296.51165981481415,3.229488685123498,0.07554858427588465,0.0009401057372793797
1_2,XY,1881,300.1221056469384,2.6805770417382675,0.07914478321666531,0.0008102885991337332
1_2,XY,1916,299.2963930072964,3.5937540849263865,0.073870831885671,0.0009950203806413293
1_2,XY,1937,301.6226655173105,2.760734265577939,0.07062967982982436,0.0007417944718328731
1_2,XY,1958,303.4953269998903,2.908976668787853,0.06920943996506645,0.0007564776903813183
1_2,XY,1979,300.07802680278286,3.305594442927101,0.07598953081353726,0.0009523666749542367
1_2,XY,2000,298.08437030986016,2.7801795112645173,0.07549867701810795,0.0007933967720900936
1_2,XY,2021,296.7730354806679,3.0902489515851617,0.0800708737078559,0.000950357892589947
1_2,XY,2042,300.4039668633525,2.830298445285943,0.07263930573740868,0.0007847387326660724
1_2,XY,2063,293.6732661751927,2.7883871938561415,0.08080360921685352,0.0008760525820945297
1_2,XY,2095,297.86964357017325,3.0798895302236216,0.07287255923991186,0.0008649845856547662
1_2,XY,2116,294.3560212918032,2.882179669677425,0.07686367774453665,0.0008515448709529495
1_2,XY,2137,301.24701762267046,3.0551844979580767,0.07092814209161531,0.0008347104269679407
1_2,XY,2158,298.7360243604418,2.949492448471109,0.07848545458337486,0.0008874180263172826
1_2,XY,2179,300.6476984384054,2.7042544336763483,0.0731887188304972,0.000750238254324135
1_2,XY,2200,302.45747813734636,2.599298854693555,0.07897900741039723,0.0007871372084560976
1_2,XY,2221,301.24163308887853,2.8410350072979957,0.0737285148862202,0.0007919189154521793
1_2,XY,2242,297.0565096189342,3.2842760516858127,0.0799107805798061,0.0010069223564613003
1_2,XY,2274,299.2750869147772,3.2200707698433537,0.07463508741960502,0.0009104041595094267
1_2,XY,2295,304.5876153681657,2.619981020906907,0.07859746349726685,0.0007699881536618188
1_2,XY,2316,295.9092651419172,3.1578962254083076,0.0742874048364382,0.0009057680711852016
1_2,XY,2337,302.3510181410515,2.7515998642571544,0.07667947180427623,0.0007935868407141645
1_2,XY,2358,298.01672019527444,3.317251929777187,0.07250854727748304,0.0009238096182241782
1_2,XY,2379,301.5326932269833,2.5865123323359547,0.07888454574214837,0.0007650169577789512
1_2,XY,2400,298.58911909074584,2.8272171923623897,0.07075537725404285,0.0007596844986936307
1_2,XY,2421,301.85369007715985,3.1107762765202445,0.07632143335582862,0.0009049851612631156
1_2,XY,2453,300.7749949965383,2.9569343980457132,0.07583263519883385,0.0008558805324115925
1_2,XY,2474,301.33760792409805,2.7895903851033412,0.07980696668234605,0.0008472576018450024
1_2,XY,2495,299.1404253424855,3.3607708021002747,0.07427820857849012,0.0009528085421250488
1_2,XY,2516,297.03144338206914,2.946542860740786,0.07996363291991687,0.0009165156341836421
1_2,XY,2537,299.93730187591734,2.892323750065958,0.07486337360374637,0.0008169026114416334
1_2,XY,2558,298.2117676279614,2.9518538867339914,0.08237073029275721,0.0009346798303219723
1_2,XY,2579,296.1944135851766,2.599139241706228,0.0770843205362551,0.0007723944529113617
1_2,XY,2600,298.4657573012086,2.9429630670301874,0.08167328490396031,0.0009242905133526539
1_2,XY,2632,299.8298569381228,3.1677853186052722,0.07530768891605472,0.0009045213663046308
1_2,XY,2653,296.291032762275,2.613498513082891,0.07910321350868703,0.00079273549160822
1_2,XY,2674,301.23827393500886,3.067128685406,0.07484334798804229,0.0008644649695503653
1_2,XY,2695,302.4698325859832,2.9704611355702557,0.08116711904599679,0.000911181409494821
1_2,XY,2716,299.61709233509663,3.2819799330295902,0.07322694399945569,0.0009055542630173681
1_2,XY,2737,299.57086282705745,2.6150096590084217,0.07800847841717433,0.0007735088790839296
1_2,XY,2758,300.0700295782801,2.7009438121523477,0.07112933575972473,0.0007345894657160001
1_2,XY,2779,301.17338354361095,2.892875067866417,0.07581412872609086,0.0008308065195351073
1_2,XY,2818,301.1477955156367,3.6399681154535997,0.07476762713433573,0.001015058234039256
1_2,XY,2839,302.6493122000363,2.616487283287379,0.07866552210218822,0.0007819107675621263
1_2,XY,2860,299.4161221308608,2.897943907083735,0.07490324611463743,0.0008289459294019521
1_2,XY,2881,300.95086241785117,2.7462990082347543,0.08013487466345767,0.0008413667061108358
1_2,XY,2902,297.3445754719979,2.8058719307252966,0.0755196356224767,0.0008262834538851745
1_2,XY,2923,301.07319111813206,3.131988169760312,0.08035325393480104,0.0009491068766135486
1_2,XY,2944,297.60644006788954,3.065821660638719,0.07264074125425994,0.0008517235732075644
1_2,XY,2965,299.18002672425473,3.002820761735984,0.07672474891701614,0.0008675084701250319
1_2,XY,2997,301.20103020138674,2.9559826654479173,0.07212344605586472,0.0008021579467001379
1_2,XY,3018,300.7634884828683,2.607248715044065,0.07660812108983286,0.0007571439192437529
1_2,XY,3039,299.3693780212986,3.027289777051214,0.07028172202585957,0.0008163802668719628
1_2,XY,3060,301.8340894369704,2.8314233934228086,0.07545698180820329,0.0008034920474406004
1_2,XY,3081,301.97165072057504,2.9602490789594493,0.0727108342732618,0.0008036892501010996
1_2,XY,3102,301.353717399504,2.640780902248535,0.07993859893225182,0.0007967929937108823
1_2,XY,3123,297.3128829725072,2.9181986689280732,0.07580435010553904,0.0008381747042525497
1_2,XY,3144,300.96017447462117,2.857909492640479,0.08078659350549154,0.0008803034550030497
