XscanNumber_YscanNumber,Type,BCID,xsec,xsecErr,SBIL,SBILErr
1_2,XY,103,140.79045376901664,1.2062866437618407,0.06598005906612449,0.0006242959133677245
1_2,XY,124,136.33688299332744,0.8932668772616186,0.07976719694910511,0.0006036467384364838
1_2,XY,145,136.69506630116732,1.074350404012155,0.06413425811697603,0.0005812407168985306
1_2,XY,166,137.34437700496323,0.9288299107123253,0.07429426513322251,0.0005736333118808836
1_2,XY,187,137.07129510777656,0.9538089251570185,0.06471468691658917,0.00051558462289655
1_2,XY,208,137.0550833328283,1.0612591532884188,0.06793859477674713,0.0006029639332301966
1_2,XY,229,135.324835449488,1.0043354796699517,0.07017286271269389,0.0006063833998682066
1_2,XY,250,136.69771225334233,0.9336883677188674,0.07621264531303097,0.0005977612676341931
1_2,XY,282,137.75841606658332,0.9554733842068076,0.07416035568706952,0.0005959381004665919
1_2,XY,303,135.910344101259,0.9104454389216113,0.07816945088913395,0.0006074018888397085
1_2,XY,324,137.06144726796504,1.0433677822133935,0.07085124373688596,0.0006172241471651375
1_2,XY,345,135.6322818232669,0.929142509346338,0.08048196101470474,0.0006278769384246518
1_2,XY,366,136.95832137935577,0.9247654274823496,0.07143254939610572,0.0005592878616402928
1_2,XY,387,136.7209855509056,0.8744797690548901,0.0792023100598018,0.0005832179209998566
1_2,XY,408,136.2255558516507,1.1124708862826653,0.06816188162362964,0.0006356774740428702
1_2,XY,429,136.2829962753113,0.9264455970675879,0.07658877512095993,0.0006002919770208108
1_2,XY,464,136.57867327858472,0.9199335104912488,0.07467092078460676,0.0005831312284659644
1_2,XY,485,137.25053924358772,0.9674401698615376,0.07671061041994173,0.0006117437470958457
1_2,XY,506,138.47993120845,1.0531663141452,0.06498822263777236,0.00056404554723568
1_2,XY,527,137.0367212297576,0.915496580712093,0.07314240480793796,0.0005683365356270683
1_2,XY,548,137.68365024009083,0.9114946323833185,0.07123750521348901,0.0005540670895904413
1_2,XY,569,136.52508397092026,0.8544093333733187,0.08008345451309153,0.0005795358662471459
1_2,XY,590,137.08112687985886,0.9728843927205021,0.06906780708465465,0.0005623684769913183
1_2,XY,611,136.7725340192403,0.9656355257986807,0.07762298237403047,0.0006316428067208635
1_2,XY,643,138.43165795241148,1.63178983946517,0.07205120896030079,0.0008875581833496444
1_2,XY,664,138.096988251648,0.8847099553834559,0.07544942520004293,0.0005664977498115452
1_2,XY,685,135.5494217310843,0.94816279186473,0.06683706466330663,0.000539737823015353
1_2,XY,706,136.9038153175149,0.8517996535080601,0.07364786615251612,0.0005261515430235815
1_2,XY,727,136.74817778756687,0.9224873972349704,0.06892290467469708,0.0005457183147182331
1_2,XY,748,136.8040064410775,0.9525592229194112,0.07884427258898265,0.0006341965821921567
1_2,XY,769,136.5404125808022,0.9804529614699645,0.06356526070288969,0.0005296802811330205
1_2,XY,790,136.89627440651418,0.949814732980529,0.07222078274852953,0.0005740484783170099
1_2,XY,822,140.51798756577148,0.9309557128910031,0.06916857808786489,0.0005255843152742911
1_2,XY,843,137.50171024214484,0.8287791010330545,0.07621555924736532,0.0005329218896518599
1_2,XY,864,137.52515344939462,0.9420599766115054,0.06912766383866686,0.000546474392077797
1_2,XY,885,136.60344028987242,0.8976137210605867,0.08037992964593951,0.0006068112843983722
1_2,XY,906,136.37819122036277,1.041499172783413,0.06781267789073255,0.0005869177514760161
1_2,XY,927,136.4101789689621,0.7959261456896533,0.07750322269322149,0.0005166860612969445
1_2,XY,948,137.49056020300884,0.9038720172186352,0.06793702921380274,0.0005129917225649269
1_2,XY,969,136.5384513306782,1.082749021362181,0.07553623257487685,0.0006895567161270895
1_2,XY,1018,136.59968720289666,0.9691094580976235,0.07407794377076549,0.0006069210151441025
1_2,XY,1039,136.9468672540654,0.8874785452488172,0.07807344563117238,0.0005909946646095915
1_2,XY,1060,138.56151749408144,1.008383109873823,0.06827986045976653,0.0005666711047462362
1_2,XY,1081,138.495610078255,0.9587409168045754,0.07583418685235428,0.0006016450690763688
1_2,XY,1102,137.5367908052413,0.9321025106385665,0.06682644856360422,0.0005228968287294947
1_2,XY,1123,137.41468450716877,0.9305117096764542,0.07405507582586678,0.0005787373080833368
1_2,XY,1144,136.55003111853082,1.089926196560034,0.06887882031939689,0.0006254619133486053
1_2,XY,1165,136.36118880409836,0.8024775462402988,0.07990741421337247,0.0005397895601588213
1_2,XY,1197,137.80768027398997,0.9539054030651295,0.0712789916109419,0.0005742412484138175
1_2,XY,1218,136.20492818285493,0.8718620788622928,0.07827329837768668,0.0005789885266904933
1_2,XY,1239,136.5835884962096,0.9708626753639712,0.06874413627451648,0.000570719183498084
1_2,XY,1260,138.79187894264743,0.8006538330740158,0.076579746378043,0.0005129847443317897
1_2,XY,1281,137.38207632887756,0.908720371826088,0.07008582971698227,0.0005279939423991859
1_2,XY,1302,137.2753425839049,0.9961978680788024,0.0782902568316203,0.0006574868792732393
1_2,XY,1323,136.67436204814908,0.9877194661166175,0.06476278267212898,0.0005320344718010117
1_2,XY,1344,137.6978393202441,0.9722823442657146,0.0754403270482463,0.0006067098561224932
1_2,XY,1376,138.03111964714512,0.9468264744936571,0.07105198057959176,0.0005666993700068155
1_2,XY,1397,137.39833154977867,0.8660095492523858,0.07495702301617113,0.0005444699121370622
1_2,XY,1418,137.05833564139948,0.9112795660628635,0.0718728378354453,0.0005508156972972152
1_2,XY,1439,139.39042577952355,1.4768082747408524,0.06483776715510542,0.0007338430288548997
1_2,XY,1460,137.25514345733356,0.9445882288205765,0.06899534100342979,0.0005521579902554024
1_2,XY,1481,136.7919494390255,0.9335031183909362,0.076667448251876,0.000608300230499592
1_2,XY,1502,135.20984038997688,1.063293223276969,0.06976995749101438,0.0006352769912822362
1_2,XY,1523,140.13506683124612,0.959138938998991,0.0633996669743657,0.0004966238876438281
1_2,XY,1555,139.20110626432495,0.8800105215705734,0.06470908067386158,0.0004728036948228297
1_2,XY,1576,139.1006096422971,1.002708487484308,0.06791133142567533,0.000571122953386645
1_2,XY,1597,139.00346852264644,1.1024652184621386,0.060324231752056014,0.0005508476061480489
1_2,XY,1618,139.868783827789,0.937211336002238,0.06685654438630347,0.0005192198672965777
1_2,XY,1639,138.05972877178434,0.8506303814515526,0.0781870443066744,0.0005552671306173437
1_2,XY,1660,136.69678683062955,0.8267927808183819,0.08311805019144573,0.0005846043400951813
1_2,XY,1681,137.19039952261835,0.9108207893183534,0.07477349879439055,0.0005794099933127997
1_2,XY,1702,137.0956991194821,0.9131746632960343,0.08091909157825837,0.0006308779693459246
1_2,XY,1734,137.9006457010386,0.9116205903828698,0.07235454548305158,0.0005503516635811521
1_2,XY,1755,139.5376544055638,0.9820075036670822,0.06119678076607515,0.0004929709840066211
1_2,XY,1776,136.7526499996088,0.8924013639170498,0.07324905350794533,0.0005584900721374986
1_2,XY,1797,137.05133375545805,0.870021423327247,0.07959032601357893,0.0005866995113100928
1_2,XY,1818,139.40415561140094,0.958614924235948,0.06768960468495837,0.0005382954366968376
1_2,XY,1839,140.5042851271236,0.9448383432978746,0.06181916340044146,0.00047786844170596423
1_2,XY,1860,137.2746288683523,0.8921206014143962,0.07576918838302783,0.0005740129819211935
1_2,XY,1881,138.18075909195204,0.8493505137807149,0.07845458918809474,0.0005635845611196465
1_2,XY,1916,136.63446219641597,0.8271397070370975,0.07488535888026628,0.0005254899328061445
1_2,XY,1937,140.36729643841548,1.011661502833581,0.06343072586028986,0.0005332814576065601
1_2,XY,1958,136.93464147021737,0.9199459963216519,0.0715824151082531,0.000555438844570502
1_2,XY,1979,137.05835917194656,0.825744941850013,0.07714891553039686,0.0005344310117490664
1_2,XY,2000,137.34964058017405,0.8686168443734386,0.07492377911729485,0.0005424137075217758
1_2,XY,2021,137.74267437410865,0.82431940746781,0.0789167105717814,0.0005429443190456917
1_2,XY,2042,137.26096145977687,0.952224994668602,0.07434936217643417,0.0005892070401161951
1_2,XY,2063,135.30465730554397,0.9110487442379408,0.07960103502554776,0.0006279476305839721
1_2,XY,2095,136.99604705206016,0.843424008598455,0.07390319626021367,0.0005183939366599903
1_2,XY,2116,136.99277258585394,0.9571020447563394,0.0764857801217748,0.0006171000023066993
1_2,XY,2137,136.86901072948618,0.9061700091741138,0.07255161668360428,0.0005608708233991239
1_2,XY,2158,136.0358628076103,0.9160867132672634,0.07844466624893712,0.000614514101294055
1_2,XY,2179,136.89137413452292,0.8675725854001233,0.07447151418437968,0.000541251859760213
1_2,XY,2200,137.03437267393946,0.9685372288767139,0.08000963906738795,0.000648267958785633
1_2,XY,2221,137.4123794660806,0.8883613775591905,0.07560066372311104,0.0005703272378922173
1_2,XY,2242,137.04649454386973,0.8834780532260545,0.07837161092611915,0.0005879049020842984
1_2,XY,2274,138.17303071871947,0.8968515220038438,0.07460597227411342,0.0005617684561206364
1_2,XY,2295,137.3426843295783,0.8743754202102846,0.07986121553511337,0.0006008844216963583
1_2,XY,2316,136.4036932305462,0.9284807993045754,0.0743690087521586,0.0005891072404849896
1_2,XY,2337,138.52042425681896,0.8480823172125186,0.07478697255722985,0.0005192552938849798
1_2,XY,2358,141.41602176281182,3.1320787645173387,0.06529062884591999,0.001466779204751012
1_2,XY,2379,137.03841655268334,0.8679523266797115,0.07931168428559862,0.000582870198601897
1_2,XY,2400,135.6688128696628,1.0279344316236638,0.07199592069819952,0.0006277004275290974
1_2,XY,2421,138.2642803200092,1.0038485520984524,0.07752748615925459,0.0006433581549800015
1_2,XY,2453,138.16010662604268,1.0290945464258408,0.0767388852766135,0.0006413091265281033
1_2,XY,2474,137.3140785726752,0.9479790172752729,0.08151529008775651,0.0006513554558771478
1_2,XY,2495,136.60262440907664,0.8748565466161888,0.07364183671636661,0.0005544088115564578
1_2,XY,2516,135.98239663192427,0.8780775284889867,0.0795637276074755,0.0005835628762701637
1_2,XY,2537,137.80467168779958,0.9210877905038856,0.07496395377472714,0.0005733508887613406
1_2,XY,2558,136.86852816723712,0.8528201838400756,0.081956485677604,0.0005902912519511394
1_2,XY,2579,136.78916899529906,0.889094101036961,0.0778335081252944,0.0005908336530521938
1_2,XY,2600,135.28686315092295,0.9738069248215608,0.08225823344248392,0.0006911645145837642
1_2,XY,2632,136.4057337099722,0.8117706538579762,0.07659568179375237,0.000521753405169723
1_2,XY,2653,136.83896843395246,0.897571415767785,0.07735677424767388,0.0005823373093620173
1_2,XY,2674,139.06438039912413,1.0509443819844948,0.0669707385646118,0.0005701357542255877
1_2,XY,2695,136.00405480266195,0.858755309423512,0.08098458475799615,0.0005981243472649012
1_2,XY,2716,137.72322099672567,0.935864137854636,0.06675014478818943,0.0005211255358175199
1_2,XY,2737,137.56631495927718,0.8647852043140615,0.07761026113193073,0.0005667360541148296
1_2,XY,2758,136.3369787438662,0.9630162113840626,0.07229681264406905,0.0005962576288518312
1_2,XY,2779,137.03679284391214,0.867004881531407,0.07701526335046867,0.0005581369340784278
1_2,XY,2818,135.4865235211244,0.9438385470606543,0.0769339296169662,0.0006190738754421943
1_2,XY,2839,136.77164562107683,0.8470532944763719,0.07991792726730229,0.0005730962199935874
1_2,XY,2860,137.24592152847657,0.9381490869785601,0.0751653646866444,0.0005902812685795461
1_2,XY,2881,136.88591338795575,0.9028270776217208,0.07999629185450996,0.000609850992876654
1_2,XY,2902,136.5908207607962,0.9149570803637713,0.07608015052736257,0.000588894015686108
1_2,XY,2923,136.83026212286276,0.8732021851640971,0.08003373780236779,0.0005931693239590414
1_2,XY,2944,136.69215508783498,0.8757344814782525,0.07312304559559421,0.0005424358264628173
1_2,XY,2965,136.68772874812666,0.8257887322919037,0.07721329689750915,0.0005372055744109664
1_2,XY,2997,136.7270328738534,0.8829369086069062,0.07411546145160147,0.0005558170604002184
1_2,XY,3018,137.004974795,0.8602764209864814,0.07830906550469487,0.0005771255349120756
1_2,XY,3039,137.59067786291615,0.9594440324922665,0.07074497507417951,0.0005689746172097464
1_2,XY,3060,137.17443363714457,0.8571305265198702,0.0753415722990899,0.0005381980442934773
1_2,XY,3081,136.5730462659534,0.9565149491999333,0.07386163478532408,0.0006010080512381728
1_2,XY,3102,135.95733459120288,0.9587603534526858,0.07897199492134425,0.0006383424911523455
1_2,XY,3123,137.2600347263192,0.8223345519347156,0.07624270648376626,0.000520322947870683
1_2,XY,3144,137.01941246479572,0.8919237148745445,0.0799442926346232,0.0006001739630170409
