XscanNumber_YscanNumber,Type,BCID,xsec,xsecErr,SBIL,SBILErr
1_2,XY,103,3326.197547872903,21.56651243374109,0.06720469990900073,0.0004989801618874669
1_2,XY,124,3262.0336266880536,20.83682560414007,0.08037138117264292,0.0005888050377479982
1_2,XY,145,3288.627763541203,21.09690130782493,0.0644377500984562,0.00046791583040822694
1_2,XY,166,3261.676719045492,20.126711145866842,0.07528620020262872,0.0005317240366624114
1_2,XY,187,3255.444336774831,21.798475490448535,0.0655846155826673,0.0004939491737521612
1_2,XY,208,3284.7637100934085,20.509867196142,0.06840767360904805,0.0004845731402682289
1_2,XY,229,3259.944392422458,23.38858948328128,0.06980414949360338,0.0005677277305759985
1_2,XY,250,3247.827836228137,19.753923283757285,0.07821901221889212,0.000542192255519651
1_2,XY,282,3248.398215194832,20.96229281785297,0.07558560275528103,0.0005590875465197713
1_2,XY,303,3255.4678702678884,19.6776840172274,0.07877210483886989,0.0005440115618960176
1_2,XY,324,3246.1385004135254,19.7588899372339,0.07123456469764207,0.0004927806542959027
1_2,XY,345,3257.561080358469,18.842378881008358,0.08058991606252133,0.0005310673485695768
1_2,XY,366,3249.133254121338,19.927345701875634,0.07329090614394144,0.0005196390277379447
1_2,XY,387,3244.576693997777,19.376278346762994,0.08119089766028606,0.0005551980352589972
1_2,XY,408,3243.8698439140094,21.736278971367874,0.06951779404485356,0.0005365720306084471
1_2,XY,429,3252.7063233405543,20.301617058414585,0.07751994214926128,0.0005517907123575961
1_2,XY,464,3275.944377849386,19.031801231327474,0.07426720415048525,0.0004977994960656476
1_2,XY,485,3266.4094588070993,17.328363894592563,0.07733271011512775,0.000467522802413442
1_2,XY,506,3267.4759275290985,22.630892842851132,0.06667469775121013,0.0005294435462872498
1_2,XY,527,3284.414204722238,17.634052541638038,0.07343058243684299,0.0004505548246612707
1_2,XY,548,3276.4772783735416,20.311887994223266,0.07210678259606704,0.000513576668065314
1_2,XY,569,3266.300044674044,18.602003702796516,0.08039853992230542,0.0005351400661590091
1_2,XY,590,3260.113535483344,19.975604839942193,0.07007911566834163,0.00048761180658317616
1_2,XY,611,3277.6431751599694,18.778666073056762,0.07806993862019017,0.0005145390663154004
1_2,XY,643,3284.388474034144,20.12798847585462,0.07373621295521862,0.0005151531458618443
1_2,XY,664,3264.3004896998355,20.866844713771435,0.07706840869966096,0.000565138343441355
1_2,XY,685,3264.010274359826,20.005735262457222,0.06704348339287261,0.000476622886943065
1_2,XY,706,3305.3651032272046,19.551558339787473,0.07308095306649201,0.0005063807313621541
1_2,XY,727,3251.6468658044287,22.817141216296562,0.0701670688435258,0.0005631026315991251
1_2,XY,748,3274.029478025137,19.28488615675125,0.07919905137012595,0.0005385502403022259
1_2,XY,769,3247.248994857368,19.6441248587601,0.06458909506331685,0.00044757886696223607
1_2,XY,790,3268.793380540835,17.96502634794552,0.07205918681893653,0.00045184261108541365
1_2,XY,822,3346.563537985463,17.95783238160494,0.07008163638042625,0.00043009903930272105
1_2,XY,843,3294.4624138825534,22.137198413000906,0.07574892230141039,0.0005768130365558064
1_2,XY,864,3282.6506495331787,21.524238742501417,0.07015407758975521,0.0005245321199472145
1_2,XY,885,3259.529644170522,18.159298594532554,0.08057822367239303,0.0005249444837812794
1_2,XY,906,3266.8171252422335,22.01590438965215,0.06868128901201188,0.0005284482631878498
1_2,XY,927,3270.887736116577,18.276444753082366,0.0782040983723782,0.000502389273895103
1_2,XY,948,3282.469950804315,19.124153842992015,0.06903822751592154,0.00046204099533842246
1_2,XY,969,3251.846361537394,18.731683698532795,0.0774581146149042,0.0005030210315611502
1_2,XY,1018,3294.054246233802,20.13773942946921,0.07451053337370732,0.0005264344717183096
1_2,XY,1039,3274.6463324565166,19.573902584876734,0.07906362948123978,0.0005477103726348677
1_2,XY,1060,3275.98004091368,17.911650548738198,0.07006422585467054,0.00044077573790845794
1_2,XY,1081,3272.6424496245286,16.967802234078206,0.07721606857768797,0.00045410720204913554
1_2,XY,1102,3276.8343127614667,20.364238804991444,0.06808433539916554,0.0004889326913002152
1_2,XY,1123,3279.183244341472,20.020708706113133,0.07534350988963542,0.0005247898021096732
1_2,XY,1144,3277.899565242402,21.476328127418178,0.06988474742333102,0.0005280586201422613
1_2,XY,1165,3264.594731006247,19.476073346382293,0.08035440739402144,0.0005429580394597157
1_2,XY,1197,3267.203622149931,19.711814117116123,0.07209685485155731,0.0005042637834057211
1_2,XY,1218,3265.506870927464,16.829950335895383,0.0786475788342985,0.0004610846361509088
1_2,XY,1239,3264.858859811589,20.945220487439833,0.06991171310646743,0.000517797866023504
1_2,XY,1260,3311.3326223210047,17.475182650025285,0.07724521120238134,0.00047504888858836716
1_2,XY,1281,3264.710352370978,19.2006965768082,0.07117231844126685,0.00048019847017503366
1_2,XY,1302,3269.548738943669,17.990458587775805,0.07906737132566682,0.0004907596959600317
1_2,XY,1323,3274.7476010508585,19.945740508631776,0.06502640570327811,0.0004532683580831647
1_2,XY,1344,3264.6316672236994,19.06477381824455,0.07638316261021162,0.0005129031503505565
1_2,XY,1376,3295.1193820878757,20.24028912868525,0.07181441068711149,0.0005024898302769973
1_2,XY,1397,3297.671466283503,19.88231491656612,0.07470903393883564,0.0005147224142246197
1_2,XY,1418,3285.338172861341,17.51340189950754,0.07235769155324524,0.000442751481983953
1_2,XY,1439,3311.7294580781167,20.97183089910129,0.06576246185338705,0.0004756156603782722
1_2,XY,1460,3294.6602608795065,19.214510223119834,0.0693304352059452,0.0004636804958557553
1_2,XY,1481,3280.756166828826,18.666731832642927,0.07635869871078296,0.0004950332311902581
1_2,XY,1502,3278.421992969581,21.387370497068392,0.069414492260035,0.0005195483764818969
1_2,XY,1523,3323.2471463347433,22.032732043949174,0.06417166114984893,0.0004886260033491272
1_2,XY,1555,3322.174327112444,18.470010327480473,0.06489033470987796,0.0004220776897916723
1_2,XY,1576,3312.7301043586376,19.245664464528723,0.06862729903038524,0.00045421901894050315
1_2,XY,1597,3321.685872491475,22.280175078157406,0.060636250837560565,0.0004622935462789502
1_2,XY,1618,3345.1469276115777,19.901904699730025,0.06741205688853448,0.0004624303162476502
1_2,XY,1639,3291.519998717709,19.048783875728777,0.07879089389876999,0.0005190842042310377
1_2,XY,1660,3283.8694683791896,18.129548015085696,0.08296665235393884,0.0005245069632881311
1_2,XY,1681,3276.6136857761794,19.512081778994148,0.07548013489455482,0.000514527743312989
1_2,XY,1702,3274.816514876125,19.128727455707995,0.0812081084814099,0.0005388935045606263
1_2,XY,1734,3272.7375844930166,17.102858898529217,0.07392846177838049,0.00044378897099364034
1_2,XY,1755,3321.4504616894765,23.74268856117787,0.06198937340727194,0.0005078598079167545
1_2,XY,1776,3260.962749793893,19.806377939589883,0.07426308919459089,0.0005134374334734987
1_2,XY,1797,3252.1333165264527,19.325187340283478,0.08057321489664654,0.0005486111159425471
1_2,XY,1818,3315.8884016226916,20.84110985674216,0.06836552528876565,0.0004927443471221126
1_2,XY,1839,3359.2540270631316,15.682596359489157,0.06195704784905023,0.00032953545524791965
1_2,XY,1860,3264.615576381104,20.035740222431098,0.07744137490674054,0.000541010110823555
1_2,XY,1881,3280.4750135173226,23.935584796222354,0.08035135675257067,0.0006595745437051249
1_2,XY,1916,3293.027739762052,20.14699251709928,0.07493676860655636,0.0005207857965131483
1_2,XY,1937,3337.323879414734,19.506518482287596,0.0641047439860705,0.00043198422459219874
1_2,XY,1958,3291.8866613392165,20.897676345723912,0.07197027916546438,0.0005183842069162828
1_2,XY,1979,3262.6486666301985,20.994400782840707,0.07736314572887468,0.0005651385756074294
1_2,XY,2000,3265.6267566870656,19.860100561871253,0.07658761966277587,0.0005364788979992492
1_2,XY,2021,3292.2277305121734,17.200448423739637,0.07929613766391165,0.00047864896355274435
1_2,XY,2042,3267.722761952993,21.42424560389073,0.0757539429141738,0.0005699214743782797
1_2,XY,2063,3252.681676887975,18.996875351849212,0.08015156629709147,0.0005359373893873913
1_2,XY,2095,3263.8587870373494,20.252966248584844,0.07443230170255699,0.0005249830788735422
1_2,XY,2116,3271.8908156080543,19.87217551336576,0.07663249668687808,0.0005245348921777898
1_2,XY,2137,3287.1023045577945,19.73088203990179,0.07300720201109304,0.0005032761238354335
1_2,XY,2158,3261.8952791225624,17.88883855936355,0.07935284207454077,0.0005019945150164464
1_2,XY,2179,3280.0787478629654,20.314592034988458,0.07494229096793739,0.0005281285710730369
1_2,XY,2200,3273.693601367965,20.606045726397692,0.08072262691392684,0.0005854863482896861
1_2,XY,2221,3271.7699057736754,22.18197184178357,0.07573488037111839,0.0005839877899352558
1_2,XY,2242,3270.0614005509665,18.42284765578161,0.07948187299650103,0.000514126228581652
1_2,XY,2274,3270.6549940258337,19.680988720387134,0.0762876863080162,0.0005229390097136368
1_2,XY,2295,3295.2215468103122,19.54504546555256,0.08029595493443155,0.0005444388951281458
1_2,XY,2316,3263.83400985682,19.89369527359145,0.07527264526351693,0.000529104051793521
1_2,XY,2337,3333.682794837112,18.49019354249876,0.07476597811062162,0.0004823831224524365
1_2,XY,2358,3333.1152230095104,19.5587124081573,0.06642773796085732,0.0004429042308817346
1_2,XY,2379,3286.917344146398,18.563212504761626,0.07934975410073401,0.0005087632024231323
1_2,XY,2400,3270.947503544977,18.129018194430525,0.07204682698971775,0.0004519092374690431
1_2,XY,2421,3255.2669698944555,19.346448622736705,0.07860259629137371,0.0005392226088990709
1_2,XY,2453,3273.4885594892903,18.016040515743477,0.07799324488905353,0.00048613832244900424
1_2,XY,2474,3273.0598351703384,18.80175673855879,0.0816058951778532,0.000536899957266444
1_2,XY,2495,3262.6565788984435,19.52515930090296,0.07478957598979072,0.0005167849416898972
1_2,XY,2516,3238.5422240598386,16.94875954499612,0.08005405962698306,0.00047772010287205197
1_2,XY,2537,3264.611326003101,18.94454699042984,0.07606987127890891,0.0005051401452295048
1_2,XY,2558,3245.2562137275554,17.96995339205453,0.08361036110082543,0.000525952521364854
1_2,XY,2579,3292.2610973073856,17.356784401592886,0.07758684471574476,0.00046633763461285954
1_2,XY,2600,3249.099801612667,17.62819006103606,0.08137286576580695,0.0005023455926065339
1_2,XY,2632,3280.8562403414417,19.18866612046953,0.07635711309608115,0.0005076592718729489
1_2,XY,2653,3260.959346625671,19.170217494995935,0.0783417534687067,0.0005226716728806654
1_2,XY,2674,3288.561365295513,21.4436381130294,0.0689545206601749,0.000504245078788157
1_2,XY,2695,3273.5308737403043,19.14500030703491,0.08222447771351199,0.0005532300804406902
1_2,XY,2716,3303.7294689981645,25.931159189771712,0.06734109846660205,0.0006066918798660665
1_2,XY,2737,3263.708837162579,19.825571991825985,0.07822772023611305,0.0005454973485737633
1_2,XY,2758,3266.3432931153275,19.637471436130994,0.07367911814416009,0.0005023906204473049
1_2,XY,2779,3270.2971780787843,20.767038888424743,0.07786357843369213,0.0005690579504233853
1_2,XY,2818,3279.405445080364,19.16266636861856,0.07677778030336983,0.0005105330155120233
1_2,XY,2839,3275.2536422650624,19.184965884940027,0.08094591962832162,0.0005433119737933501
1_2,XY,2860,3290.934422481471,20.10565998199512,0.07554683232771228,0.0005321087709133577
1_2,XY,2881,3276.58587486964,19.28524378663274,0.08064411804412387,0.0005358951390678756
1_2,XY,2902,3302.0174964548796,19.229154539083066,0.07582343006060999,0.0005058992492607799
1_2,XY,2923,3273.854811395766,18.309967212414136,0.08056923422899118,0.0005101099187159238
1_2,XY,2944,3266.5946255067083,18.30504897103585,0.07366319189072805,0.0004745671836530158
1_2,XY,2965,3266.3696511190565,16.56113498473822,0.07702896929758572,0.00044586562738765283
1_2,XY,2997,3273.66502771628,18.691905232817238,0.07453014622075713,0.00048077857330385465
1_2,XY,3018,3265.431002812738,20.731276897273368,0.07966447917332699,0.0005733495739244758
1_2,XY,3039,3260.913430080358,18.562574434935588,0.07156729431794645,0.00046250132675524237
1_2,XY,3060,3251.298547660373,18.07591646304078,0.07695946395202986,0.00048804791783681233
1_2,XY,3081,3259.1612897087903,18.666505575372916,0.07448855990479326,0.00048428155578027064
1_2,XY,3102,3246.6701008697723,19.375106308927773,0.07971406930141574,0.0005529659963160494
1_2,XY,3123,3283.1251801205635,17.807238784668918,0.07634204675462748,0.0004752881946087907
1_2,XY,3144,3262.421230107506,18.20994794657412,0.08153547590820641,0.0005265212017127255
