XscanNumber_YscanNumber,Type,BCID,xsec,xsecErr,SBIL,SBILErr
1_2,XY,103,3276.3590392877763,19.957236246872498,0.06558594059831996,0.000454189456319261
1_2,XY,124,3226.0775617356194,19.060705542542753,0.08235599474122605,0.000557249371436075
1_2,XY,145,3239.6099188252,22.481934903861646,0.06624293555824828,0.0005292688242997131
1_2,XY,166,3273.7149553234176,19.752805951590016,0.07491978501421179,0.0005187959071435736
1_2,XY,187,3249.467633279331,19.43698727110789,0.06624389417101706,0.0004546709526928856
1_2,XY,208,3276.411207314257,18.944425542378603,0.06930172012903515,0.00045779815153251346
1_2,XY,229,3239.9317830528935,21.307456232577376,0.07081949611101843,0.0005360774342192655
1_2,XY,250,3229.553871879369,19.056018089873437,0.07861616459966587,0.0005249796359307937
1_2,XY,282,3257.4350088296787,14.261046176438144,0.0770691983538153,0.0003887200502526776
1_2,XY,303,3245.5523229674986,17.696622191420243,0.08061930971169518,0.0005062204424502282
1_2,XY,324,3254.8895408679837,19.520218310652336,0.07182134864441693,0.0004924861912468442
1_2,XY,345,3259.646482446057,18.945331785134425,0.08081310162774248,0.0005456585875484704
1_2,XY,366,3269.7689048680236,20.19893549854391,0.07372748449044614,0.0005235431330506735
1_2,XY,387,3253.6444627825376,17.092039299087293,0.0807773030833409,0.0004873903341004369
1_2,XY,408,3252.8798739657,19.755885846988402,0.06949652640174199,0.0004810484833264376
1_2,XY,429,3255.5174376230157,19.03377902610087,0.07789339237239262,0.0005142201636595586
1_2,XY,464,3267.513318871336,19.678237561812168,0.07553807528436993,0.0005254412469868177
1_2,XY,485,3273.9349879039246,16.388903269800277,0.07863370901705082,0.00046057775211992726
1_2,XY,506,3263.3691526340117,17.801094508571808,0.06799867103431337,0.00043305890750004164
1_2,XY,527,3223.4087137049382,16.2190921393751,0.07599427131580377,0.00043739101004775264
1_2,XY,548,3256.4846723365413,17.77047910573251,0.07399944689853531,0.00047071174643949893
1_2,XY,569,3259.667417398875,16.2487448972267,0.08224904950843764,0.0004633632563841641
1_2,XY,590,3251.2027953867137,17.9422503337331,0.07168233915401456,0.00045885723579563786
1_2,XY,611,3253.7714820837405,17.35706506320529,0.07969735670011194,0.0004939067749709455
1_2,XY,643,3272.6307515875615,20.015524578448453,0.0705681346639593,0.0004948185899775716
1_2,XY,664,3274.1758316099977,15.75571323618433,0.07862668902414331,0.00044306239490441823
1_2,XY,685,3258.2304635121814,18.953017346986332,0.06821372365207028,0.0004593531976532667
1_2,XY,706,3275.153654564972,15.233928849901554,0.07201004137122664,0.00037841979025314744
1_2,XY,727,3273.513471756473,17.30193214460481,0.07044002399823958,0.00043690483545498563
1_2,XY,748,3266.17060179238,16.316813281900306,0.08026330399977526,0.00046776374757844994
1_2,XY,769,3264.5336819686604,20.70581950818723,0.06518119050856705,0.0004753743699531081
1_2,XY,790,3240.0941402079056,18.538473811131535,0.07416114487267964,0.0004892892350294253
1_2,XY,822,3305.2254769097794,15.416145564962868,0.06755620643172774,0.00035832585819531586
1_2,XY,843,3275.6737903684934,18.632390573888273,0.07878044728582861,0.0005039766622133004
1_2,XY,864,3264.3016901427486,19.08189442807347,0.07192684704127889,0.00048652491879907654
1_2,XY,885,3227.7598999194756,18.67208565186262,0.082903513908416,0.0005512713419324624
1_2,XY,906,3263.9102851569446,18.298390508002925,0.06993439480778947,0.0004559715650922469
1_2,XY,927,3264.0158718816724,17.344884636133266,0.07927339707845654,0.0004833227785080463
1_2,XY,948,3252.1851240478654,19.841263710284192,0.07075897697263497,0.0004993813387765499
1_2,XY,969,3254.545274608557,17.490653031878587,0.0778817678825119,0.0004788843313990131
1_2,XY,1018,3250.829105116389,14.920616950069645,0.07608892322716083,0.00040515752033983666
1_2,XY,1039,3248.700353667601,16.945551014372043,0.08005314244527738,0.0004829114607758891
1_2,XY,1060,3247.7446672976916,20.534537545161346,0.07160799696768892,0.0005190219759715212
1_2,XY,1081,3269.411047897508,18.281207551761433,0.07938527699350346,0.0005042201386682635
1_2,XY,1102,3246.343439069387,18.96022719739833,0.06991096223090557,0.0004723408175679383
1_2,XY,1123,3256.779121369806,17.18221033110163,0.07622714952594813,0.00045958277795675576
1_2,XY,1144,3253.347117727536,21.307112354360815,0.07115664885247892,0.0005349470691327988
1_2,XY,1165,3250.3714073467468,14.034510115583858,0.08212701836427844,0.00040768669294212863
1_2,XY,1197,3242.232089167011,20.5145372000478,0.07429557873042998,0.0005499999618732607
1_2,XY,1218,3258.5326784030335,13.104596624585028,0.0796344637274905,0.0003653928556988234
1_2,XY,1239,3256.267574800945,19.50086857629971,0.07069797289598516,0.0004895489929942204
1_2,XY,1260,3267.2732560234062,96.15169967810941,0.0793040541173001,0.0023455328706305013
1_2,XY,1281,3255.5353099931735,20.32681864874807,0.07226610956987986,0.000517578203040258
1_2,XY,1302,3246.2098493794488,17.731572926985038,0.08055636711846478,0.0005098089627666383
1_2,XY,1323,3267.805493625762,20.8186879205252,0.06605125582834163,0.00048618653385506914
1_2,XY,1344,3264.0475524384524,17.070714977690283,0.07807156187866862,0.00046419899464624414
1_2,XY,1376,3237.318074414577,21.185714606258696,0.07462577165426441,0.0005598299641516168
1_2,XY,1397,3263.803239994746,17.850700392632046,0.07033619339226979,0.00043576799700869364
1_2,XY,1418,3257.4056673348923,18.43922846728897,0.07493905316432466,0.0004878840814318823
1_2,XY,1439,3283.797598182656,13.2944455676361,0.06736776827074997,0.0003091594622930905
1_2,XY,1460,3281.7488944747793,17.658203219278427,0.07091544980928402,0.00043637973089499175
1_2,XY,1481,3263.234278091995,17.669388954648582,0.07867632692674566,0.00047873733358349093
1_2,XY,1502,3267.9966764342867,19.666000993563095,0.07055741135136134,0.0004865336716671589
1_2,XY,1523,3297.2594873145613,14.420512262897992,0.0635076913176416,0.0003165418419978325
1_2,XY,1555,3282.322760400015,19.788868546173735,0.06627688114859723,0.0004604254480436143
1_2,XY,1576,3275.0502620781554,19.13729908362972,0.06934816729024666,0.00046685934630367077
1_2,XY,1597,3289.971851174999,19.381433178371523,0.0616512725947328,0.00041901144944894443
1_2,XY,1618,3312.5552588527457,17.630411684223542,0.0671924697688206,0.00041327459107155275
1_2,XY,1639,3261.5533216081394,16.827223107418526,0.08017401486395909,0.0004785084990262906
1_2,XY,1660,3265.5236539420057,17.6195544443662,0.07695935945615338,0.0004848651165082637
1_2,XY,1681,3269.724223465971,19.575069349996042,0.07733959956007133,0.0005300820837665478
1_2,XY,1702,3242.8444553326494,13.084058830731951,0.0833640605898006,0.0003849902931127453
1_2,XY,1734,3275.1979174609746,17.23238936320705,0.07493877964755269,0.00045942334613186756
1_2,XY,1755,3301.0428020026748,18.982685672901887,0.06194852493582065,0.0004087235946813041
1_2,XY,1776,3245.6745112817134,18.50358189801317,0.07609615257653103,0.0004987979171634011
1_2,XY,1797,3257.4530449456433,18.83305534647861,0.08215944363301743,0.0005528709214509817
1_2,XY,1818,3293.2135378059206,17.66746217136771,0.0688233702149107,0.000428478491121057
1_2,XY,1839,3326.773529230597,14.62959055116144,0.06259713534234773,0.0003128133274120057
1_2,XY,1860,3258.3068286089992,19.55577405306431,0.07452663547579373,0.0005130083858211836
1_2,XY,1881,3258.685886913845,16.564233944743595,0.07591433550911054,0.0004421144468189572
1_2,XY,1916,3284.484682700417,18.121216098250972,0.06947902507095861,0.00044555422558697095
1_2,XY,1937,3284.8016408518874,19.77176677890553,0.0632190888422211,0.00043232642279331026
1_2,XY,1958,3271.794249127496,17.86868109724848,0.07398070847265606,0.00046510061422691545
1_2,XY,1979,3238.7311933729625,16.458012295442476,0.07625444154497528,0.00044770537189370123
1_2,XY,2000,3271.1905510647557,17.898899779714977,0.07835208698687893,0.0004950851179298095
1_2,XY,2021,3251.220461955471,14.535109050347996,0.08218146345935098,0.0004226286887456314
1_2,XY,2042,3277.3588303054053,11.569108445184774,0.07240439392232546,0.0002940049174432967
1_2,XY,2063,3238.2492915990274,17.663643132537427,0.08187437999551758,0.0005146026368637328
1_2,XY,2095,3258.9108495885607,20.04726923615322,0.07637854426046155,0.000546614882097144
1_2,XY,2116,3263.189115732749,18.10319319248217,0.07780476682926149,0.0004990058111764029
1_2,XY,2137,3247.5146733113056,18.525141516478648,0.07581027581400974,0.0004992631641611963
1_2,XY,2158,3257.343264873541,17.584430733866554,0.07928942195163331,0.0004926309390604369
1_2,XY,2179,3253.643843147097,19.597594623878948,0.07804054204663852,0.0005328374607987661
1_2,XY,2200,3253.3556333689644,16.487589598461113,0.08028083221867766,0.000464919523590685
1_2,XY,2221,3253.688325547248,17.267407435239914,0.07847688859991331,0.0004775865686025771
1_2,XY,2242,3253.8660538374916,14.187051262544152,0.08182914054763586,0.00040661691130956535
1_2,XY,2274,3273.903113984304,16.599043069913396,0.07814036464214116,0.00044712594388634965
1_2,XY,2295,3277.1695644771567,13.745905730404225,0.07277254702276277,0.0003534293358218006
1_2,XY,2316,3273.369655048946,16.008855565720385,0.07651205032846135,0.0004247725540376264
1_2,XY,2337,3309.2429963421837,15.117166952929042,0.0686778061148435,0.00035543356326142014
1_2,XY,2358,3304.36458001998,16.831308992543274,0.06508848506133184,0.0003821598702498197
1_2,XY,2379,3281.2465406958527,12.46099849896415,0.07187605280075361,0.00031484106378067774
1_2,XY,2400,3264.612447146777,18.008372175450788,0.07404341615784918,0.00047077139828435004
1_2,XY,2421,3244.2484402400246,18.2290617917048,0.07991003320280272,0.0005143714711800226
1_2,XY,2453,3260.0454930118067,19.608733419853944,0.07335738281238728,0.0005023661119741347
1_2,XY,2474,3246.5332824987267,18.18251667568954,0.08271790267593328,0.0005315281798810862
1_2,XY,2495,3272.66011098255,18.66013545893521,0.07166428990542217,0.0004733326687466991
1_2,XY,2516,3253.526166501959,16.36429267467951,0.07823275863439784,0.0004548381811352843
1_2,XY,2537,3252.668946616072,30.162824173231204,0.07868783548916715,0.0007812955344880096
1_2,XY,2558,3261.599713085058,17.300682603144594,0.08445361696518547,0.0005188434162869585
1_2,XY,2579,3259.4486383475814,17.879094990631824,0.08092305922102834,0.0005145254143622701
1_2,XY,2600,3252.663552252899,12.994377305072618,0.08348831257960132,0.0003698368231538784
1_2,XY,2632,3295.848012261662,14.426917327746278,0.07029186192591087,0.00035547042915977085
1_2,XY,2653,3271.362956743645,18.531903955165543,0.07641971175711106,0.0004983648908112906
1_2,XY,2674,3273.8702302273177,18.711598691061084,0.07047543805359566,0.00046332110094892033
1_2,XY,2695,3280.7869029307735,16.187936518343093,0.08280799108081006,0.00046936535367723286
1_2,XY,2716,3281.192587166416,17.87915701716062,0.06929775787842705,0.0004386008078671402
1_2,XY,2737,3240.0955671318707,17.528660944493172,0.08060299186320966,0.0004978766526227513
1_2,XY,2758,3280.230770182986,28.344426779673498,0.07514715914003456,0.0006841084137194125
1_2,XY,2779,3266.0079908147113,18.127322616647124,0.07981582503529151,0.0005177821503942274
1_2,XY,2818,3241.0793672016875,20.56894076265397,0.0794845639112043,0.0005758676733341522
1_2,XY,2839,3253.5413462049255,18.035217837405938,0.08269790135597126,0.0005285201877714349
1_2,XY,2860,3268.6567182577032,16.941581246702633,0.07774307749263364,0.0004620755715651301
1_2,XY,2881,3252.599491356798,18.104574200806983,0.08238653434517773,0.0005326042199060257
1_2,XY,2902,3238.439862665386,19.60633062241064,0.07857772547861144,0.000546964428821934
1_2,XY,2923,3233.884459144288,16.787616100360037,0.08207871386080735,0.0004911397673917874
1_2,XY,2944,3255.789751988642,18.427000684310393,0.0755893360870072,0.0005019310368699161
1_2,XY,2965,3255.7105418598276,19.204366928441083,0.0744983563835274,0.0004987165606787229
1_2,XY,2997,3266.755355040046,16.72961363440664,0.07674816568642662,0.0004572329414986096
1_2,XY,3018,3274.2714445325323,16.9869925472827,0.08067575976732443,0.00047433934412637025
1_2,XY,3039,3269.302166620591,20.56098518897869,0.07241501628032125,0.000517577692530014
1_2,XY,3060,3257.7151504288913,19.12584564075336,0.07718511064531251,0.0005225789634074778
1_2,XY,3081,3260.5246973997264,18.06094566217942,0.07517272998894227,0.0004799628597635542
1_2,XY,3102,3251.861038121452,19.334710846980123,0.08090292152129976,0.0005531486108768891
1_2,XY,3123,3264.0530295986337,13.605326642056259,0.07883105070382043,0.0003786076187501385
1_2,XY,3144,3256.1220518182504,18.93137982742398,0.08303281121997685,0.0005557215068158301
