XscanNumber_YscanNumber,Type,BCID,xsec,xsecErr,SBIL,SBILErr
1_2,XY,103,940.276294890417,2.5627575444979858,0.06559383332847225,0.0002051394097327975
1_2,XY,124,925.9694340786315,2.4127529482637993,0.08196097073231867,0.00024347859341465974
1_2,XY,145,930.6601884148296,2.7641245602305373,0.06598292314688067,0.00022494379150426975
1_2,XY,166,927.8649783416259,2.637844314012026,0.07626666557495787,0.0002505176229490255
1_2,XY,187,929.3661941975316,2.8048409948002955,0.06682928579563434,0.0002366874308164081
1_2,XY,208,935.5647337777627,2.8386325276724893,0.06946924465957097,0.0002450873553918642
1_2,XY,229,930.9679311351902,2.4539511615617324,0.07083456863694151,0.0002149506539982308
1_2,XY,250,925.9416484119473,2.4236508850838265,0.07892550633100241,0.00023653430444940795
1_2,XY,282,932.6059119154744,2.385098939284508,0.0769844924821742,0.00022586516967134637
1_2,XY,303,932.0561811099842,2.448120974940994,0.08077184315628431,0.0002468111717892307
1_2,XY,324,930.9064133341042,2.6188375447673957,0.07222243906506846,0.00023562756873618851
1_2,XY,345,924.9413516947164,2.280121108495527,0.0820505928339174,0.0002282392204269218
1_2,XY,366,930.7552405303793,2.50643437830415,0.07421957107051817,0.00022970522671583767
1_2,XY,387,924.4942028133881,2.5708929601425035,0.08166550363268126,0.000262305289154621
1_2,XY,408,931.6598198766766,2.524450653807224,0.06969447249353858,0.00021945978707790898
1_2,XY,429,924.9270415478883,2.69927409573768,0.07841233346329089,0.00026508944256437586
1_2,XY,464,933.1146535939029,2.4317061917579945,0.07649029082280523,0.00023338231907338734
1_2,XY,485,930.9994428886813,2.299220013018881,0.07887149963474151,0.00022261929343277747
1_2,XY,506,933.6112395297433,2.7103912475971046,0.06844308183846447,0.00023238108942063445
1_2,XY,527,934.6025791635645,2.450182921949304,0.0751406811884671,0.00022512296910295757
1_2,XY,548,929.5559766118313,2.6979881017243224,0.0742103506342877,0.0002504923692467577
1_2,XY,569,933.3771904811937,1.8452249038881496,0.0821370441891914,0.00018687401854659749
1_2,XY,590,934.3336861080438,2.5899370948941947,0.07146291995964893,0.00022831013067117217
1_2,XY,611,930.3239299135007,2.4487846380747365,0.07970573492833291,0.00024590271815821984
1_2,XY,643,935.8218165126347,2.677635748270895,0.07382717578547669,0.00024357192611140183
1_2,XY,664,932.9661006557059,2.296383014795448,0.07850483606848277,0.00022111647604706328
1_2,XY,685,934.2880439838801,2.696430602987563,0.06818058686606362,0.00022801425413234038
1_2,XY,706,940.3566319590093,2.4837060285302965,0.07135934723238357,0.00021766365863442328
1_2,XY,727,931.1272500853153,2.614703186387638,0.07148449013724202,0.00023038910254353855
1_2,XY,748,931.9228038427751,2.3970547304128833,0.08053153178440979,0.0002403515612328294
1_2,XY,769,930.5635452922927,2.518776032401377,0.06529935487665953,0.00020486340097078666
1_2,XY,790,933.6294397457708,2.573707138995732,0.07376222847217326,0.00023584680148450756
1_2,XY,822,943.0396264400309,2.5149032571751837,0.06793819946803614,0.00021104189791124213
1_2,XY,843,936.729696597053,2.1871824504400466,0.07881826184243651,0.00021458517130499338
1_2,XY,864,932.1786148457575,2.371366506951043,0.07174449704311225,0.00021096201138510955
1_2,XY,885,930.8487373898549,2.24659980726349,0.08197969919781406,0.00023045251663196095
1_2,XY,906,933.8335213248067,2.753423729798361,0.07014301859657035,0.00023937098326392935
1_2,XY,927,931.6165052027508,2.2660949198415627,0.07967463442765736,0.0002206540372898983
1_2,XY,948,927.6623401346316,2.5198010453197623,0.0707649482079143,0.00022461908228778857
1_2,XY,969,930.9654094519011,2.54141170704833,0.0780851428478324,0.0002479068347308797
1_2,XY,1018,931.7961239044635,2.3050265442715396,0.0763316307904964,0.00021650440755703113
1_2,XY,1039,931.7302053627504,2.2122211929904085,0.07997562262392562,0.00021761485740423223
1_2,XY,1060,929.888286045701,2.802867451242348,0.07159260765248013,0.0002523333338292596
1_2,XY,1081,929.4192046698786,2.3820010477604807,0.07929279040245855,0.00023854624976896386
1_2,XY,1102,933.6611707346692,2.4753913421311284,0.06948836973810409,0.00021136477182858874
1_2,XY,1123,933.0613596571737,2.5224717374314034,0.07624237937342185,0.0002404837369617222
1_2,XY,1144,932.6721059017518,2.501446216877692,0.07106687472641347,0.00021819469868990295
1_2,XY,1165,932.9110797245683,2.2694676934332336,0.08206789670337002,0.0002305300098376167
1_2,XY,1197,931.9318205036973,2.520014064383349,0.0736872416942222,0.0002306959276836775
1_2,XY,1218,933.1081872209687,2.2862013779690673,0.08012330720665808,0.00022868664700455909
1_2,XY,1239,931.7352816151997,2.5663486420920645,0.07092315595942984,0.00022547036995857004
1_2,XY,1260,932.6006947247324,2.4861253479892285,0.07961179509303777,0.0002458575941265544
1_2,XY,1281,933.5917805620718,2.56853880477986,0.072555756146765,0.0002301292920251913
1_2,XY,1302,934.1055360904638,2.353227563351919,0.08060542499133913,0.00023320562371171498
1_2,XY,1323,932.9163194273655,2.7718410641990885,0.06651403746135888,0.00022976762287648414
1_2,XY,1344,933.1764896747245,2.5370488396941475,0.07789532898155592,0.00024612210858657575
1_2,XY,1376,929.0298147322695,2.55958557357429,0.07403689537089968,0.00023540688972185748
1_2,XY,1397,939.1948699386473,2.426151043510974,0.07071373185510658,0.00021176325222039026
1_2,XY,1418,931.7762855328946,2.767773983612977,0.07459124461436056,0.0002585314022984254
1_2,XY,1439,944.7065280868449,2.38815615427261,0.0666773860027315,0.0001928738110171184
1_2,XY,1460,932.6456595049469,2.5887664396370207,0.07163818600587019,0.00022810650504359066
1_2,XY,1481,930.9153791081726,2.610356150873057,0.0788893083222261,0.0002559240201370989
1_2,XY,1502,932.8454360185118,2.714985118528306,0.07098738637202069,0.00023735866695559095
1_2,XY,1523,945.9083327916918,2.6532215988638486,0.06349680247189332,0.00020715307079149686
1_2,XY,1555,946.2782247357509,2.5137979267705304,0.06568830596526122,0.0002017538124091055
1_2,XY,1576,940.5987695272611,2.6930887183209307,0.06937867650981894,0.00023019673273338347
1_2,XY,1597,946.0177806530238,2.7862687995488247,0.06122222355118773,0.0002085901673240992
1_2,XY,1618,945.5946492700328,2.478797955049262,0.06700200489699813,0.0002055105368047612
1_2,XY,1639,932.9859176094479,2.5106301477897253,0.08120048818701323,0.00025338122752513437
1_2,XY,1660,936.2175400002203,2.072272125923872,0.08048327801568536,0.00020584952315540347
1_2,XY,1681,933.2681933074485,2.4399206971627847,0.07700378145448747,0.0002345208286477754
1_2,XY,1702,929.2927450261186,2.3376838263413857,0.08343116185644188,0.0002462324063967458
1_2,XY,1734,931.7830006190645,2.708491063765552,0.07570829579887521,0.0002529068511665026
1_2,XY,1755,946.4585039538762,2.8086035587764275,0.06261404249244185,0.0002131910306626872
1_2,XY,1776,932.4966625497905,2.3139434500804756,0.07604230750655673,0.00021588269339816113
1_2,XY,1797,930.4668120564634,2.3832746857212763,0.08218143203119174,0.0002445061394901746
1_2,XY,1818,940.219708909928,2.3038516764824677,0.06914332257536075,0.00019268762201155634
1_2,XY,1839,949.6399710815094,2.5880573484320326,0.06339091157137648,0.00019947638051681426
1_2,XY,1860,930.2804344964413,2.5055381367585325,0.07817728940788256,0.0002450260208101462
1_2,XY,1881,932.5638401047396,2.2711435551197394,0.08215258429465071,0.00023339906198377585
1_2,XY,1916,938.2191164719516,2.5436904619172287,0.07391306735106655,0.00023298552341558128
1_2,XY,1937,942.4640524730577,2.64980291289492,0.06343736660209844,0.00020619947819380474
1_2,XY,1958,934.1200924742635,2.3774418531707884,0.074152863482494,0.000219001011550202
1_2,XY,1979,931.8536433275966,2.428229837886139,0.07899321417612808,0.00023478690711454012
1_2,XY,2000,932.7658844500256,2.359577309809034,0.07836948754568224,0.0002332364597943843
1_2,XY,2021,932.128125989373,2.316718406730896,0.08231781908512709,0.00023663573819936396
1_2,XY,2042,935.2216108238384,2.2571433645723,0.0772469513682529,0.00021429389812979168
1_2,XY,2063,930.8467988240734,2.4990490208842235,0.08123681333278256,0.0002497154687022054
1_2,XY,2095,931.0700187624042,2.3967905280249693,0.07607141687465546,0.00022448754524512018
1_2,XY,2116,932.1679251910322,2.59537766348493,0.0784928905523922,0.0002541108741739993
1_2,XY,2137,930.3967491810396,2.4425482564362637,0.07503000876844228,0.00022870490577725145
1_2,XY,2158,932.9699670246483,2.3713006125509684,0.08082629821902951,0.00023715700325570904
1_2,XY,2179,934.6278854067044,2.4654171582649878,0.07713853808015946,0.00023390708009459659
1_2,XY,2200,931.2698386804537,2.39125125816018,0.08274743246238915,0.0002472987026526701
1_2,XY,2221,933.9631778715838,2.3736963802227415,0.07810057503147419,0.00022880471695396323
1_2,XY,2242,932.8796792078525,2.3587107481130163,0.08114321693154139,0.00023746250759813214
1_2,XY,2274,935.5269784015898,2.3572313450858786,0.07796674987850254,0.00022729550932383235
1_2,XY,2295,932.6895001004369,2.3202488052217984,0.07956225785295858,0.00022989479765947316
1_2,XY,2316,934.1340724392743,2.430912878832312,0.07630383219029187,0.00023118953120091114
1_2,XY,2337,936.6999187508818,2.420291920358844,0.07045821791015736,0.00021149129412847688
1_2,XY,2358,943.5129149212431,2.412445666496816,0.06547166372268994,0.00019372357932133193
1_2,XY,2379,936.5769023598651,2.3259903192593296,0.07909651969561689,0.00023158152738548
1_2,XY,2400,932.6759129688771,2.5852541977156505,0.07396547540165842,0.00024024952354115937
1_2,XY,2421,931.1411738426419,2.232330679469383,0.07967195699127737,0.00022282868723393618
1_2,XY,2453,932.8355420320086,2.421974718974954,0.07894343577676369,0.00023865857206503523
1_2,XY,2474,931.096304095752,2.198601570117428,0.0833773816141603,0.00022438775873707056
1_2,XY,2495,935.518653712815,2.5047890844460836,0.07571667719143405,0.00023291855732193072
1_2,XY,2516,930.161185383467,2.3142748181202304,0.0806894134249705,0.00023070550034025243
1_2,XY,2537,933.3598322647084,2.3674174624029805,0.0782686198831444,0.00023156860699595323
1_2,XY,2558,932.6872516950422,2.3595482478416536,0.08468476773089122,0.0002508000043442283
1_2,XY,2579,931.8301968915741,2.378741274297389,0.08028873708711456,0.0002362716980953328
1_2,XY,2600,929.916837817466,2.474836679520482,0.083398560249502,0.0002571827922634082
1_2,XY,2632,937.8444646814481,2.465974771053808,0.07387878848164092,0.0002230432198561951
1_2,XY,2653,932.8851652798373,2.443935648399028,0.07937455036098465,0.0002394455561029062
1_2,XY,2674,940.9640496147243,2.429783121946133,0.06979352415209988,0.00020677737710854657
1_2,XY,2695,930.0669193012299,2.143010931002521,0.08353034291590505,0.00021951987373419285
1_2,XY,2716,937.0660401774703,2.572593514461113,0.06980127994211532,0.0002209379891614452
1_2,XY,2737,932.831206072865,2.437926382824,0.08023370555865152,0.00024043018620213238
1_2,XY,2758,934.5689623928505,2.4618814556829993,0.07497581281141809,0.00022623776897632346
1_2,XY,2779,931.5776874196655,2.22277879310543,0.08008142600545738,0.00022129125451544077
1_2,XY,2818,934.1906548392245,2.49533163272572,0.07849713694650778,0.00024171483344802638
1_2,XY,2839,931.0194513304905,2.422371352302872,0.08248701853770539,0.00024893906427194
1_2,XY,2860,931.7739503406623,2.5215747075779262,0.07754530678958337,0.00024170913358158774
1_2,XY,2881,929.7728961743801,2.3031778433264667,0.08237644639002475,0.0002368943143814924
1_2,XY,2902,932.4340034662109,2.312599114760031,0.07797836372750883,0.00022136103973363267
1_2,XY,2923,930.6724041367829,2.333577701208784,0.08151021356662687,0.00023641727377222591
1_2,XY,2944,934.4502150400241,2.407794812973608,0.07552479219141904,0.00022127227795115748
1_2,XY,2965,931.1232962873473,2.3540351210232493,0.0788064726479454,0.0002318048530500565
1_2,XY,2997,932.5247058233217,2.3735131422562197,0.07665219235161866,0.00022317357124315525
1_2,XY,3018,933.1728593623949,2.277952297539488,0.08077357923079018,0.00023003632467035633
1_2,XY,3039,934.7562038365883,2.4518518476854223,0.072411106519442,0.00021872019743340634
1_2,XY,3060,931.4702010205635,2.426187967288732,0.07756098982375995,0.00023375565464653665
1_2,XY,3081,931.0672377371336,2.42674620074802,0.0754695492802707,0.00022400580860718164
1_2,XY,3102,932.4395006306371,2.20029243663098,0.08045266962461659,0.0002194712557380373
1_2,XY,3123,932.0493179144286,2.649758395364819,0.07886501230670634,0.00026306806588722345
1_2,XY,3144,931.3767689626146,2.3974966265147155,0.08320619354325617,0.00024595994390465097
