XscanNumber_YscanNumber,Type,BCID,xsec,xsecErr,SBIL,SBILErr
1_2,XY,103,3299.608802848307,18.630670173218004,0.0652872623254524,0.00041666552714719524
1_2,XY,124,3228.0178862093767,18.59847207898656,0.0818359618314484,0.0005414531894834709
1_2,XY,145,3244.1411416517913,20.301457198586192,0.06583879739461221,0.000467993157214649
1_2,XY,166,3255.226103761568,17.692311109780746,0.07593071280688374,0.0004681815929484852
1_2,XY,187,3245.6411871609407,22.241568863032757,0.06689770958319526,0.00052511100635386
1_2,XY,208,3265.9331855259225,19.77551590412086,0.06926890578706867,0.0004787744281967875
1_2,XY,229,3250.734887400377,19.449352764662798,0.07092209490774297,0.0004878306115078051
1_2,XY,250,3244.6326043386102,16.987163679725782,0.0783529984521858,0.0004698154365606259
1_2,XY,282,3246.5053939135946,14.140466399615272,0.07725342388585449,0.00038218199642628067
1_2,XY,303,3261.0716266534805,20.18991375648861,0.08050226172578123,0.000578191074012762
1_2,XY,324,3219.0286404535013,20.813217492296452,0.07281037589755676,0.0005385430352126703
1_2,XY,345,3225.5196833772957,16.685421702389633,0.08167206411481036,0.00048150818809611156
1_2,XY,366,3237.8962803385657,18.46873904128799,0.07415074258641983,0.00048503457649785
1_2,XY,387,3216.3529236198324,18.095732703926465,0.08159183649795909,0.0005264446761748141
1_2,XY,408,3259.805227447372,19.414198161934642,0.06921864664207153,0.00047206992997353864
1_2,XY,429,3229.1388464164543,18.13049007644049,0.07821038179193121,0.0005109446015091571
1_2,XY,464,3244.4770524939745,15.525551054205343,0.07691818153671992,0.00042701527495119337
1_2,XY,485,3253.508341956406,16.64471775622355,0.07888054220750172,0.0004680577348762403
1_2,XY,506,3260.139689376253,20.87910994574271,0.06823402043624617,0.0004933058063056671
1_2,XY,527,3251.2502781138223,16.637117874115926,0.07540282805192418,0.00043652937017292704
1_2,XY,548,3236.434593280292,20.214316032907686,0.07440182753555419,0.0005325333871275293
1_2,XY,569,3244.5088229189473,16.490075113239275,0.08253824942168206,0.000474569478633805
1_2,XY,590,3260.7801044471457,19.314656262556447,0.07145627337148357,0.00048445687916615245
1_2,XY,611,3277.061561305391,23.199080314563727,0.0790700235552395,0.0006057146430489097
1_2,XY,643,3263.019573835039,14.597967038817224,0.07398877857285173,0.0003786511619177711
1_2,XY,664,3266.2578856436917,18.06398710906416,0.07848195053254299,0.0005014892683721364
1_2,XY,685,3233.254171784961,19.840871873795674,0.0688920623041426,0.0004759706423778495
1_2,XY,706,3275.352463966483,17.845479342296645,0.0714651216194868,0.0004525305781278766
1_2,XY,727,3241.831242952021,18.562346581105878,0.07152333228755288,0.000471192831539663
1_2,XY,748,3244.440161958528,19.915344930363407,0.08047479749138696,0.0005620759583328337
1_2,XY,769,3242.3849523644753,20.289855628878225,0.06540090051868687,0.0004628310463598602
1_2,XY,790,3247.9347370851137,18.27043920977962,0.0738579401919765,0.0004794118632915773
1_2,XY,822,3294.3789161932427,14.301846119626488,0.06742456972380201,0.0003384699407794702
1_2,XY,843,3284.9374947837614,11.837768479098887,0.07826400257798281,0.00032104976578047853
1_2,XY,864,3243.4857179694363,19.492609203959415,0.07205330529827933,0.0004975705345243088
1_2,XY,885,3236.073433435862,16.129711028436454,0.08218414439857102,0.0004796763161790844
1_2,XY,906,3248.4778863644888,18.801562287503042,0.07018335518634788,0.0004723234477914472
1_2,XY,927,3245.9884962410856,17.019448175233908,0.07993909232313708,0.00048096932758873363
1_2,XY,948,3237.79393165758,18.176044408399875,0.07057442726720661,0.00045652535072667833
1_2,XY,969,3253.08325484316,19.389050263195035,0.0781641793222813,0.0005403786370473574
1_2,XY,1018,3248.5077536935783,18.35084075152704,0.07667732599193684,0.0004966894992553899
1_2,XY,1039,3255.3993148289014,17.23674767336973,0.07999998959661228,0.0004862115302820358
1_2,XY,1060,3239.2107471604877,20.58203584512487,0.07185721322358032,0.0005233838239197125
1_2,XY,1081,3245.833490143988,17.262194830661674,0.07910225072030817,0.0004831930756611212
1_2,XY,1102,3269.7070551908696,18.570299458007455,0.06935254521166753,0.0004491532848801444
1_2,XY,1123,3236.3075034202457,18.296952002331242,0.07661172572270256,0.0005041113103791155
1_2,XY,1144,3237.7441565757567,19.53718595191577,0.07154280706736967,0.0004929683204123371
1_2,XY,1165,3260.5994776657944,15.318025579463683,0.0818342565089197,0.0004430611394027141
1_2,XY,1197,3253.5732549101526,15.93245385318028,0.07345510395192639,0.00040981463472032414
1_2,XY,1218,3248.4128251667184,17.457116221581817,0.08011140241535715,0.0004928581686135434
1_2,XY,1239,3225.016471835154,19.120530627085095,0.07102405861190507,0.00048216493171603363
1_2,XY,1260,3269.378810283006,18.640051022320442,0.07911180629579562,0.0005183075674894124
1_2,XY,1281,3266.5708367675393,19.011926918968697,0.07222588927146338,0.0004799633137546081
1_2,XY,1302,3263.3698655186445,19.011778969174888,0.08071971764267087,0.0005448618131811292
1_2,XY,1323,3249.244729349901,21.812604741702998,0.06682700173818173,0.0005140182887137727
1_2,XY,1344,3243.988977770866,16.428316177401616,0.07824609563788133,0.00046049248955914155
1_2,XY,1376,3235.1297205076953,20.270157297922704,0.07431397469930306,0.0005323217074438473
1_2,XY,1397,3276.696538420623,17.48751204469763,0.0705787808582201,0.00043485839017669785
1_2,XY,1418,3237.0386380225436,20.47877603031343,0.07505153096562761,0.0005414354570093823
1_2,XY,1439,3285.9161224614727,13.672546143127708,0.0665748024568947,0.00031954445902478135
1_2,XY,1460,3244.983364687808,19.369985884942082,0.07206017477024713,0.0004900116884829819
1_2,XY,1481,3244.1448068312043,13.222795903697582,0.07851207879662428,0.00036628671176904123
1_2,XY,1502,3236.8480400010376,19.465265183385238,0.07121488317779602,0.0004921501386491511
1_2,XY,1523,3297.0871493668096,15.048908018092648,0.06377065272840166,0.0003306893114686486
1_2,XY,1555,3291.0124613932235,14.575048109824795,0.0660929365716485,0.00033537963597985956
1_2,XY,1576,3285.6211072768574,18.606650672722523,0.0694076612611455,0.00044936501084110104
1_2,XY,1597,3286.7228758003694,17.617183325570977,0.061189104355486336,0.0003789275560312606
1_2,XY,1618,3304.6494041209894,15.50204862428969,0.06689892583636367,0.00036444589151728293
1_2,XY,1639,3260.547867704329,17.335890190556285,0.08081067860642877,0.0004911909759524606
1_2,XY,1660,3256.2205608809336,15.950562555836203,0.08083293478434417,0.00045164409631080944
1_2,XY,1681,3251.2271448577526,14.307751836578287,0.0768076780579048,0.0003941144156244653
1_2,XY,1702,3253.1750977013894,17.39170950609907,0.08303606723079629,0.0005100001175341983
1_2,XY,1734,3246.7358264158033,19.72844515323623,0.07559973222721021,0.0005364845979071004
1_2,XY,1755,3293.75811605178,20.974268607008213,0.06285741462156873,0.00045703309747653056
1_2,XY,1776,3251.715549427079,17.646810706449468,0.07656422465261845,0.00047953574855104695
1_2,XY,1797,3238.789947147506,17.696688102498488,0.0820900010929611,0.0005216773899131104
1_2,XY,1818,3276.8179499947632,11.832142303420522,0.06858726924180703,0.00027743535472365895
1_2,XY,1839,3313.163615661919,13.989594326432798,0.06334765377268937,0.0003075989933936196
1_2,XY,1860,3238.003996302147,17.91315713615781,0.07835249533408323,0.0004992045866491749
1_2,XY,1881,3236.907189157465,11.092403929554225,0.08241364018653988,0.00032595812413977506
1_2,XY,1916,3288.0870978374915,20.622388691652255,0.07419062758164124,0.0005308861182243319
1_2,XY,1937,3304.914488547587,19.66094173048647,0.06301100668059449,0.0004344571107505287
1_2,XY,1958,3246.809294615868,19.164225246390398,0.07423304364629872,0.000502738504812748
1_2,XY,1979,3245.2198219660677,14.661236922569152,0.07936698866101452,0.0004076574179449492
1_2,XY,2000,3233.391570512531,17.150259369811526,0.0790903109537201,0.00048450013588979346
1_2,XY,2021,3247.432082326764,17.614650498956355,0.08186336665554994,0.0005141915530872609
1_2,XY,2042,3253.399861935309,18.301100735539947,0.07702029918045206,0.0004988660936990219
1_2,XY,2063,3251.00265645488,14.675390351673226,0.08134673573513111,0.0004173467044359455
1_2,XY,2095,3240.0183668161576,19.557857889964243,0.07650718122637339,0.0005330842070563814
1_2,XY,2116,3240.1240672275985,17.540770815543176,0.07825619970059532,0.0004890452453160653
1_2,XY,2137,3236.6241164972575,17.598798256220153,0.07541729954819659,0.0004734621762572364
1_2,XY,2158,3223.1079342295775,17.027081726658846,0.0816285859498669,0.0004897040921661345
1_2,XY,2179,3235.8354779155775,20.833045125288123,0.07746207181650461,0.0005737446289429355
1_2,XY,2200,3244.741723328252,17.33657359736983,0.08287539283599012,0.0005097972922265874
1_2,XY,2221,3244.666485746675,14.24573085154202,0.0784637551911978,0.00039241989466411446
1_2,XY,2242,3271.872508337664,12.95420588954858,0.08054137692040725,0.00036536247711236507
1_2,XY,2274,3248.745450448879,18.611488707761303,0.07830717075580608,0.0005143119309775634
1_2,XY,2295,3280.327400047689,17.460889395314723,0.07866047981128708,0.00048206847024609526
1_2,XY,2316,3252.9494064666783,18.42676592559738,0.07653784714082337,0.0005017465373472786
1_2,XY,2337,3259.891707850366,13.490692372091944,0.07029998311983113,0.00033844361137457825
1_2,XY,2358,3270.7461186735927,18.57320964449039,0.0656595399841195,0.0004207203514544213
1_2,XY,2379,3261.7991209883526,17.85841908953321,0.07923176830933319,0.0004971672064793322
1_2,XY,2400,3247.752766953865,19.84426377584088,0.07431904659244627,0.0005228829586341839
1_2,XY,2421,3248.8984740964297,17.15699314546651,0.0791031974866087,0.0004842123180878897
1_2,XY,2453,3259.7777677331396,15.841320105808808,0.07901516018601756,0.00044752057144694393
1_2,XY,2474,3255.3939053281147,15.234761745209187,0.08316987609138353,0.000448212923829
1_2,XY,2495,3262.803309355673,18.55763276540397,0.07596716951484561,0.0005032221931224282
1_2,XY,2516,3263.03081724485,17.695194398555515,0.08014351488004204,0.000501518275783314
1_2,XY,2537,3257.578127781513,17.853943998743386,0.07834990319767475,0.0004892579460182684
1_2,XY,2558,3239.588236653634,18.49046737485336,0.08486936383997878,0.0005713461039881047
1_2,XY,2579,3267.653498897245,19.32686545393234,0.07988798767257019,0.0005461410862670675
1_2,XY,2600,3222.3687735161234,16.93587054149906,0.08416969504762885,0.0005026143839390512
1_2,XY,2632,3258.168235327923,20.414233041559413,0.07458867715068054,0.0005371162536283249
1_2,XY,2653,3246.8492549996513,19.9916289490729,0.0793798468912871,0.0005564408308043823
1_2,XY,2674,3284.8452730325716,19.896637024217704,0.06926622702717289,0.00047759070723043184
1_2,XY,2695,3244.9222500814976,15.603022530428396,0.08308205334895134,0.00046196866498678915
1_2,XY,2716,3256.851291668277,22.052856828335763,0.07013926958005026,0.0005458085917485519
1_2,XY,2737,3234.3691863776735,18.14405028024234,0.08082790569798641,0.0005133159646270314
1_2,XY,2758,3272.547531987517,20.137875017390435,0.07505959395699355,0.000526757114835914
1_2,XY,2779,3243.584977284115,17.92335525218686,0.07988137849630472,0.0005148991379234787
1_2,XY,2818,3237.563602892167,21.05889275638784,0.07937105294691268,0.0006012526581244272
1_2,XY,2839,3252.3504976232684,16.530208372872647,0.08238165458363729,0.00048198533670967917
1_2,XY,2860,3255.8682089425547,18.898085472977293,0.07721762980959511,0.0005068243730860549
1_2,XY,2881,3234.160541215905,17.526434765591887,0.08260003198139745,0.000512162135530697
1_2,XY,2902,3239.733615018031,18.924205793734476,0.07843499590636517,0.0005247870663692873
1_2,XY,2923,3263.889195255574,16.615294040322592,0.08093485061867385,0.0004715961101472505
1_2,XY,2944,3243.7445563616748,17.68207088928657,0.07544927695164061,0.0004642438440904902
1_2,XY,2965,3247.096558743447,16.77374837915212,0.07894902169066212,0.00046406026387561615
1_2,XY,2997,3235.248899477404,17.990390569855236,0.0772512150450612,0.0004867118193847911
1_2,XY,3018,3245.628008624488,18.339544010146767,0.08103116912160448,0.0005339610664059155
1_2,XY,3039,3248.5506652125514,21.53682614930663,0.07266324213677818,0.0005535510842025428
1_2,XY,3060,3243.9255364351257,18.431136017707107,0.0775240636433335,0.0005058465134652227
1_2,XY,3081,3243.9645880793387,18.98553605955918,0.07542533023747891,0.0005111484435213084
1_2,XY,3102,3243.550049913449,16.12560377751626,0.0806900761984953,0.0004567731190698339
1_2,XY,3123,3237.4710405671376,17.491770201148935,0.07950513238917567,0.0004961046522940932
1_2,XY,3144,3237.45541936699,19.651570508409534,0.08317217405022621,0.0005723453106187317
