XscanNumber_YscanNumber,Type,BCID,xsec,xsecErr,SBIL,SBILErr
1_2,XY,103,305.7460525189115,2.6806680852998244,0.06633110948669954,0.000680152274001691
1_2,XY,124,301.47994235826917,2.7582448201567877,0.07897062136175055,0.0008356545942675367
1_2,XY,145,301.85772076464207,3.1963201081841937,0.06447269259666807,0.0007832373954189491
1_2,XY,166,300.7202397276632,2.6706777766144283,0.0747891694469314,0.0007747573395890306
1_2,XY,187,305.735896000658,2.6051601749978524,0.06344555665123171,0.0006206165181013804
1_2,XY,208,306.3627845790577,2.813688565962447,0.06687246265038777,0.0007115818487236685
1_2,XY,229,300.2985442411668,2.8921007428878194,0.06904319306093695,0.0007579221858340847
1_2,XY,250,299.7573219032971,2.6431822485369154,0.0772211177397374,0.0007848905430939716
1_2,XY,282,300.63584548674953,2.493013600703015,0.07400727334357597,0.0007119122681358949
1_2,XY,303,302.81031728101004,2.879605080355048,0.07692903589348565,0.000843237760084557
1_2,XY,324,303.1203797953636,2.981351157543801,0.06994121446126746,0.0007861060757169774
1_2,XY,345,300.76258279548676,2.434796395904908,0.0794123599465533,0.0007451771959992968
1_2,XY,366,301.5486215684119,2.5286797014595637,0.0714449808912114,0.0006819389933246593
1_2,XY,387,300.22937522339873,2.5761927925084667,0.08016745718159869,0.0008015316953143872
1_2,XY,408,300.5663892494921,2.96941919573142,0.06842889148601249,0.0007726959693644819
1_2,XY,429,301.9183706943061,2.7622883490834584,0.07604467573069595,0.0007918271344868093
1_2,XY,464,302.4663278277246,2.5951757387750947,0.07373006886856633,0.0007405461016214334
1_2,XY,485,303.5904117757932,2.7081162727463153,0.0765073051333164,0.000791375713024025
1_2,XY,506,302.58611417854985,2.4593633916222095,0.06621824720339871,0.0006219440224330315
1_2,XY,527,299.5861824864906,2.530425960902924,0.07354651623648323,0.0007214836790569747
1_2,XY,548,305.3677909573665,2.5455244374559127,0.0711159284063742,0.0006948594438554018
1_2,XY,569,300.5028457840576,2.6693831855132566,0.08069542921785414,0.0008268450052439561
1_2,XY,590,305.6494954040263,2.6344434073732033,0.06772881108300201,0.0006741212898459766
1_2,XY,611,300.8546998289097,2.5468748968546606,0.07726460177405532,0.0007523566976129596
1_2,XY,643,306.46376004027064,2.485545802519602,0.07220114235289618,0.0006788613459372169
1_2,XY,664,303.743554494436,2.776808092327755,0.0755121489745808,0.0007893520415146906
1_2,XY,685,300.74089610066096,2.871413200096876,0.06645323943778775,0.0007337133257354715
1_2,XY,706,305.38105402774045,2.2418367300343496,0.07241074032051655,0.0006189445745049745
1_2,XY,727,302.01803723423814,2.502530207337259,0.06848083817195841,0.0006669267718943056
1_2,XY,748,300.39794857738127,2.6838470523234528,0.07842946697865294,0.0008177539354698001
1_2,XY,769,304.0432345947189,2.6955470342201706,0.0633914182531758,0.0006502581986619958
1_2,XY,790,305.0371486526644,5.328065484511961,0.07078557320708515,0.0012826255180220655
1_2,XY,822,307.95200495011096,2.537494884719181,0.07038265365611508,0.0006700330328805033
1_2,XY,843,304.6691575146005,2.52130245726168,0.07595226952131602,0.0007315172424675904
1_2,XY,864,303.58712413589956,3.0261713231537386,0.06941174262101442,0.0007944852116816555
1_2,XY,885,301.54877628533836,2.456410550297867,0.08056264962473458,0.0007615780077211266
1_2,XY,906,300.51595800249567,2.4196327527287234,0.0684101286105975,0.0006383170284837771
1_2,XY,927,303.75538381628974,2.693309451230717,0.0774285037887068,0.0007881905683195693
1_2,XY,948,303.82414076870464,2.9196456269734226,0.06769783087996287,0.0007598382524789891
1_2,XY,969,303.77117395128704,2.6062822272898334,0.0750832980836068,0.0007506067139477075
1_2,XY,1018,301.6457268650207,2.4590355822381875,0.0746048226644937,0.0007036629559199766
1_2,XY,1039,301.8007024547025,2.393121681775986,0.07757689215243171,0.0007171442797968586
1_2,XY,1060,300.49603329120373,2.5233542965268376,0.06917848521886194,0.0006687636342752679
1_2,XY,1081,306.78176638812994,2.027789065538952,0.07539017566573085,0.000581550881277395
1_2,XY,1102,304.49031907488774,2.585494568182029,0.0664910783084267,0.0006602411829864553
1_2,XY,1123,302.77022751834926,2.618440842049824,0.07466135448909327,0.0007514248883728715
1_2,XY,1144,301.72174798374584,2.5301366964576126,0.06893778037392058,0.0006598808252516217
1_2,XY,1165,305.420220085413,2.6825065878190415,0.07796824191248755,0.0007973212544175718
1_2,XY,1197,307.7777427368822,10.722406672729004,0.0700884078470165,0.002466139917252051
1_2,XY,1218,307.25523635461195,3.795685395386533,0.07699060116354946,0.0010204606110300017
1_2,XY,1239,302.76443894694916,2.9656286718029556,0.06866906799249935,0.0007593682208974409
1_2,XY,1260,306.2254896421551,3.0142260712415787,0.07701824407870536,0.0008532982029845271
1_2,XY,1281,304.93348134627075,2.330006506783614,0.06879312819706712,0.0006099844791340838
1_2,XY,1302,304.40272764368643,2.352782771092019,0.07786298652911518,0.0007003837613507375
1_2,XY,1323,302.7928562938221,3.182373005979168,0.06454012603704022,0.0007774119858055393
1_2,XY,1344,299.5608343636414,2.6422831799192803,0.0762944823389272,0.0007848558095942137
1_2,XY,1376,303.5049010573148,2.3376116345656075,0.0705156082142196,0.0006179746519237451
1_2,XY,1397,306.11431102647606,2.4023440748969547,0.0731876292417247,0.0006634206564655289
1_2,XY,1418,302.6983324059311,2.345163234426708,0.07176968110613571,0.0006476799611525091
1_2,XY,1439,309.78744292889195,2.511442087293461,0.06457134363596526,0.0006111597183367988
1_2,XY,1460,302.0133654987947,2.6266150207195227,0.06921564964149166,0.0006934938699751579
1_2,XY,1481,305.4173231032991,2.6566875537408277,0.0745329052357263,0.0007642750519365639
1_2,XY,1502,302.8365962816708,2.502865546613324,0.06788252503295349,0.0006501802350082578
1_2,XY,1523,307.5229039064272,2.638243976023803,0.06343858616671434,0.0006293856101975934
1_2,XY,1555,309.1028164445895,2.6879187190320235,0.0637592057675545,0.0006499220499861111
1_2,XY,1576,309.21485470432316,2.8601737422099767,0.06747473529730694,0.0007176618538599896
1_2,XY,1597,311.16015490522796,2.510728935285535,0.0587498489669815,0.0005515923553372554
1_2,XY,1618,308.5388655783801,2.564992832861062,0.06673269500972302,0.0006397073056373707
1_2,XY,1639,302.81791479018176,2.5435421654831556,0.07815663421912994,0.0007558813139477982
1_2,XY,1660,300.98814915128685,2.5191092981114815,0.0830311287244595,0.0008091441021281736
1_2,XY,1681,303.5284218839071,2.566216508155481,0.07465040604844388,0.0007243647375293657
1_2,XY,1702,301.2904857869828,2.3734723732003693,0.08032617332297895,0.0007447089776352159
1_2,XY,1734,302.63408464301426,3.7883513098883026,0.07283736140046629,0.0010330948601346387
1_2,XY,1755,307.66602856184164,2.5386229407316545,0.060563199281362674,0.0005820883476155674
1_2,XY,1776,302.6413860585215,2.5512139459710297,0.07313468692891809,0.0007112438517058786
1_2,XY,1797,301.7380230947038,2.574959874833313,0.07952237933642312,0.0007806683005503162
1_2,XY,1818,304.01572546600664,3.4743936934119213,0.06810913108998284,0.000876329091249873
1_2,XY,1839,311.9987663981408,2.7465306033639596,0.06073492426273944,0.0006145658297971472
1_2,XY,1860,303.27988995706323,2.4884345473617997,0.07624823008564967,0.0007256882226017622
1_2,XY,1881,303.4939223434613,2.4731500063877374,0.07923986483254683,0.0007563886438635885
1_2,XY,1916,303.0061356873594,2.6114168565204756,0.07500617446515903,0.0007512672364639911
1_2,XY,1937,310.8014557130715,2.6893909219725525,0.06312888157838467,0.0006338956704820243
1_2,XY,1958,303.69232924575266,2.611414744836611,0.07071084332315132,0.0007049988705961651
1_2,XY,1979,303.49434763120934,2.4803945989053258,0.0762704404502254,0.0007285448000884463
1_2,XY,2000,305.07468335326485,2.583066950151671,0.07473466286525145,0.0007222523366592504
1_2,XY,2021,305.82133943016714,2.3781036081954334,0.07807854233638371,0.0006988363653611273
1_2,XY,2042,300.32017522956124,2.7096030335823946,0.07489057686636538,0.00077937291037876
1_2,XY,2063,303.4956478225155,2.6081900208681374,0.07847285698174944,0.0007785923114034404
1_2,XY,2095,302.9442031796246,2.469580433992744,0.07272074255644195,0.0006824308513175125
1_2,XY,2116,302.1348282682101,2.672153181385439,0.07519797558611192,0.0007665752335041265
1_2,XY,2137,302.31506017974584,2.6507741629964037,0.07336999225676726,0.0007397370091284996
1_2,XY,2158,304.07834516259976,2.3548937440558673,0.0782861673369731,0.0007001204910121796
1_2,XY,2179,302.6889183139761,2.994477442430026,0.07415101790186295,0.0008443683693256972
1_2,XY,2200,300.9527373005979,2.3083915644090816,0.08030728397528474,0.0007114199223363556
1_2,XY,2221,303.633611545572,2.5820071690880204,0.07539486052049663,0.0007486430470933636
1_2,XY,2242,302.209139358514,2.621628166168969,0.07845772819291602,0.0007844452039392153
1_2,XY,2274,303.61015470204364,2.8091431651050973,0.07448108975538055,0.0007934900667982378
1_2,XY,2295,302.4466378307168,2.170041694472411,0.0801671302518453,0.0006674545766020596
1_2,XY,2316,303.98203689480647,3.0118673507594194,0.07339990177201704,0.0008436221831759912
1_2,XY,2337,306.50413542495545,2.535337150689682,0.07462338190444791,0.0007121199383870574
1_2,XY,2358,308.27950677562,2.700075006774218,0.06587952750304454,0.0006680741272896259
1_2,XY,2379,301.54559559090507,2.5292059743647792,0.0785870499946647,0.0007662095264776612
1_2,XY,2400,303.7616886531252,2.477327984194646,0.0704436407268705,0.000678205899037544
1_2,XY,2421,303.08612433363885,2.4840071051377177,0.07766882347800182,0.0007287984375568925
1_2,XY,2453,304.44725691508177,2.4637969692240786,0.07683741436853055,0.0007147315912491043
1_2,XY,2474,302.46738317606275,2.6734670995963965,0.07974108805883776,0.0008103067952515798
1_2,XY,2495,304.34738414386965,2.6079337006135317,0.07303374856782978,0.0007261068043163154
1_2,XY,2516,302.8420888464342,2.648433425740137,0.07811616988737069,0.0007733309896187147
1_2,XY,2537,302.6713804601018,2.6256619586824526,0.07527467722998674,0.000746975902713145
1_2,XY,2558,301.10180737025274,2.549816668902666,0.08148032859273796,0.0007926622500028774
1_2,XY,2579,306.27375143024665,2.369736259224419,0.0760178722844411,0.000692431660522449
1_2,XY,2600,302.36742197210197,2.978116600268909,0.07987522575229904,0.0009013096117088459
1_2,XY,2632,302.64861117059814,2.6948780537060313,0.0751088058940966,0.0007803976951872588
1_2,XY,2653,302.56027649788416,2.650326876010843,0.07741410132828061,0.0007858921371074845
1_2,XY,2674,301.7056815636306,2.817399680866107,0.06729360150172747,0.0007276955217211279
1_2,XY,2695,304.9620024820261,2.5230178030278028,0.07968142410559947,0.0007603429140891314
1_2,XY,2716,300.60710581892334,3.2625925966621856,0.06770291259976109,0.0008334997556258062
1_2,XY,2737,301.51090865657096,2.36942263642909,0.0781521571204556,0.0007074866267201134
1_2,XY,2758,298.69704489796874,2.983728126474808,0.07346059461716213,0.0008400951593679572
1_2,XY,2779,302.7102631231483,2.837316394617352,0.0771127919424154,0.0008381668279985519
1_2,XY,2818,303.72946647265013,2.420369083852353,0.0756634505009169,0.000694138153757258
1_2,XY,2839,300.3028904049887,2.752635068873731,0.08082979478905883,0.0008665407770600649
1_2,XY,2860,302.99202434698674,2.456045462730691,0.07498699046627404,0.0006980622006042832
1_2,XY,2881,301.8207038245069,2.566692721854963,0.08040334263672996,0.000800416563227411
1_2,XY,2902,304.63431856067666,2.641172752715724,0.07519653351672594,0.0007578544777075844
1_2,XY,2923,302.2954891083804,2.719692091456362,0.08024072410064005,0.0008467430768813475
1_2,XY,2944,302.3496550580894,2.6160099281618927,0.07277845673997006,0.0007268397806674357
1_2,XY,2965,303.30213158263996,2.6023335156431413,0.07575145571853255,0.0007490137983852044
1_2,XY,2997,304.8027490135356,2.316188202397008,0.07385207008572152,0.0006407824673149595
1_2,XY,3018,302.4867916608491,2.6400460781021753,0.07902115086795289,0.0007923446003255875
1_2,XY,3039,299.054368155411,2.845006272526766,0.07140584990363909,0.0007918624052560329
1_2,XY,3060,304.94148935094694,2.8798367870675734,0.0751868028636758,0.000805843768734148
1_2,XY,3081,302.4846616050075,2.6124196952716527,0.07368016717422525,0.0007405155645182878
1_2,XY,3102,301.36331154030023,2.740071502827312,0.07966025050570905,0.0008320968924587584
1_2,XY,3123,306.04487806587235,2.5282704077639755,0.0746290180494483,0.0007189164205519463
1_2,XY,3144,302.2186536040741,2.48397320182486,0.0805466527802417,0.0007621736344467269
