XscanNumber_YscanNumber,Type,BCID,xsec,xsecErr,SBIL,SBILErr
2_1,XY,103,306.6163812122589,2.823533016652573,0.06312256634436121,0.0006642167177874141
2_1,XY,124,295.801684488045,2.808611248903764,0.08212660568936807,0.000883706701340343
2_1,XY,145,301.4751755967636,2.9208327420589617,0.06504940725432279,0.0007242715180775201
2_1,XY,166,299.957211933958,2.695919550885357,0.07532661070653494,0.0007834031529189031
2_1,XY,187,301.7906518263507,2.6471423122386604,0.06390435647097148,0.0006463213129375031
2_1,XY,208,306.02969564713237,2.6006390857201387,0.06657950198521542,0.0006566943248738151
2_1,XY,229,301.80415338156547,2.8510680068465093,0.06948298980223573,0.0007572721803673774
2_1,XY,250,300.0199969839544,2.647700361244869,0.07742171210746009,0.0007986381182509049
2_1,XY,282,302.53850924004223,2.4524642454098986,0.07485976372266792,0.0007038966416192595
2_1,XY,303,301.1971447966106,2.834581898157709,0.07839571119709829,0.000850693631887241
2_1,XY,324,299.5697070388638,2.8672454790540294,0.07159751930895553,0.0007843750799588183
2_1,XY,345,303.0625974266021,2.828877884188361,0.07970560146730306,0.0008536533417615258
2_1,XY,366,298.75413839089146,2.581870283825683,0.07299860586570532,0.0007267787579613573
2_1,XY,387,303.40441723899363,2.6382559842614595,0.07901838024566114,0.0007947785536081922
2_1,XY,408,302.2129934794251,2.9488965811125927,0.06862473599708645,0.0007733397553931238
2_1,XY,429,302.1860776818382,2.9135266488208735,0.07618116197777275,0.0008415572000134229
2_1,XY,464,301.8677683077693,2.857430449361324,0.07475463268833903,0.0008146956911382711
2_1,XY,485,301.901605980961,2.557994588482561,0.07811587910831741,0.0007647904677155854
2_1,XY,506,302.48959847156635,2.9080901385360893,0.06649121252638274,0.0007402990603204665
2_1,XY,527,301.90398333258946,3.2501599500787473,0.0732882828042601,0.0008803336050306302
2_1,XY,548,301.45949874775613,2.4528484359722498,0.07283429939918752,0.0006900570542289227
2_1,XY,569,302.16861634157283,2.3105249664546705,0.08055019376656498,0.0007109555236725868
2_1,XY,590,300.86927415108715,2.472738369391723,0.06983484277466638,0.0006677896121110396
2_1,XY,611,303.3845120275033,2.240201559998349,0.07780611562757425,0.0006726965454560602
2_1,XY,643,304.3673973529034,2.652212322517326,0.07293423699664107,0.0007262928058829761
2_1,XY,664,300.54103155443806,2.6258731946623706,0.07737287073385071,0.0007830498699369096
2_1,XY,685,301.05383107697884,2.650615563700354,0.06710110692631883,0.0006876258527589335
2_1,XY,706,305.1490002942673,2.47067858840282,0.06970577557958262,0.0006539534608789595
2_1,XY,727,303.5971906974558,2.6062537994103865,0.06879151439906292,0.0006785420045270478
2_1,XY,748,300.9329686809968,2.428567513641428,0.07827812622784601,0.0007350261850008507
2_1,XY,769,301.05409162604076,2.8434908459940873,0.06340285078753588,0.0006996297879404622
2_1,XY,790,300.243876155538,2.441535257054992,0.07306999901246583,0.0006879993494999755
2_1,XY,822,308.6733361191853,2.7957176065965905,0.06495940032121168,0.0006797461946813945
2_1,XY,843,305.24704260896794,2.5604473323566355,0.07696475953127593,0.0007381745792261159
2_1,XY,864,302.0627092091351,3.1143027401815,0.0702576616981207,0.00082440165095854
2_1,XY,885,300.0768591929191,2.2589834627264893,0.08092848051170619,0.0007008814007256528
2_1,XY,906,301.73781464161743,2.6627451125273964,0.06785677580561734,0.0006976296480569174
2_1,XY,927,302.0599028555549,2.546969168511774,0.07812475959464345,0.0007573330875146361
2_1,XY,948,303.28655119245946,2.466768694193506,0.06809164934278436,0.0006379337100498501
2_1,XY,969,299.5323746143717,2.405139542386072,0.07687015348001978,0.0007104603582422197
2_1,XY,1018,304.43146849971447,2.6314374167378567,0.0735642980985569,0.0007376771151259258
2_1,XY,1039,299.987679371944,2.601882072396493,0.07860573406773369,0.0007821763655213284
2_1,XY,1060,302.720343821545,2.5228887377695357,0.07017958064854161,0.0006781958964589335
2_1,XY,1081,305.43223549475107,2.509143789157595,0.07639431907061339,0.0007407735329690266
2_1,XY,1102,302.18061257138305,2.908930728429242,0.068051028825916,0.0007542019703197962
2_1,XY,1123,301.70928071676593,2.621092698196977,0.07499255165780723,0.0007453348962317909
2_1,XY,1144,305.3127341881713,2.669477081916259,0.06918484355686043,0.0006955656109439603
2_1,XY,1165,307.5191957082729,2.3946352569827676,0.07805784578295852,0.0007094353043444951
2_1,XY,1197,302.1938294361085,2.6716314488969704,0.07191765913428609,0.0007346920207968466
2_1,XY,1218,302.88327503975336,2.146756507736778,0.078585616828653,0.0006534535551818733
2_1,XY,1239,300.97362128566226,2.524363604660038,0.06986660844057759,0.0006880302566277523
2_1,XY,1260,303.6947979787527,3.2327013398807956,0.07766399294813141,0.0009020827419701732
2_1,XY,1281,303.1756247944776,2.661221092816851,0.07103506396364138,0.0007133272468402983
2_1,XY,1302,301.5827691169228,2.3751309946101817,0.07936165455298155,0.00071422538754626
2_1,XY,1323,305.18466729372517,2.77989524785075,0.06396938495455401,0.0006784558151880873
2_1,XY,1344,303.8489941459942,2.3770514355894137,0.07547116687457484,0.000682959256157294
2_1,XY,1376,301.17322842236103,2.6144716266319854,0.07203479521406901,0.0007328502911367509
2_1,XY,1397,305.8407579520638,2.3935380445744125,0.06834738218555873,0.0006230104309798505
2_1,XY,1418,308.9391270689355,11.757844754131359,0.07116495700654986,0.002729958631471373
2_1,XY,1439,307.7460642127038,2.7713564265257014,0.06366567037193334,0.0006545867893241082
2_1,XY,1460,303.1970329490519,2.6508624917043715,0.0698441250846375,0.000704415544241413
2_1,XY,1481,298.92242114505336,2.3141810238811704,0.07805917689425189,0.0006945692670636438
2_1,XY,1502,304.24116833509413,8.448803983374793,0.0687805590840422,0.001939279702361414
2_1,XY,1523,306.39954212828917,2.7466103931495978,0.06142220775132577,0.0006382841539740902
2_1,XY,1555,305.91017072049516,2.700939364729213,0.063898887930078,0.0006525949124034
2_1,XY,1576,307.6652272438811,2.4927610671485296,0.06708885630479429,0.0006321758869648251
2_1,XY,1597,308.42884844358315,3.073592476619438,0.05892065975708421,0.0006699521044115792
2_1,XY,1618,306.75413505357966,2.3992127036595314,0.0647635441990839,0.0005861105004789081
2_1,XY,1639,304.1738274398749,2.409564476908364,0.07913129154364405,0.000723317309806857
2_1,XY,1660,304.8804493938151,2.2319767096072454,0.08030815492690299,0.0006876272871412303
2_1,XY,1681,305.1389511551388,2.329467265144847,0.07450626980098474,0.00066368469683284
2_1,XY,1702,301.9340785215315,2.4600716647066636,0.08108798819199219,0.0007594945121232834
2_1,XY,1734,303.060882796433,2.37383231396988,0.07377401599327983,0.0006694344702217979
2_1,XY,1755,307.9265185133126,2.6423474182525917,0.06004080817979102,0.0005997269857555165
2_1,XY,1776,301.8956471193907,2.5288407299707414,0.07428436586061624,0.0007161544612758645
2_1,XY,1797,300.78591347850954,2.518509442148074,0.08022110715876532,0.0007754848132059633
2_1,XY,1818,308.3836728385064,2.759971528986299,0.06606260965927695,0.0006864332503182321
2_1,XY,1839,307.93722979341425,2.5412524991633956,0.06083130426767352,0.000586574533125864
2_1,XY,1860,302.7004802126215,2.7006324568675897,0.0754533499510807,0.0007626666759815599
2_1,XY,1881,302.00879368041285,2.455812415190488,0.08178607609183275,0.0007652259429741649
2_1,XY,1916,302.7972123081778,2.689787243137291,0.07273704997854277,0.0007289975612802581
2_1,XY,1937,308.1830848227202,2.8192377255552565,0.06090851268499252,0.0006515515634652061
2_1,XY,1958,302.50532257607136,2.4783053785268194,0.07259848249068346,0.0006883373030052686
2_1,XY,1979,302.33770835554515,2.928945584249163,0.07656834094968012,0.0008137652638132117
2_1,XY,2000,303.1409624151326,2.7434149914102277,0.07668463996929083,0.0007945806563951472
2_1,XY,2021,298.4382371542934,2.613887131930216,0.08165987310828812,0.0008241376882490747
2_1,XY,2042,300.38612768389874,2.6544311594432854,0.07623274617084566,0.0007871027535406806
2_1,XY,2063,300.6314562597776,2.3962147944921797,0.07893525673802053,0.0007307954327506479
2_1,XY,2095,302.83064107404374,2.6188010182676815,0.07369555698412071,0.000733745861654638
2_1,XY,2116,301.2329572225684,2.56011031670775,0.07719661192846869,0.0007598371604885865
2_1,XY,2137,301.885477045625,2.5996446785523903,0.07350908226083436,0.0007355881773930429
2_1,XY,2158,304.40300190113385,2.3908892272957147,0.07834794156253834,0.0007112010815498931
2_1,XY,2179,301.31284848336793,2.513565062785702,0.07644894569520726,0.0007445048405801952
2_1,XY,2200,301.6353555209251,2.5493847524489412,0.08167600869353919,0.0007959824992079551
2_1,XY,2221,300.56617098065544,2.46752916656983,0.07685887263953232,0.0007342484473841944
2_1,XY,2242,299.1059680638415,2.544215056571756,0.07987571220703452,0.0007910517017236817
2_1,XY,2274,300.79554768022734,2.571784812994669,0.07619358680758144,0.0007661039124234824
2_1,XY,2295,304.97376579866517,2.3076239459142003,0.07864301029887105,0.0006973691431207355
2_1,XY,2316,301.59214226891055,2.7393480895649973,0.07466639803196502,0.00077867619877022
2_1,XY,2337,305.654913185798,2.605674132602612,0.0678138512682771,0.0006801759779813876
2_1,XY,2358,306.5122613949317,3.1341376896356286,0.06287937573572816,0.000728648603030875
2_1,XY,2379,302.4430564088407,2.5901166502170145,0.07785272025518418,0.0007752859622544302
2_1,XY,2400,303.3184733149645,2.5030741908125487,0.07153682231736577,0.0006839388472099639
2_1,XY,2421,298.70666811943846,2.5235457315948153,0.07874380392660878,0.0007751781310373924
2_1,XY,2453,302.53644638677656,2.464348112102098,0.07731195034243867,0.0007331964344957557
2_1,XY,2474,298.65964423634773,2.6106500481335413,0.08188010943690066,0.0008374094829202979
2_1,XY,2495,303.71147135144497,2.4575432798284,0.07405634715182849,0.0006987096198519836
2_1,XY,2516,302.5648182490479,3.2220103589992615,0.07852406434440883,0.0009208829590785746
2_1,XY,2537,301.49140132171294,2.533329954381077,0.07661508032950964,0.0007290174830609431
2_1,XY,2558,301.08021206121697,2.338269420623741,0.08373766759941885,0.0007608769629068148
2_1,XY,2579,303.24357420196225,2.5234534798020856,0.07851219963517067,0.0007605847289885072
2_1,XY,2600,304.85286898367247,2.54965042046671,0.08020223369704779,0.000772825297146991
2_1,XY,2632,302.7892145054843,2.4821989919104053,0.07323550160365398,0.0006939155313198269
2_1,XY,2653,298.8974144686996,2.499304907893404,0.07897572219189036,0.0007697383780098745
2_1,XY,2674,301.4635383244283,2.545270997317628,0.06889891067305992,0.0006776393271421537
2_1,XY,2695,303.7657297928655,2.7905085044766196,0.08111691846392022,0.0008466763132591241
2_1,XY,2716,303.4668510117633,2.504817518689052,0.06835366677691494,0.0006546854360973602
2_1,XY,2737,302.73419203311494,2.8657978475387966,0.07827176424195809,0.0008461326599759373
2_1,XY,2758,302.9980791443254,3.0314125002555623,0.07248806013411696,0.0008233340617302331
2_1,XY,2779,302.2409587289127,2.6360224393407043,0.07865707633635996,0.0007785796642694108
2_1,XY,2818,300.2709622941647,2.7066278745040706,0.07743943447660005,0.0008030190982374748
2_1,XY,2839,302.3452251017873,2.514921326865241,0.0801164622602227,0.0007668111853844135
2_1,XY,2860,300.8807136080734,2.510220619837981,0.075898607995473,0.0007292533184703267
2_1,XY,2881,300.35366443143647,2.2586004223864053,0.08036314287284439,0.0007145340485464225
2_1,XY,2902,302.767887110165,2.5951260989972247,0.07637808171309785,0.0007485496517685823
2_1,XY,2923,299.19405778623076,2.3671381738997996,0.08117608635191056,0.0007396202893687233
2_1,XY,2944,301.9747890073145,2.6135746428479,0.07364175655881819,0.0007346526243358674
2_1,XY,2965,300.5695254017884,2.5254968000358,0.07778114521010727,0.0007557978773908089
2_1,XY,2997,303.3568213554173,2.481844448219093,0.07455813415495514,0.0007115529332638023
2_1,XY,3018,302.61189174470974,2.937730298575642,0.07849535449399064,0.0008569273814713833
2_1,XY,3039,300.8549214988736,2.726929793880941,0.07084598169253457,0.0007345344639555793
2_1,XY,3060,300.06365647655787,2.7558713722620887,0.07712548273331489,0.0008118781999869427
2_1,XY,3081,300.7071256196754,2.745984205647998,0.07459987637066895,0.0007731536460995503
2_1,XY,3102,301.2776227163607,2.4250668443609094,0.07935011777712159,0.0007437825179484908
2_1,XY,3123,299.13293644915643,2.5733830807411153,0.07767805527788493,0.00077714911544045
2_1,XY,3144,297.8769659657387,2.6577553132966534,0.08200624257036834,0.0008588957748208064
