XscanNumber_YscanNumber,Type,BCID,xsec,xsecErr,SBIL,SBILErr
1_2,XY,103,138.8609590736311,1.034398043410892,0.06404462157784792,0.0005363258063620152
1_2,XY,124,137.43474191313405,0.8436477910301341,0.07901665544215042,0.0005644171482626197
1_2,XY,145,138.15825565969982,0.9861062701319544,0.06392072385132694,0.0005290753881232652
1_2,XY,166,136.50855222543015,0.9707792346491478,0.07391220041704795,0.0006106566554449272
1_2,XY,187,138.6409786652921,1.0384501763661937,0.06397258417906951,0.0005514613910360416
1_2,XY,208,137.8860475925458,0.93370310418586,0.0673104031163531,0.0005338609702249832
1_2,XY,229,138.0438478454486,0.9433405453528589,0.06816196460370796,0.0005413587988892255
1_2,XY,250,137.33224391502017,0.898361415543247,0.0763539296244844,0.0005840334299635199
1_2,XY,282,137.99639874999494,0.8100220247682264,0.07458255541978086,0.0005152962640794312
1_2,XY,303,137.3372216350524,0.8833786892591817,0.07803554625306838,0.0005824967949628148
1_2,XY,324,137.31740117633052,0.9512256191634351,0.07027806236481458,0.0005552514605211982
1_2,XY,345,136.76031207741462,0.8955296658601078,0.07919323875135732,0.0006113460756481443
1_2,XY,366,137.47952964467717,0.9000632931732004,0.07226102117122003,0.0005470454033417641
1_2,XY,387,137.27403797520503,0.8840491419991057,0.07832341042617558,0.0005880460027824382
1_2,XY,408,138.3036078373723,1.0198381173657245,0.06698732718186841,0.0005791489912997922
1_2,XY,429,136.97336532887863,0.9835446784925442,0.0760004253225662,0.0006321519962111536
1_2,XY,464,137.7582939519036,0.9471101432677071,0.07434894725526942,0.0005866433510802657
1_2,XY,485,137.76203112131012,0.8768453220501476,0.07662285175463704,0.0005639472837697058
1_2,XY,506,138.27416471704592,0.8983214533773608,0.06587298486169182,0.0004952177594512187
1_2,XY,527,137.19646851369043,0.9271913182677894,0.07285109340645073,0.0005746933436009454
1_2,XY,548,138.0513307642052,1.0964795662648086,0.07139382410879772,0.0006306152619458633
1_2,XY,569,138.90366246256914,2.0181185369654546,0.07923348260360613,0.001195105218848682
1_2,XY,590,137.2419219716677,0.93628872568305,0.07005718297676952,0.0005446470076119863
1_2,XY,611,137.8803645458836,0.8320874558773504,0.07739532897091425,0.0005483258538342638
1_2,XY,643,140.0874923156506,0.8186796147548363,0.07110725390334198,0.0004892404683363723
1_2,XY,664,137.7774761345216,0.8963615282129793,0.07624103493525836,0.0005659880233415273
1_2,XY,685,138.3027851362981,1.0256311901813517,0.06607826290729175,0.0005548493103213973
1_2,XY,706,139.60588140193983,0.9081760607957445,0.06902779307136074,0.0005226096248509582
1_2,XY,727,138.59663553209484,0.9462376989186558,0.068795534419761,0.0005382776629411991
1_2,XY,748,137.9519179289748,0.9144620443100945,0.07785931373936324,0.0005911760648405165
1_2,XY,769,137.13081501525113,0.9691251327835084,0.06325202054418423,0.0005206329678658553
1_2,XY,790,138.6377726246941,0.9358338086774042,0.07049624985954307,0.0005474931354530194
1_2,XY,822,139.8213293910748,0.9769065604340799,0.06595910939421452,0.0005419383026018908
1_2,XY,843,139.43821058453221,1.974462176949877,0.07593062696121193,0.0011044840745838011
1_2,XY,864,138.10015225049526,0.891320701710158,0.06934020241014952,0.0005180016528865875
1_2,XY,885,136.99735504779827,0.8611400189809368,0.07982154804978792,0.0005927443441464927
1_2,XY,906,137.7533168678613,1.0627838161163878,0.06782244085722822,0.0006033047016199474
1_2,XY,927,136.97625081662844,0.8365691671258331,0.07763197161863075,0.0005493985655071969
1_2,XY,948,138.49821592362727,0.872439790006381,0.06800135730390734,0.0004945418155610839
1_2,XY,969,138.9475007037578,1.0325930395489833,0.07473130331559931,0.0006231435716263702
1_2,XY,1018,139.70782177158853,0.8314276752027605,0.07326172875500567,0.0005146699804019898
1_2,XY,1039,138.99801823767896,0.774872737513826,0.07664167843256005,0.0004992268590679436
1_2,XY,1060,138.09285112433108,0.9515077489363485,0.0687144272200596,0.0005492689990246062
1_2,XY,1081,137.41125747083132,0.9509690725852336,0.07674248729504003,0.0006050837608732172
1_2,XY,1102,139.00724952913367,0.8546807453003035,0.06674966117796365,0.00047360504012440856
1_2,XY,1123,138.10233927483077,0.8611428175055476,0.0739284930929038,0.0005385035920915276
1_2,XY,1144,139.11711331544413,0.8706404155860749,0.06813797574977669,0.0005015654472027925
1_2,XY,1165,138.92367977989883,0.8284621150961166,0.0794052492504493,0.0005398395679176178
1_2,XY,1197,137.51262471217768,0.9188997206615855,0.07155617040791562,0.0005492394934104075
1_2,XY,1218,139.4142897730585,0.9274368807179877,0.07649437051692512,0.0005978497373566198
1_2,XY,1239,137.79332893078166,1.0939378743547679,0.06843510722024396,0.0006085795544880912
1_2,XY,1260,137.53002153518148,0.9328790806836099,0.07746764626845072,0.0005983398985203124
1_2,XY,1281,138.78264530965723,0.9881360248493736,0.06946608499041335,0.0005692820468440561
1_2,XY,1302,138.98985560873192,0.8069537706936762,0.0778792724591572,0.0005315123874778037
1_2,XY,1323,138.2470965969999,1.0607699133645565,0.06396066820694513,0.0005419438379324431
1_2,XY,1344,140.08951170574062,0.94275886176309,0.07361803670072532,0.0005570648962239122
1_2,XY,1376,136.96674141604436,1.0125993377400486,0.07168185662210663,0.0006158571964766421
1_2,XY,1397,139.8647953668678,1.105900993771078,0.06837668665128746,0.0006091026025681136
1_2,XY,1418,139.149935427357,1.2808034466315736,0.07133413196565476,0.0007043647284117767
1_2,XY,1439,138.88698220906488,0.8665993211899695,0.06490549152783746,0.00046636906211627226
1_2,XY,1460,137.6349748811878,0.9826224489005038,0.06934653524245296,0.0005744921953807707
1_2,XY,1481,139.23546770432398,0.8939612491819892,0.07560707665154617,0.0005674389290349492
1_2,XY,1502,139.11252555972737,0.9133483919768974,0.06802515096059784,0.0005178254204858299
1_2,XY,1523,141.71813488313543,0.8875848447546585,0.060688186378505184,0.00044181439393985145
1_2,XY,1555,139.24076233531477,1.053490124203051,0.06407730635487063,0.0005499604167458317
1_2,XY,1576,139.92393234602486,0.9697278523941759,0.06672556381874845,0.0005317504684796213
1_2,XY,1597,139.40472281294808,1.0100625829301573,0.059590274754573916,0.0004936565334955939
1_2,XY,1618,140.91811163857528,0.8255025063807103,0.06445154410575069,0.0004411485093734233
1_2,XY,1639,137.5773304293398,0.8436208894587615,0.0789140504983879,0.0005624367897087576
1_2,XY,1660,138.59588446093667,1.3785063638165762,0.07759884428992066,0.0008248116824489015
1_2,XY,1681,136.7516859558704,0.8064915949681735,0.07542818490980234,0.0005221783816361041
1_2,XY,1702,135.80357092580954,0.7980148817659871,0.08172518701354077,0.000560829327252977
1_2,XY,1734,136.93452399449248,0.926842139979864,0.07368841136345716,0.0005797503511699406
1_2,XY,1755,140.23769638449747,1.0078171175966446,0.06057272278869933,0.0004985531243302584
1_2,XY,1776,139.23537321747582,1.8054784043606817,0.07262717402023487,0.0009831802638163166
1_2,XY,1797,137.34847259278308,0.8616453900828741,0.07964390591039262,0.0005782322009022527
1_2,XY,1818,138.69890489174088,0.9291557615705115,0.06740396216168952,0.0005234041025796733
1_2,XY,1839,140.81859217260023,1.5465116140051922,0.061556516362197,0.0007142912809834148
1_2,XY,1860,138.8804744201365,0.813171077230524,0.0751467283348372,0.0005057374636590001
1_2,XY,1881,138.99735186327632,4.397134820842702,0.0788566141692151,0.0025130884560783523
1_2,XY,1916,139.29845229846944,1.647789222869573,0.0712362448587657,0.0008872790116902071
1_2,XY,1937,139.47791718722135,1.6508089457899637,0.06167465639900479,0.0007682124885527938
1_2,XY,1958,137.84724148967157,0.876362383299547,0.07088788403951456,0.0005191888116316909
1_2,XY,1979,138.40085516255616,1.0040098241034467,0.07587352116272085,0.0006238451217589312
1_2,XY,2000,139.24250181409397,0.8900395527778742,0.07493332868067253,0.0005492251670950971
1_2,XY,2021,137.72386896401065,0.9598746773612808,0.07909402562581111,0.0006303020183791076
1_2,XY,2042,137.85751466695035,1.155949967327008,0.07476854422093177,0.0007004801618061203
1_2,XY,2063,138.16294486232883,1.0872923518857138,0.07849733719897713,0.0006861519011505505
1_2,XY,2095,137.74604456277325,0.8649378510942999,0.0740960059168867,0.0005371009274376685
1_2,XY,2116,138.309212226116,1.2098941373123677,0.07574270680145868,0.0007166790665244945
1_2,XY,2137,138.1420917768526,1.4736646072134285,0.07297871348579567,0.0008206928222674084
1_2,XY,2158,138.09341555593264,0.9196684426522245,0.07806788453959591,0.0005966241204370787
1_2,XY,2179,138.96333431563602,1.043550717505957,0.07391461694560819,0.0005989758366029275
1_2,XY,2200,137.44712909657073,0.8560070805728659,0.08029371438010556,0.0005831094860082952
1_2,XY,2221,137.07715395321256,0.8045677680335329,0.07636816055326182,0.0005244918207568196
1_2,XY,2242,137.3707877229799,1.3738056368121976,0.07885311845704875,0.0008368303383577022
1_2,XY,2274,138.2337856900139,0.8736426590009166,0.07573085131425072,0.0005527915058390127
1_2,XY,2295,138.13570265480638,0.8689444786217453,0.07643665609149868,0.0005513528836245317
1_2,XY,2316,137.85115728017274,0.9024631274299142,0.07433276536635046,0.000564516162005464
1_2,XY,2337,139.40820496934126,0.8756120942721829,0.06780511999461858,0.0004955841573379632
1_2,XY,2358,141.3288269002918,0.9155678753393263,0.06268560460735964,0.00046859075250118675
1_2,XY,2379,138.31003291265216,1.3410994862677037,0.07663455640436018,0.0008029419798102547
1_2,XY,2400,138.27726223613166,1.0241387058237579,0.07148397854639892,0.0006105324406138687
1_2,XY,2421,137.12897197673868,0.8751029251823287,0.07741746076219182,0.0005815727905290698
1_2,XY,2453,138.16092308925982,0.9877831432756466,0.0762472874283372,0.0006090594673599364
1_2,XY,2474,138.90175865236637,0.8753196291500832,0.08003135828295324,0.0005826375901258975
1_2,XY,2495,138.57789192018635,1.0199899581593823,0.07280772796034178,0.0006087293318368906
1_2,XY,2516,137.58048347835495,0.892179117660508,0.07780935449837009,0.000588997394611573
1_2,XY,2537,138.10829195033435,1.046350732672102,0.0759851652815482,0.0006385962277738371
1_2,XY,2558,138.1481830627066,0.94855235667196,0.08214738469555283,0.0006258706697440863
1_2,XY,2579,139.35694983410932,0.8035685770553815,0.07642901830825141,0.0005197687295895369
1_2,XY,2600,139.03872172638475,0.7955440612657083,0.07936987312741403,0.0005354353200919906
1_2,XY,2632,138.5768790728013,0.9441147456671892,0.07183030934464735,0.000558697785483053
1_2,XY,2653,139.42288579261222,0.8101644377763351,0.07593096326846711,0.0005167335104069604
1_2,XY,2674,139.3038965969687,1.0185773230111197,0.06746469747293742,0.0005543174413894945
1_2,XY,2695,137.6346384505926,0.8447884331831728,0.0806564683813011,0.0005737928001785925
1_2,XY,2716,138.35948194117427,0.9381442816203552,0.06759222628880172,0.0005153933969025813
1_2,XY,2737,137.95517118038651,0.822467709336599,0.07761291061903398,0.0005321211018602358
1_2,XY,2758,137.5727477843222,0.8713633316617939,0.07278773331813107,0.0005439544710035696
1_2,XY,2779,137.00813516471962,0.8721067669747542,0.07803842024142833,0.0005805136247716567
1_2,XY,2818,137.9711668289231,0.9144111793904716,0.07608088556530457,0.0005805028233403563
1_2,XY,2839,137.7609013053267,0.8912942894040796,0.07988611957809133,0.0006031454992460024
1_2,XY,2860,137.5033090391535,0.8747905564103845,0.07519805629269948,0.0005506835712524465
1_2,XY,2881,138.66267080025622,0.9015471876009709,0.07902381479092901,0.0005891236971899979
1_2,XY,2902,138.0583352943655,0.9114240983463083,0.0756303387612652,0.0005793040938482019
1_2,XY,2923,137.8071974713547,0.9093777937008279,0.0791132986627963,0.0006067182023356997
1_2,XY,2944,138.38000080082173,0.9318853348652516,0.07331456515928755,0.0005713222791214383
1_2,XY,2965,137.26219344626304,0.8464988627838653,0.07642121351161445,0.0005496173552991797
1_2,XY,2997,138.1786027358572,0.9095764203100788,0.0741345961918082,0.000556858065360223
1_2,XY,3018,137.18844303958295,0.838922098740332,0.07832268208318253,0.0005597044692576773
1_2,XY,3039,137.9059320823386,1.1653384382000347,0.07074945194560016,0.000652182202209625
1_2,XY,3060,138.21961517759607,0.8131640101647892,0.07479340494608569,0.0005258714454510919
1_2,XY,3081,138.98386537856624,0.9027716627181511,0.07265353165552244,0.0005426506543633753
1_2,XY,3102,138.30492649967886,0.9303651818602064,0.0770630588274964,0.0006017336919123392
1_2,XY,3123,138.64883838411373,0.8685233702805423,0.07589552078123732,0.0005565260117714231
1_2,XY,3144,138.7599598117949,0.8342678368113613,0.0795406175409105,0.000553129284115273
