XscanNumber_YscanNumber,Type,BCID,xsec,xsecErr,SBIL,SBILErr
2_1,XY,103,300.8697278118157,2.5444610274775386,0.07168796871726878,0.0006924613300116053
2_1,XY,124,297.2905920285798,2.6896155476601447,0.08020471137175508,0.0008333400904773724
2_1,XY,145,296.36178112496816,3.0544212785143285,0.06564448599835017,0.0007732757492302923
2_1,XY,166,300.57529515311535,3.0333459474729296,0.07488149588611019,0.000875832892892773
2_1,XY,187,300.8573820232321,2.924710305391324,0.0643001728458641,0.0007205153847141398
2_1,XY,208,301.76661809713426,2.7036699262640713,0.07327196679827207,0.0007487908935301903
2_1,XY,229,300.1349653259759,2.8111670734213323,0.06967576210913742,0.0007475643017083994
2_1,XY,250,297.59716478700796,2.6603301148882887,0.07795162483833093,0.0007995178652434454
2_1,XY,282,301.8506057881914,2.7517416430893076,0.07193431311102015,0.0007520700038027927
2_1,XY,303,299.4196200692024,2.7754623162734706,0.0790662569101573,0.0008334272831929856
2_1,XY,324,298.99132015514914,2.7854749329171855,0.06992507883734986,0.0007503301584104943
2_1,XY,345,300.9889523365925,2.8590787846126013,0.0794603497892969,0.0008742932441380167
2_1,XY,366,296.50062648674304,2.8632044230656137,0.07327085320325695,0.0008091932068504138
2_1,XY,387,294.6525109007189,2.9304528522213933,0.08189434465804994,0.000935899980078034
2_1,XY,408,298.01079296319153,3.5347596484600055,0.0680953326894059,0.0009327799835373242
2_1,XY,429,298.94813448509433,2.65526065024448,0.07757034589704762,0.0007984137688147708
2_1,XY,464,302.4631014348174,2.640379470326021,0.0722127311414471,0.0007174727722822057
2_1,XY,485,298.190687667444,2.3952616007879812,0.07717729524899802,0.0007135133459126671
2_1,XY,506,301.55407360048406,2.8285020470134357,0.06439201985657979,0.0006933987923489083
2_1,XY,527,297.7696837762106,2.5259539537997124,0.07345391097900633,0.000722948949411014
2_1,XY,548,299.9892562374888,2.760139123862166,0.06991239384060209,0.0007335614131437613
2_1,XY,569,299.7728321730199,2.996629874236447,0.0795686086917761,0.000905095741299736
2_1,XY,590,301.59592850733736,2.760757897965567,0.06878180565879789,0.0007189800676157767
2_1,XY,611,295.82657282024314,3.016150584609612,0.07811489744593346,0.0009018855185439924
2_1,XY,643,302.470541306823,2.4300550538018997,0.07161437392350248,0.0006629304543585123
2_1,XY,664,300.0107782659815,2.714761474680926,0.07586477762547433,0.0007814104518871222
2_1,XY,685,301.0467686485028,3.0060518874236073,0.064712884851345,0.0007363324469824845
2_1,XY,706,304.0720520383415,2.473604239588653,0.07109123618699072,0.0006646268437620177
2_1,XY,727,300.43197277959746,2.7196013230148024,0.06837862653605216,0.0007060804514724016
2_1,XY,748,298.371507176987,2.8611016567365506,0.07890750061734915,0.000867019759023229
2_1,XY,769,297.73340803519324,3.4853164488742405,0.06366760063978234,0.0008587400706620281
2_1,XY,790,299.24398085155775,2.9701899989557976,0.07152504251301291,0.0008015931666990757
2_1,XY,822,300.50162170613163,2.6841164816356593,0.07329067757126422,0.0007567080395102233
2_1,XY,843,300.94281849323846,2.688982550313954,0.07389310903779586,0.000755953554686289
2_1,XY,864,302.6841891408195,2.588260528425935,0.0682409374736464,0.000664837613237137
2_1,XY,885,297.5829188117122,2.8394549378204244,0.08069259490950126,0.0008739992668011303
2_1,XY,906,301.46093129490504,2.8911031830741303,0.06697251300756255,0.0007295754194186289
2_1,XY,927,298.6271189078488,2.535780332338191,0.07875153856630061,0.0007689576090624703
2_1,XY,948,301.3868560157444,2.909143943925732,0.06662514380156323,0.0007392609357512281
2_1,XY,969,296.3425184638587,3.058642197404463,0.07696453860006211,0.0009091288697035545
2_1,XY,1018,299.76351582695196,3.078171239563514,0.0739332431337622,0.00086008373854766
2_1,XY,1039,298.4455546591753,2.764799467117339,0.07876241145509287,0.0008427759932073029
2_1,XY,1060,299.7787223836385,2.645541687628911,0.06883561552734119,0.0006928895807767799
2_1,XY,1081,300.0733885027004,2.7368489195723926,0.07627518174411235,0.0007974534814936676
2_1,XY,1102,298.7000476145846,2.9433313383274053,0.06745527639809763,0.0007568047319098948
2_1,XY,1123,298.5714680391198,2.6010040099130336,0.07444544192013823,0.0007494102970419196
2_1,XY,1144,297.9219812185417,3.096415997400422,0.06921283344966887,0.0008276502214385131
2_1,XY,1165,300.24613611682224,2.64442494320796,0.07862462641118396,0.0007970244874518861
2_1,XY,1197,298.1073790266262,2.785606306202907,0.07310462809589408,0.0007791184009499852
2_1,XY,1218,301.03028315266874,2.502567166243309,0.07825633659633721,0.0007604795818154328
2_1,XY,1239,304.6122119442095,2.5640482181167594,0.06728017666009374,0.0006511340181947193
2_1,XY,1260,301.9855004754191,2.574623873963032,0.07747506298206219,0.0007661263994601738
2_1,XY,1281,300.3294526746583,2.539071576171385,0.07015197679784631,0.0006955105544506726
2_1,XY,1302,298.5617020135479,2.8095398092663775,0.07860203677390408,0.0008538189442212732
2_1,XY,1323,297.4109173850414,3.16975621853932,0.06510442623951186,0.0008081886994226318
2_1,XY,1344,301.3112602605204,2.7347286177382313,0.0745124000530413,0.000766010670804755
2_1,XY,1376,302.5108968870391,2.8611465232655053,0.06958941671190143,0.0007530857866971079
2_1,XY,1397,298.15474025517983,2.975411628044356,0.07813835291418668,0.0008924626942353478
2_1,XY,1418,299.53809864956094,3.259038816061821,0.0722663274322431,0.000897407907338217
2_1,XY,1439,301.57154932671233,2.33716918232273,0.07517623199202524,0.0006662969110757051
2_1,XY,1460,302.3337347193744,3.481695065026177,0.06847986937973194,0.0008794862543653694
2_1,XY,1481,300.76728377498944,2.6997465882213287,0.07573824969361465,0.0007883276605681212
2_1,XY,1502,296.8758565862933,3.1694998390397693,0.06923460407440396,0.0008509881518801572
2_1,XY,1523,301.3264908948653,2.6515014179292806,0.0716989013198266,0.000729521988146405
2_1,XY,1555,302.6231006601506,2.7281019944951086,0.0709212600036818,0.0007083610713489282
2_1,XY,1576,305.4781526129942,2.8640152998875132,0.06802345171345434,0.0007362724549483464
2_1,XY,1597,302.7072233946342,3.0214286790450973,0.0692304937003664,0.0007833204695440932
2_1,XY,1618,300.6509838317465,2.6412492937898953,0.07453352223711715,0.0007509446081113255
2_1,XY,1639,302.0002740221384,2.370784969135793,0.07699247736683792,0.0006950978756404238
2_1,XY,1660,301.8462370736743,2.604793754832544,0.08082268717235427,0.0008191273061803042
2_1,XY,1681,300.44260162978117,2.8647370221229207,0.07417153136774761,0.0007990235119553959
2_1,XY,1702,298.1759975834156,2.5763159260571045,0.08115205163119826,0.0008109980814659374
2_1,XY,1734,299.78747837038514,2.9854801122705865,0.07243728117233203,0.0008205925203386826
2_1,XY,1755,303.3910119664751,2.6106953169684837,0.07151760914992233,0.0007122245813796322
2_1,XY,1776,301.7002401445644,2.7278823414318363,0.07129801624040834,0.0007527152355273282
2_1,XY,1797,297.846465083266,2.7762629081050028,0.08014022295974552,0.0008506822694869765
2_1,XY,1818,299.62658732025864,2.6406719518583923,0.07484829506282376,0.000753742605229461
2_1,XY,1839,303.8128812354012,2.5431317509332065,0.06407316958748768,0.0006191540095887375
2_1,XY,1860,296.41527651328914,2.866328477465143,0.07721835806083759,0.0008580297598098395
2_1,XY,1881,300.648780274902,2.4635565576260503,0.0796743676168788,0.0007405172042839958
2_1,XY,1916,298.08492275377154,3.0329189294804513,0.07415681434440655,0.000860134234408432
2_1,XY,1937,300.64577143390056,2.919468473255472,0.07213089783223067,0.0008092823348565225
2_1,XY,1958,300.13028310905315,2.8739196447722226,0.07074678602529276,0.000779048043649952
2_1,XY,1979,299.10092279523315,3.0307857898760946,0.07703443761705403,0.0008965214788784908
2_1,XY,2000,299.5834501741338,2.8056081695123174,0.07394219078288379,0.000799370424593232
2_1,XY,2021,297.8561807301474,2.617214131078222,0.07993151853998083,0.000809760692791479
2_1,XY,2042,298.16387494256213,2.907247535419609,0.07541632257963403,0.0008417815382406924
2_1,XY,2063,295.3170937297171,2.896386767062718,0.08018301152453632,0.0008980314301963519
2_1,XY,2095,300.74462554701745,2.8359830699756867,0.0720869654035509,0.0007886536142867812
2_1,XY,2116,302.91983760113277,2.8208225555134967,0.0748935140389458,0.0007909663130402512
2_1,XY,2137,296.11940563485314,2.7632228895107587,0.07242988764404223,0.0007679183674972761
2_1,XY,2158,298.8590248953147,2.7656760959394866,0.07882538024545381,0.0008170569686381363
2_1,XY,2179,298.1207133579828,2.9871561014298686,0.0751599494435748,0.0008561544378815285
2_1,XY,2200,299.6291300232324,2.517634805822818,0.0795435090253814,0.0007791505299873762
2_1,XY,2221,303.3241196118593,2.8056652112801275,0.07396737017819947,0.0007963436830275147
2_1,XY,2242,299.2690604713662,3.0506956962592993,0.07951806863837442,0.0009240501219108555
2_1,XY,2274,299.68503125342806,2.709030604896513,0.07515943276249579,0.0007848835025963018
2_1,XY,2295,298.0441054550901,3.3019445761239843,0.08040904020469923,0.00100903093955203
2_1,XY,2316,301.2236999773612,2.83224780828243,0.07308454887407695,0.0007901103615354618
2_1,XY,2337,299.85085986542975,2.6449736995641304,0.07609158941730441,0.0007809787608623315
2_1,XY,2358,304.8410294822189,2.588040715316715,0.07202486708977199,0.0007084653261745161
2_1,XY,2379,298.7810497273832,2.7987051409984423,0.07900064358846363,0.0008482586024437179
2_1,XY,2400,299.27514332317963,3.212193961492214,0.07100280163361053,0.00087335790430721
2_1,XY,2421,296.53335580578096,2.826634279528087,0.07865542256204158,0.0008663113011255396
2_1,XY,2453,298.12261893696996,2.894917179817869,0.07716604954157555,0.0008748021462685544
2_1,XY,2474,298.93800697963496,2.848017175379838,0.08075018574790041,0.0008928762109032927
2_1,XY,2495,299.6669802053199,2.7959602826336365,0.07356680438173958,0.0007895604767186105
2_1,XY,2516,300.04790961569086,2.8114592259072473,0.07835722420215589,0.0008538994599101073
2_1,XY,2537,299.652349465123,3.021828791370481,0.07542792963399995,0.0008702782400914018
2_1,XY,2558,299.09493916213677,2.695080012563668,0.0820279677545348,0.0008518598028540725
2_1,XY,2579,300.0419351698867,2.7822419222991726,0.07645622979520782,0.0008128584853313021
2_1,XY,2600,298.4046748920279,2.6600224322762904,0.08090390796831785,0.000833469225363481
2_1,XY,2632,299.82936892701855,2.768607479875027,0.07480372579006345,0.0007888080480617538
2_1,XY,2653,302.8925631686228,2.6982947169640785,0.07634505306541331,0.0007878552507266383
2_1,XY,2674,300.17840441891076,3.146806301521547,0.07028589066368511,0.0008405267486760446
2_1,XY,2695,301.5960861115804,2.698842310635575,0.08103644427661008,0.0008455712240586957
2_1,XY,2716,299.494685559549,2.8319339895467324,0.068572878556085,0.0007303838463786224
2_1,XY,2737,296.44205869596345,2.8140383031039597,0.07988711961783436,0.0008754313782143681
2_1,XY,2758,297.99480168536684,3.136010004906648,0.07351566683473977,0.0008919892034120959
2_1,XY,2779,301.4229786879777,2.7182510906624144,0.07624415889481012,0.0007858466034731533
2_1,XY,2818,299.00736147472696,2.958338852886946,0.07661378547621978,0.0008716431656620577
2_1,XY,2839,299.2747081669209,2.4390381399899455,0.07989120696842515,0.0007483195766489701
2_1,XY,2860,299.60385518770755,2.5634290559167914,0.07474581213736749,0.0007345482510040316
2_1,XY,2881,297.4289607477632,2.6425327418556157,0.08122815027334583,0.0008277930370599431
2_1,XY,2902,297.1147114818685,2.68413900855792,0.07676776452427007,0.0007890744969528996
2_1,XY,2923,299.4604523911051,2.6640640985705724,0.07968800777944865,0.0008244865164625649
2_1,XY,2944,301.03589562466215,2.86527940280548,0.07119835181317184,0.0007726673761445149
2_1,XY,2965,298.1670354310066,2.783414057479594,0.07758714961356318,0.000810553758634793
2_1,XY,2997,302.20739100312704,2.962646921396973,0.07288468213141265,0.000821405606677957
2_1,XY,3018,296.5077880073848,2.6710330965810805,0.07780241854075443,0.0008124932990780975
2_1,XY,3039,302.631267886553,2.8064310341784795,0.06949841400936954,0.000733508422988004
2_1,XY,3060,297.8771166830258,2.7215830535294536,0.07599949148247453,0.0008023241592185901
2_1,XY,3081,297.8064434746047,3.261275458551668,0.0730437726512477,0.0009126331654008622
2_1,XY,3102,300.4617491375887,2.799091061840202,0.0783183189995937,0.0008249658195103362
2_1,XY,3123,295.45615691179063,2.8103365766997137,0.076984310773308,0.000824847766665085
2_1,XY,3144,300.5465815826415,2.903387758000188,0.08068756237822233,0.000898341915951221
