XscanNumber_YscanNumber,Type,BCID,xsec,xsecErr,SBIL,SBILErr
1_2,XY,103,3288.9110181144856,16.064228509404355,0.065010798738144,0.0003625402577976748
1_2,XY,124,3252.0100117965094,19.274648070973406,0.0811925151328627,0.00055144881881041
1_2,XY,145,3264.0861046938385,22.49283285678734,0.0653775628564084,0.0005192869459418722
1_2,XY,166,3300.838372511109,19.88829659843272,0.07388164965765893,0.0005115227162634323
1_2,XY,187,3273.9663106480575,19.397032445347786,0.06539063602653043,0.0004452714491779563
1_2,XY,208,3300.65881077749,18.85869328114279,0.06842929330910308,0.0004473589662285728
1_2,XY,229,3265.400599648178,21.511503942729853,0.06987259412082926,0.0005300043196973497
1_2,XY,250,3257.8406419283624,19.139418839592828,0.07748835168082888,0.000515438882074021
1_2,XY,282,3277.667197354909,14.344060890378069,0.07616732193941776,0.00038429256553107
1_2,XY,303,3272.25955865307,17.543420838001875,0.07946425860533833,0.0004915079349595198
1_2,XY,324,3280.8888005648914,19.408029759509294,0.07086416087897159,0.0004797027702595789
1_2,XY,345,3288.672662220707,19.08681155456253,0.07963295726728892,0.0005374215560988179
1_2,XY,366,3296.452693828326,20.239596384428467,0.0727203561440407,0.0005127749438344372
1_2,XY,387,3282.2977877666117,17.108751156761173,0.07961737842399572,0.00047741539221765123
1_2,XY,408,3278.357592227578,19.84836693944087,0.0685801314059552,0.0004736471732494842
1_2,XY,429,3281.938924081202,19.17441268525441,0.07684113837804193,0.0005073963640827356
1_2,XY,464,3291.10266137596,21.30474470582891,0.07453210037052997,0.0005476986404887411
1_2,XY,485,3295.937356320326,29.154316231005957,0.07771077200667093,0.000758777059291469
1_2,XY,506,3286.602159709812,17.510657634897996,0.06714479421885902,0.00041912256405073794
1_2,XY,527,3248.560506324012,16.24455150277385,0.07496761585007847,0.00042930797342958577
1_2,XY,548,3281.4271785855367,17.36842712917718,0.07302229960872599,0.0004515636187771957
1_2,XY,569,3289.9869722085627,16.862732483650074,0.08104198958056516,0.00046535210818444663
1_2,XY,590,3275.139421666398,17.886587638455698,0.07077192134810108,0.00044918575484116316
1_2,XY,611,3279.531494697716,17.306808483593773,0.07862196987762404,0.00048263141749388855
1_2,XY,643,3291.645197539605,20.471632669871532,0.06978608218743554,0.0004970587444539542
1_2,XY,664,3300.1052664940976,16.253403485970697,0.07756957239504557,0.00044709405371602727
1_2,XY,685,3280.8913336446353,18.67516809118879,0.06737675488124345,0.0004450628575566979
1_2,XY,706,3296.2665664289448,15.878556806257942,0.071195757078471,0.0003877102373022426
1_2,XY,727,3297.488416171383,17.302585846195875,0.06956578460587412,0.0004287590125304407
1_2,XY,748,3291.4365298039747,15.856862658203166,0.0791843617481249,0.0004473121465990096
1_2,XY,769,3286.990921203633,20.643281064532577,0.06437888221112223,0.0004655254284769612
1_2,XY,790,3264.053053651041,14.77675760763087,0.07320242564991544,0.00037889469815367816
1_2,XY,822,3323.6831790808237,15.688913831023653,0.06685768568630589,0.00035872948615084415
1_2,XY,843,3301.220888168186,17.08880461441327,0.07772596110917185,0.0004569813875966323
1_2,XY,864,3287.6806359624015,20.037947824709608,0.0710329658194466,0.0004978577413507606
1_2,XY,885,3253.8760390972157,18.717694113996735,0.08171484352596714,0.0005412404436866647
1_2,XY,906,3287.2230779263027,18.354368692492894,0.06904576845486553,0.0004488065640976807
1_2,XY,927,3289.190191583531,17.08576031231869,0.07822648539699673,0.0004676486571366027
1_2,XY,948,3295.026398908696,18.213206899243573,0.06938873485284329,0.00044696583749517137
1_2,XY,969,3279.882280996052,17.59912102055031,0.07681047497368419,0.00047167212851542825
1_2,XY,1018,3275.6226613740537,15.864846255978089,0.07508737637702786,0.00042112060020626607
1_2,XY,1039,3274.0510519200798,16.569479625066336,0.07897557820256586,0.0004630208631458787
1_2,XY,1060,3272.9217470296626,19.864351242834598,0.07063160549863733,0.0004937586703788973
1_2,XY,1081,3295.2919501362353,18.369041944855166,0.07830648413981892,0.0004956603272515182
1_2,XY,1102,3270.5085528868813,19.142080848824914,0.06900853013011404,0.00046688594767375213
1_2,XY,1123,3280.4896312372653,16.74962330017861,0.07527320274325021,0.00044256196892477956
1_2,XY,1144,3276.60706115838,21.337772788617116,0.0702545403303371,0.0005256462002267433
1_2,XY,1165,3272.612140755112,14.053525042440363,0.08111157093964003,0.00040096943547884823
1_2,XY,1197,3266.6809189988194,20.78210851748108,0.07332936845577896,0.0005457716462853446
1_2,XY,1218,3284.550317404294,12.646517973837968,0.07857444624868212,0.0003466577787556251
1_2,XY,1239,3280.230036217186,19.061718532681606,0.06975257306852503,0.0004696244144772117
1_2,XY,1260,3290.714507000328,16.530255414949973,0.07832526095102756,0.00045537360706918015
1_2,XY,1281,3279.984578524641,20.587664318727956,0.07132704227972268,0.0005135941821444933
1_2,XY,1302,3272.0762284617376,14.926346424738613,0.07948906271786856,0.00041473731294151307
1_2,XY,1323,3290.643902538895,20.733681145098426,0.06522984835486051,0.00047575869616642394
1_2,XY,1344,3276.101049679781,15.399226604641964,0.07731548926438908,0.00041651405329513175
1_2,XY,1376,3260.1107484439144,22.095342866166668,0.07371729231281003,0.0005727441502126661
1_2,XY,1397,3285.4241234585256,17.831320481680702,0.06950484647333623,0.000427929962384814
1_2,XY,1418,3282.5059075051663,18.444481525453345,0.07392766514358987,0.00047839493830279407
1_2,XY,1439,3304.2558356629747,13.174005526195764,0.06664808946474253,0.00030125905536420395
1_2,XY,1460,3300.9708279849287,17.566721542666684,0.07015531455331452,0.0004280583190025134
1_2,XY,1481,3288.843701810429,17.549751740816095,0.0776112034599689,0.00046647633740324674
1_2,XY,1502,3291.2002071350616,19.662829751191783,0.06967335771216551,0.0004776558928479883
1_2,XY,1523,3314.4600912121136,14.612796381791968,0.0628910378327942,0.0003159132303329494
1_2,XY,1555,3302.6866545008797,20.019111046662836,0.06552329897615133,0.0004578597037552192
1_2,XY,1576,3297.1958130391795,18.809674924251308,0.06849491023388977,0.000451025344609894
1_2,XY,1597,3309.313117082685,14.004971588287024,0.061012541668156096,0.0002901035391202682
1_2,XY,1618,3332.2959956775035,18.047650055229575,0.06647884526707487,0.00041571958761351286
1_2,XY,1639,3286.9783383858644,17.084956498355073,0.07908787413688427,0.0004763060555313275
1_2,XY,1660,3289.0424954756786,17.505414475421095,0.07599697257474122,0.00047340405937784354
1_2,XY,1681,3294.610546983196,19.468099604759143,0.07631358506604957,0.0005173439592080726
1_2,XY,1702,3266.014659323454,16.4793158762589,0.08230251217318878,0.0004798984825125159
1_2,XY,1734,3300.4457052933203,13.135443698960225,0.07394651625013077,0.00034387434349900667
1_2,XY,1755,3321.5017495265174,18.752622097146286,0.061263568028932146,0.00039795486287395345
1_2,XY,1776,3269.4672467231203,18.57608944513144,0.07511628411384964,0.0004913502185748877
1_2,XY,1797,3283.063302778806,18.89920687689858,0.0810292484786923,0.0005437549263740772
1_2,XY,1818,3314.0847443904,13.36149189998423,0.06804676241652033,0.00031794213314138245
1_2,XY,1839,3344.6257608373485,14.905561292443931,0.06199275567602506,0.00031385270119008266
1_2,XY,1860,3282.217252574577,19.646533902459954,0.07356207140411837,0.0005054435349700678
1_2,XY,1881,3278.383556257651,16.93054969695357,0.0750566951659793,0.0004437236725649216
1_2,XY,1916,3304.616775589954,14.288462559859083,0.06866971602775633,0.00034452474847144376
1_2,XY,1937,3303.8759584020877,19.738512312634114,0.06252845348307205,0.00042502529708511437
1_2,XY,1958,3294.898536532922,17.818080220514876,0.07302920351705185,0.00045519461743397495
1_2,XY,1979,3258.6403193918195,12.94298208621601,0.07539266103842761,0.000342229321856852
1_2,XY,2000,3291.985877461085,13.552513356731708,0.07736763756818776,0.000369557737256116
1_2,XY,2021,3274.3317149864256,11.471602753325167,0.08116947666024994,0.00032076198717220095
1_2,XY,2042,3298.099176101701,13.426815422158976,0.07157749361677085,0.00033218874563091066
1_2,XY,2063,3260.8095529927477,17.989149711253173,0.08081321551832574,0.0005152644214134387
1_2,XY,2095,3280.689585200594,16.286902464867232,0.0753689155277328,0.0004343996283706737
1_2,XY,2116,3286.8530567066914,20.610435092083055,0.07677861578794874,0.0005404916535960422
1_2,XY,2137,3270.2139027431667,18.447963348540906,0.0748171138522824,0.00048806731276479536
1_2,XY,2158,3278.4864492137835,13.96367999377191,0.07831614175134996,0.0003837215729844403
1_2,XY,2179,3281.9853865887817,97.91695365214919,0.07691091588839412,0.002307911322626184
1_2,XY,2200,3276.236169051369,12.87447812074893,0.07924793282463873,0.00035004119907817906
1_2,XY,2221,3276.9312669195333,18.17896322609835,0.0774764966739712,0.000489154643730933
1_2,XY,2242,3276.4429028262193,14.30614772262438,0.08080105491375567,0.00040226826174808545
1_2,XY,2274,3289.098116148747,12.407244811954625,0.07734173109736946,0.0003317892200731927
1_2,XY,2295,3298.1833365845746,13.849359874463058,0.0719271393395008,0.0003498331853091262
1_2,XY,2316,3295.0298788867235,16.20644021738069,0.07558424036400858,0.0004221729415454726
1_2,XY,2337,3326.934320665863,15.232110326586954,0.06796291644593795,0.00035271052039477486
1_2,XY,2358,3322.459752635969,13.290572057442066,0.06443944607002498,0.0002929144930992091
1_2,XY,2379,3300.960625541644,16.20881181931188,0.0710925096287646,0.0004063112473016118
1_2,XY,2400,3286.517784375627,17.49955853502527,0.0731132497467034,0.0004508973041773545
1_2,XY,2421,3266.2412840685997,17.230596726372756,0.07889308762454492,0.00047876066287577803
1_2,XY,2453,3282.1873579485255,19.775255937205028,0.07244296751217376,0.0004971282503689165
1_2,XY,2474,3270.138519498362,14.288646938000463,0.08158753926288506,0.0004024724648846783
1_2,XY,2495,3293.9827465941353,18.616919048725038,0.07077974941503845,0.0004643169063846261
1_2,XY,2516,3275.469405102863,12.935747715344434,0.07728434253221605,0.0003494144087661451
1_2,XY,2537,3279.596897188954,20.613484020490862,0.07761458349299731,0.0005614992647473041
1_2,XY,2558,3285.624062004914,17.180635632025353,0.08332025788943753,0.0005058708503294272
1_2,XY,2579,3282.911875242366,17.711694688989695,0.07985925422641597,0.0005006428990017639
1_2,XY,2600,3274.4760890373796,16.324728673094842,0.0824885049495495,0.00047106084889219756
1_2,XY,2632,3315.197441583102,14.445414962255894,0.06952400615704374,0.00034958207207758845
1_2,XY,2653,3284.550787100955,14.777207570157126,0.07567635584728825,0.00039343765156990573
1_2,XY,2674,3296.7350102078544,18.652281610967094,0.06959828279956494,0.00045368498764294165
1_2,XY,2695,3306.3106559745524,12.096425155625598,0.08167868949157692,0.0003436435135621646
1_2,XY,2716,3303.710967296171,17.757495701257774,0.06846914892216734,0.00042844053396689477
1_2,XY,2737,3266.4843184325987,17.143853142724797,0.0794879307323141,0.00047721082340826637
1_2,XY,2758,3294.508445767552,13.266980814501302,0.07436668325205364,0.0003414176062205194
1_2,XY,2779,3288.4635547335592,15.534525846071768,0.07878591367370205,0.0004330482394568852
1_2,XY,2818,3267.5125490778373,20.68734763736967,0.07835692315188024,0.0005669857249817173
1_2,XY,2839,3280.7383599258837,17.9971056131786,0.08151378950862627,0.000516207992005126
1_2,XY,2860,3294.299832037313,16.950535270968587,0.07667659462708504,0.00045298017166255534
1_2,XY,2881,3280.274426102243,17.63426221950965,0.08119883744085475,0.000508983770267806
1_2,XY,2902,3264.2414959138227,19.644070546126077,0.07748696726656325,0.0005367385640656837
1_2,XY,2923,3272.1123443586353,15.91541916866853,0.08054007179318597,0.0004515756558006827
1_2,XY,2944,3277.676562035893,14.650386409607545,0.0746323524761236,0.00038998603392348185
1_2,XY,2965,3279.822405090232,42.944427821089725,0.07353250096538534,0.0009901984133495712
1_2,XY,2997,3293.0712213713787,18.055341975367277,0.07566090430220267,0.00047758911542966826
1_2,XY,3018,3300.004789867796,16.754053138014594,0.0795813996070765,0.00045915163392664163
1_2,XY,3039,3306.481962257059,17.66964678296857,0.07117931183256317,0.0004429682069550874
1_2,XY,3060,3282.7687892677063,18.972538253125684,0.07614264336437788,0.000509051652480161
1_2,XY,3081,3285.515284983332,17.916921936569445,0.0741669309179793,0.00046743417330441425
1_2,XY,3102,3278.555992274167,19.316881033672864,0.07974642350968825,0.0005410348512765038
1_2,XY,3123,3285.261110895851,16.861168224797776,0.07790831896896663,0.0004674169266301422
1_2,XY,3144,3280.118408252383,15.703013725871967,0.08188001546938048,0.00044979359425140035
