XscanNumber_YscanNumber,Type,BCID,xsec,xsecErr,SBIL,SBILErr
1_2,XY,103,303.0598311695659,2.7115017672682966,0.06498818897363229,0.000671912875082159
1_2,XY,124,298.87240906563204,2.4201283164981637,0.08105557225344805,0.0007568146147593878
1_2,XY,145,300.8442428306635,2.7753585384743658,0.06544536528717608,0.0006996630565089077
1_2,XY,166,299.46550252150865,2.639166445831829,0.0752653922146443,0.0007777336842854708
1_2,XY,187,300.90632845737554,2.869493489746813,0.06538764212223908,0.0007183737630710641
1_2,XY,208,301.15296229058987,2.801888029200252,0.06858278111997715,0.0007373364072114343
1_2,XY,229,302.14362465846983,2.846951996404084,0.0698091673626447,0.0007604034249603151
1_2,XY,250,300.33634499888126,2.6119763272135135,0.0773946629160527,0.0007777102610762536
1_2,XY,282,302.6626189399279,2.494771574729757,0.0755173977722207,0.000723837452771297
1_2,XY,303,299.116079078211,2.8319469041914496,0.07901776054285432,0.0008529161158488882
1_2,XY,324,301.3390207568882,2.396184127588999,0.0709539346282775,0.0006548023386306147
1_2,XY,345,295.84635177432483,2.8375078148315387,0.0815290039125271,0.000897777937544845
1_2,XY,366,299.9248277496559,2.69266187300841,0.07389830128725582,0.0007613147258401266
1_2,XY,387,300.0733114425092,2.3739704189570046,0.08003045964488328,0.0007250224044518163
1_2,XY,408,299.40844217386024,2.621334453010183,0.06903731598138484,0.0007008669421191372
1_2,XY,429,301.5782044082562,2.583142648224812,0.07665603493835046,0.0007735091368716833
1_2,XY,464,300.2091241984318,2.4130610831850565,0.07531564466943934,0.0007163988104286117
1_2,XY,485,299.8127940072371,2.362628657494821,0.07832288719484357,0.0007202628631952574
1_2,XY,506,300.5585778826985,2.849076358313911,0.0683522125027234,0.0007309361036035877
1_2,XY,527,301.07751126548675,2.3148166616225883,0.07400183747474447,0.0006617567522340468
1_2,XY,548,302.0335650643467,2.4823105410996247,0.07222258147809789,0.0006929355819182901
1_2,XY,569,297.92945250203974,2.462714321292161,0.08287451629151071,0.0007949221434347773
1_2,XY,590,303.4555371740247,2.5686086563469095,0.06952855232299537,0.0006797697467853176
1_2,XY,611,299.18791175234026,2.3092488557885,0.07889866308480901,0.0007081381360801115
1_2,XY,643,301.3877884899783,2.4250653116812715,0.07354783118392771,0.0006824685124476877
1_2,XY,664,299.650738765293,2.3455320960011115,0.07842534759423708,0.0007022095319904134
1_2,XY,685,302.13618143665826,2.4762254799288987,0.06697016190313161,0.000638865047389815
1_2,XY,706,303.4924340236328,2.496328481319027,0.07025611930653865,0.0006756775423924684
1_2,XY,727,300.42207520701817,2.452373555134099,0.07137923056714174,0.0006738777944779029
1_2,XY,748,298.84389619853977,2.259683642115698,0.08039336134310766,0.0007070654332577417
1_2,XY,769,300.1752371902765,2.488014302832458,0.06394137337426573,0.000618433751359569
1_2,XY,790,297.73305819029895,2.489957657743364,0.07328496638069984,0.0007078543978296253
1_2,XY,822,303.7571619307652,2.6628486437716163,0.06739171424394659,0.000683435533767152
1_2,XY,843,303.06099979734125,2.3814932720973294,0.07792121118118094,0.0007089364974087551
1_2,XY,864,300.6699767194741,2.5259379932477315,0.07079974382627151,0.0006980112536723458
1_2,XY,885,302.0887690931864,2.377196169088976,0.08047886178589861,0.0007387364105367227
1_2,XY,906,301.39165175687543,2.6338959651888323,0.06881377489541111,0.0006783942271853976
1_2,XY,927,300.61800864260823,2.170838763853205,0.07883330977707073,0.000658304061873645
1_2,XY,948,297.15322092118555,2.6537248954126857,0.07031023175380982,0.0007183498566385445
1_2,XY,969,300.3705503184407,4.638309690254923,0.07651921182408902,0.00125446862677418
1_2,XY,1018,303.8364354002915,2.3662390426185693,0.0746835693744676,0.0006788154060727852
1_2,XY,1039,300.0055042315386,2.4413327518589574,0.0792907125429319,0.0007544764059795501
1_2,XY,1060,301.54168776337036,2.935271980514943,0.07011346518110843,0.0007684830834524983
1_2,XY,1081,298.0955684637142,2.33052829801643,0.07886946798577046,0.0007122551984631854
1_2,XY,1102,301.05994820769865,2.6107232791245085,0.06889943807220786,0.0006946073661495344
1_2,XY,1123,300.17880808776306,2.693175077081781,0.07527425207426448,0.0007755440579196314
1_2,XY,1144,300.3219759487661,2.4339674784949024,0.07032635910901613,0.0006644832837291807
1_2,XY,1165,300.1245940011058,2.5697235108718135,0.08177974048959592,0.0008023603830591402
1_2,XY,1197,302.53707509871987,2.470481785324959,0.0725356645240112,0.0006903864764135572
1_2,XY,1218,300.8319992092277,2.8800406029128367,0.07892855327291559,0.0008493496402790047
1_2,XY,1239,301.2931364254115,2.58816922712337,0.06943113682289365,0.0006794427918237387
1_2,XY,1260,297.73783399460376,2.3043969067992975,0.07904948073273017,0.0007261895948712749
1_2,XY,1281,301.70715237336236,2.3933943334118384,0.07097864715463209,0.0006628755667432148
1_2,XY,1302,298.8601023450844,2.513385123972036,0.08039790260137697,0.0007758761480263456
1_2,XY,1323,301.5298400070599,3.171841129001769,0.0647997466080682,0.0007910031297889333
1_2,XY,1344,300.43317868861993,2.521117931799917,0.07627951956478647,0.0007379115232888202
1_2,XY,1376,301.813227435994,2.3488932180202364,0.07185109013743268,0.0006513794865550554
1_2,XY,1397,300.1808882536796,2.6584528493607813,0.07030593071675212,0.0007132454652682488
1_2,XY,1418,299.78348143054933,2.496501057276124,0.07380134681051799,0.0007125577852129531
1_2,XY,1439,303.50540151241427,2.422687200030832,0.06589821324815755,0.0006174595205477373
1_2,XY,1460,301.7536908595565,2.6453072865409,0.07117824871028929,0.0007265996399221357
1_2,XY,1481,301.3049614058603,2.3026642790664194,0.07799413691848979,0.0006895016970915932
1_2,XY,1502,299.0707457990081,2.6801020661307056,0.07070151592045457,0.0007285595643016068
1_2,XY,1523,304.7538193844585,2.67300387834905,0.06302738660337193,0.0006440328868477423
1_2,XY,1555,304.9176094017904,6.971154478235897,0.064974512675807,0.0015149280245912028
1_2,XY,1576,304.6743235450271,2.7674474751243228,0.0687453882609759,0.0007189564841426228
1_2,XY,1597,307.20208163906875,2.342950012120713,0.060670110980549266,0.0005397494986159937
1_2,XY,1618,305.1682920032009,3.5372104426424924,0.0666280625744476,0.0008389761262041289
1_2,XY,1639,299.0049293125714,2.460755320597876,0.08043698713179603,0.0007717942703879827
1_2,XY,1660,301.82806325757537,2.2634083937117127,0.07978913081936562,0.0006984880321783345
1_2,XY,1681,301.9773486179926,2.2461775599258247,0.07597574955561381,0.0006639885215091093
1_2,XY,1702,299.39007005560114,2.307307322080429,0.08247641278332017,0.0007462332182227296
1_2,XY,1734,300.87731891674343,2.436826251079581,0.0749199285306921,0.000711975081824308
1_2,XY,1755,305.6461666291751,2.9524859990408063,0.062054772436421726,0.0006977916665199821
1_2,XY,1776,300.3111087630418,2.5946034899398662,0.07539592654568875,0.0007533255733527741
1_2,XY,1797,301.2947743277578,2.470555730880729,0.08036369220236188,0.0007649012591772982
1_2,XY,1818,301.5205194278258,2.5157968293419435,0.06905852268791436,0.0006797640603651843
1_2,XY,1839,304.9933712170916,2.533156856099039,0.06300564413978955,0.0006121040452398208
1_2,XY,1860,296.63172051249796,2.413142631150169,0.07715177819858572,0.000721429123444469
1_2,XY,1881,302.9311700774342,2.2740492675635475,0.0807192385862681,0.0007155413371498896
1_2,XY,1916,302.6926185199061,2.591593767106013,0.07276053780922752,0.0007108216529744918
1_2,XY,1937,308.17468974732554,2.6622283938973257,0.062304367877964596,0.0006237441298895325
1_2,XY,1958,300.96771572140614,2.5649204458063615,0.07308005315304252,0.0007193325125880856
1_2,XY,1979,301.38638305225936,2.486987604411281,0.07779108451899601,0.0007471041255765608
1_2,XY,2000,303.828916567531,2.2645651238451023,0.07644579761697974,0.0006683370642058461
1_2,XY,2021,300.965915579817,2.2844706584270824,0.08108208207671114,0.0007031967741121329
1_2,XY,2042,301.4790343955966,2.561909289250506,0.0761497900904597,0.0007469269986524922
1_2,XY,2063,300.089388995007,2.2871138632590706,0.0800378922936389,0.0007104547030184016
1_2,XY,2095,299.17595747842006,2.4550580810851215,0.07564271595944955,0.0007231691810664889
1_2,XY,2116,300.6570248087061,2.4152724585491083,0.07791006859956569,0.0007222832821973068
1_2,XY,2137,297.74244625868516,2.4741003481798836,0.07518781693882805,0.0007222980654207299
1_2,XY,2158,298.13144996927764,2.4765979348311506,0.08098976696997494,0.0007774535820490957
1_2,XY,2179,303.34477474532,2.294317617298232,0.07568231887870518,0.0006689702086302499
1_2,XY,2200,300.6923681045249,2.4343902142726885,0.08244096235655879,0.0007755783550618027
1_2,XY,2221,301.13645562188606,2.5200003850030646,0.07730210968044295,0.000771117992416532
1_2,XY,2242,299.10983558437584,2.314255700300321,0.08041955681921907,0.0007294727672330197
1_2,XY,2274,300.0431664062233,2.4171268266014625,0.07700953595173804,0.0007260184572004686
1_2,XY,2295,302.10429516460914,2.2087623121961797,0.07861573304589742,0.0006812608634559057
1_2,XY,2316,300.0914732534308,2.3767543975272547,0.07586029478628889,0.000685064410952169
1_2,XY,2337,300.6243250158646,2.5279948001690253,0.06990544930056335,0.0006788082922534879
1_2,XY,2358,303.99769427590115,2.6087779683908643,0.06439925128962208,0.0006400121812598179
1_2,XY,2379,302.7851030882832,2.515551624240353,0.0779833037323449,0.0007447434216998652
1_2,XY,2400,299.3894085654795,2.5171584546123826,0.07344031543642787,0.0007178625616950999
1_2,XY,2421,301.3050374861466,2.414265911130712,0.07927950669984392,0.000736445645018087
1_2,XY,2453,302.3410206449352,2.2570579606888073,0.0779536208292018,0.0006750708534980366
1_2,XY,2474,299.171705140733,2.3908914240288506,0.08338542187413922,0.0007745929968441794
1_2,XY,2495,301.1826611545359,2.3787010941951987,0.07461980297607358,0.000670357311564294
1_2,XY,2516,300.22046167699045,2.3973781789149418,0.07996976790898461,0.000747087241037906
1_2,XY,2537,301.66393462084375,2.7061517851260457,0.07763215201254788,0.0008078533355967449
1_2,XY,2558,302.0710060861928,2.9669858345721365,0.08308581231587928,0.0008921896364916184
1_2,XY,2579,303.0874901350887,2.171082743281861,0.07897352241980096,0.0006625437748712103
1_2,XY,2600,298.35433725010915,2.270493177816134,0.08282249025551591,0.0007327231845686267
1_2,XY,2632,301.5834024023019,2.349246332258942,0.07383380352651958,0.0006643323094812623
1_2,XY,2653,300.69991547323104,2.220958069728297,0.07804640010579604,0.0006713431404362065
1_2,XY,2674,302.6484192880674,2.373058812772663,0.06907464115712797,0.0006224384752101865
1_2,XY,2695,300.7935049978428,2.509594764337854,0.08309263815559703,0.0008037627290086596
1_2,XY,2716,300.40716187045797,2.407597683271966,0.06886039272100417,0.0006389635718648408
1_2,XY,2737,297.5572654969293,2.412406883559297,0.08004847854860903,0.0007505852710427201
1_2,XY,2758,299.2030846064931,2.513880116447064,0.07459531363948696,0.0007297717292926561
1_2,XY,2779,299.3696355843616,2.503977722551345,0.07878386125840933,0.0007539132456013523
1_2,XY,2818,300.41388130195065,2.2695291373060753,0.07710289826205739,0.0006779569285915955
1_2,XY,2839,298.86914345241286,2.3415619506054073,0.0817503828670682,0.0007477332455591816
1_2,XY,2860,302.2892812072561,2.5912922766828634,0.07591732002445645,0.0007650410331508129
1_2,XY,2881,298.27475776817,2.441222296026164,0.08131606564706771,0.0007772590997301216
1_2,XY,2902,301.32989400519546,2.3749807537906817,0.07675968184262125,0.0006967247034434863
1_2,XY,2923,302.60922419372866,2.634613310989722,0.08020099337434511,0.0007968314400394009
1_2,XY,2944,302.67640888489126,2.9302087718305785,0.07481440528722874,0.000807614137533039
1_2,XY,2965,299.55570713821686,2.4693365630746458,0.07814190686390535,0.0007543247055622668
1_2,XY,2997,298.609797533119,2.4470464185897125,0.07641184851497183,0.0007272277735174678
1_2,XY,3018,298.40233346054623,2.5634235924339923,0.08043825725804059,0.000790134500105179
1_2,XY,3039,300.3805529905905,2.842205509252315,0.07239638678778998,0.0007818331046618489
1_2,XY,3060,298.7760013319891,2.387939703245065,0.07664245807633123,0.0007110816557746023
1_2,XY,3081,301.9200038139273,2.797322275097833,0.07480835007353444,0.0007929594332581827
1_2,XY,3102,300.59327963692726,2.6023478662571655,0.079226007122196,0.0007971960247757509
1_2,XY,3123,299.9429990504154,2.4397760437764453,0.07774942605540942,0.0007435191437988627
1_2,XY,3144,302.0625019025524,2.719172322115379,0.0814389005589934,0.0008390065424748104
