XscanNumber_YscanNumber,Type,BCID,xsec,xsecErr,SBIL,SBILErr
2_1,XY,103,139.75937364970602,0.9358902947964146,0.0625121497301269,0.0004725241020233281
2_1,XY,124,136.91934843558764,1.009809411067142,0.07938218265544089,0.0006695018111850306
2_1,XY,145,137.4070057705083,0.983614080422126,0.06439552771943795,0.0005320494943207549
2_1,XY,166,136.86881146139268,0.8513660446563089,0.07326319313142184,0.0005274732027739582
2_1,XY,187,139.8156850214379,1.0036759285424934,0.06309358575660995,0.000525831456360988
2_1,XY,208,139.32831173143893,0.9364413538734601,0.06639440883175282,0.0005130301696368447
2_1,XY,229,136.7910397352407,0.921669462240636,0.06878198875168669,0.000536312085510632
2_1,XY,250,136.99691750497666,0.8788387450811254,0.07637540813487803,0.0005679912771377949
2_1,XY,282,138.52744816915717,0.908164629989722,0.0742708982277412,0.0005558265687655209
2_1,XY,303,137.2373241916219,0.9510030258993131,0.07839617246144663,0.0006234239746883517
2_1,XY,324,136.85785526815843,0.9188862141096494,0.07004824316536393,0.0005396044200390457
2_1,XY,345,136.55834898415938,0.8733906096729646,0.08031298378817862,0.0005948278860741848
2_1,XY,366,138.1248552010616,0.9463392042722706,0.07174508210800491,0.0005679693784588015
2_1,XY,387,137.53235303229053,0.8625086461687332,0.07897660266760259,0.0005662523816767236
2_1,XY,408,137.1291756735734,1.0386321207432652,0.06780056576014032,0.0005899852330338026
2_1,XY,429,136.89861123098453,0.834620536577892,0.07652275506583676,0.0005437067055154297
2_1,XY,464,138.60285901691503,0.9958518593603539,0.07327129454906346,0.0005953416046075324
2_1,XY,485,137.5288762365331,0.8821083222534336,0.07721131460399774,0.0005608497661256221
2_1,XY,506,139.21086798843461,1.0885747547093942,0.0656739254660174,0.0005734625863708946
2_1,XY,527,137.55289666090266,1.2756397562349402,0.07306601877397936,0.0007573736304745958
2_1,XY,548,136.09496039424556,0.9071827329219866,0.07215216500419244,0.0005578544294139723
2_1,XY,569,138.07310509454763,1.1836630664978038,0.07922938811850458,0.0007428658310704517
2_1,XY,590,137.15735355126188,0.9824909739437349,0.06949250226711165,0.0005726815988508105
2_1,XY,611,137.60251339629275,0.9121905454151893,0.07791737711061543,0.0005900773512193115
2_1,XY,643,137.8907846236689,0.8806306132709437,0.07277236597982847,0.0005315058305647778
2_1,XY,664,137.87948849128227,0.9077417615979889,0.07587916214502523,0.0005836226320947273
2_1,XY,685,137.06759089012604,0.9170207818502089,0.0665188269439029,0.000515241637577967
2_1,XY,706,139.45473979671578,2.5619002528945654,0.06878973070402729,0.0012937638354868384
2_1,XY,727,138.03263554469856,0.9760896708045878,0.06853422115817717,0.000556000744734165
2_1,XY,748,137.13141724550263,0.9011945664805289,0.07829143187412242,0.0005884330916691793
2_1,XY,769,137.45086584524984,1.053319494600558,0.0637668055572315,0.0005630638446067341
2_1,XY,790,136.6302749174834,0.884794535049219,0.07238720935302913,0.0005422743005731713
2_1,XY,822,139.95671918845125,1.429234599689114,0.06484754105834398,0.0007004538089309341
2_1,XY,843,137.3100309729152,0.8884131358104286,0.0766439184348486,0.0005656646916670144
2_1,XY,864,138.15918274486162,1.0222763491702682,0.06900186496329931,0.0005783139428674397
2_1,XY,885,137.99425811829337,0.8301717713551497,0.07961965286510372,0.0005546983249663688
2_1,XY,906,137.99279745334272,0.932859028076093,0.06732669856795065,0.0005293121721103211
2_1,XY,927,135.9232086090753,0.9480161427436157,0.07875994901920955,0.0006309035944953873
2_1,XY,948,138.23080665503852,0.9701643357992786,0.06783440712427562,0.0005520618077014858
2_1,XY,969,137.29914616321693,0.873069591287744,0.07607479770693261,0.000563706526241177
2_1,XY,1018,137.57407750441146,0.8887974444476501,0.0738972772266237,0.0005511550019340139
2_1,XY,1039,137.66699944352882,0.9200257302740446,0.07765568511907107,0.0005983914619492199
2_1,XY,1060,137.49415487535205,0.8886259692437104,0.06984080745758084,0.0005257264759992001
2_1,XY,1081,138.23659889435595,0.9024771033231628,0.07643711245686091,0.000575965661639694
2_1,XY,1102,138.43745440956508,1.2079481045918148,0.06737474654558358,0.0006604648586763008
2_1,XY,1123,138.0856364557379,1.0711567680253262,0.07375694098699662,0.0006450265002964077
2_1,XY,1144,137.37428856414547,0.8983411009981961,0.06896967200986148,0.0005253809658417619
2_1,XY,1165,137.52450878600047,0.8578253996140686,0.07912734977915681,0.0005831697448692544
2_1,XY,1197,137.945025166653,0.9142410056956134,0.07140401464661152,0.0005428064769038239
2_1,XY,1218,137.13513446502756,0.842686407451795,0.07824464576053641,0.0005563169334844774
2_1,XY,1239,138.350066089899,0.9082262703008813,0.06842373496155829,0.0005231220145666383
2_1,XY,1260,138.91207268745492,0.9268487863718436,0.0773211225770971,0.0006051677237622576
2_1,XY,1281,137.45523232290608,0.8639499448167257,0.0702304409328127,0.0005093834997493102
2_1,XY,1302,137.44969009004646,0.8596744514852878,0.07921475132399597,0.0005819191011346102
2_1,XY,1323,139.15522110468754,1.0215391308320314,0.0637233634282859,0.0005466233252185808
2_1,XY,1344,138.74068520244205,1.3578842661437562,0.07493462272687199,0.0007773005879779602
2_1,XY,1376,138.32108849376291,0.9007529689870345,0.07110129563382991,0.0005372156150971303
2_1,XY,1397,138.66931702715064,0.9746171655946781,0.06811680813719176,0.0005524767804762243
2_1,XY,1418,140.02714277045266,1.6710826392932452,0.07080234336960231,0.0008874902668525585
2_1,XY,1439,141.9054110103235,0.8856680436928778,0.06297919592481219,0.0004532854662445223
2_1,XY,1460,137.83112718499692,0.9420228731195059,0.06990131076633833,0.0005547885986785867
2_1,XY,1481,137.26403840177773,0.9721910523901024,0.07691240696113236,0.0006240587186793727
2_1,XY,1502,138.71646976837596,0.9448072379714653,0.0678315883651161,0.0005280436134030732
2_1,XY,1523,141.526487706544,1.1958879340469115,0.06029894975755742,0.0005509840183640143
2_1,XY,1555,140.96550412433928,0.9887692402257541,0.06266471962447681,0.0005113663113645904
2_1,XY,1576,139.4459749513638,0.8883663791426262,0.06676047302878535,0.0004912473456398237
2_1,XY,1597,140.17171391001727,1.7352996536891707,0.05880070995452046,0.0007606326887261037
2_1,XY,1618,139.41197890131207,0.9907217817494423,0.06470739347266527,0.0005357468969966161
2_1,XY,1639,137.76345170643705,0.8874467120635454,0.07861029506845395,0.0005863520907336189
2_1,XY,1660,137.2360922879529,0.831380405376159,0.08057989359138937,0.0005691250672035131
2_1,XY,1681,138.67214616496776,0.94381764752136,0.07414866501977525,0.0005817532467539229
2_1,XY,1702,137.0721093466436,0.9221990376019236,0.08099758806950595,0.0006267751476252365
2_1,XY,1734,138.06941666204204,0.8766429982676888,0.07392759329194168,0.0005324750146779019
2_1,XY,1755,141.0926573770233,1.0038873945494717,0.05977742381299671,0.0004877454817425123
2_1,XY,1776,138.78760652608855,1.0140896561047907,0.07257548761976733,0.000597820137000163
2_1,XY,1797,137.72980751859785,0.8622267720920276,0.07994581414400674,0.0005808875525414962
2_1,XY,1818,139.9634442759706,0.9318997595996787,0.06580538191283021,0.0005064061054070561
2_1,XY,1839,141.7853875977011,2.553494006996658,0.05998522013486877,0.0011080096944511165
2_1,XY,1860,137.44204139657657,0.875042089625969,0.0757305712535965,0.0005539107110409385
2_1,XY,1881,137.31395034721723,0.843242585790283,0.08021857968781253,0.0005795776225864882
2_1,XY,1916,138.90185432171089,0.8843768545226184,0.072550850596773,0.0005262470695058718
2_1,XY,1937,139.33506360284795,1.0024906368673703,0.060808598539099076,0.0005033566329060088
2_1,XY,1958,138.40760335615494,0.9787953857758925,0.07120446866288353,0.0005862099218634276
2_1,XY,1979,136.34963267410018,0.9024897373647458,0.07731714485919296,0.0005865870477534624
2_1,XY,2000,141.89894146131283,0.8770728084423016,0.07415245710525178,0.0005335965431460829
2_1,XY,2021,137.21980214910536,0.9158893923653818,0.07969116946753592,0.0006149126636476078
2_1,XY,2042,136.57819290919215,0.9751307422018389,0.07529982020810679,0.0006224305357117585
2_1,XY,2063,137.19708847118184,1.0694647271522968,0.07862859020307443,0.0006940114022047294
2_1,XY,2095,138.1270852356298,0.9042785412459468,0.07252459502251915,0.0005517238288660098
2_1,XY,2116,137.94214126807861,0.8700668329499783,0.07546797051932687,0.0005438470669054089
2_1,XY,2137,137.33647745539258,0.915183599137039,0.07323038280353336,0.0005708793625220539
2_1,XY,2158,137.61705821780717,0.9340944562495748,0.07819814827481734,0.0006201065732895823
2_1,XY,2179,136.94280979134206,1.04958350852751,0.07501162430396414,0.0006563410593052878
2_1,XY,2200,139.4595141622434,0.9250219595533733,0.07890591209201357,0.0006137969420966451
2_1,XY,2221,140.21662975030992,0.9338431692235657,0.07452249590854836,0.0005633268831351276
2_1,XY,2242,137.03669632209926,0.7990835526037485,0.07889304912766812,0.0005239365060394731
2_1,XY,2274,137.26059211949598,0.9018879458477386,0.07549942711278342,0.0005669189521055145
2_1,XY,2295,138.07789175147002,0.835461274006065,0.07874092540950457,0.0005532303260966384
2_1,XY,2316,137.2634538121442,1.2041746312541957,0.07505275893577364,0.0007379641548469261
2_1,XY,2337,140.31130941201417,0.9831330904996827,0.06729353436017699,0.0005431228208921486
2_1,XY,2358,139.27436219273736,1.0303345742961003,0.062480626966133136,0.0005320749935906965
2_1,XY,2379,138.05374477150986,0.9264518564358096,0.07756122124155014,0.0006054376918730455
2_1,XY,2400,137.678485550464,0.9582720419246963,0.07144069360918145,0.0005630737267705453
2_1,XY,2421,137.03949743225778,0.9119665554046014,0.0773099520603647,0.0005890756051868855
2_1,XY,2453,139.45818231074617,6.246808592424149,0.07560881277700322,0.003400000333066489
2_1,XY,2474,137.84844685326132,0.8614342010778829,0.08102577971057745,0.0005929132717746974
2_1,XY,2495,138.34959161751132,1.0545418617840843,0.0732612025195044,0.0006158555839412664
2_1,XY,2516,138.01649921810053,0.9224348505916701,0.07866857347520459,0.0006007813568232766
2_1,XY,2537,138.4243407606243,0.9168285311384949,0.07467310302609172,0.0005695001902132899
2_1,XY,2558,136.0659385169889,0.915340550347645,0.08286530460018415,0.000640848567104765
2_1,XY,2579,137.38752541094328,0.9141667541518724,0.07803478202799023,0.0005954457905250191
2_1,XY,2600,137.59124381788402,0.9261157564939618,0.0808346852791223,0.0006313330881571442
2_1,XY,2632,137.82476158577768,0.9668501568961261,0.07326409397974078,0.0006008974077484142
2_1,XY,2653,138.55662364894545,0.8539847977191212,0.07640094050133066,0.0005408484529285157
2_1,XY,2674,137.80098101634604,0.8807083389100594,0.0679358009190369,0.0004976548226580581
2_1,XY,2695,137.13398362545848,0.912780151913862,0.08119317430791714,0.0006139848239547439
2_1,XY,2716,139.42331753285268,0.8813859007999951,0.06743330193535806,0.0004885973220724079
2_1,XY,2737,137.50495574470435,0.912770372782007,0.07772746501151068,0.0005893669590672733
2_1,XY,2758,137.30797532760766,0.9103146441586673,0.0727201876636378,0.0005521605152900485
2_1,XY,2779,138.005241194393,0.9834002128032342,0.07745634699024616,0.0006243412966887705
2_1,XY,2818,138.58550958463988,1.0082263755293899,0.07560337390583788,0.0006342334478329313
2_1,XY,2839,136.78387650516746,0.8626265182259987,0.0803328385776326,0.0005840093544940333
2_1,XY,2860,137.80346394251492,1.0307468423900181,0.07482224000518231,0.0006294525952917103
2_1,XY,2881,137.00871408335925,0.9042471854243719,0.08051703003064974,0.0006176277854969654
2_1,XY,2902,137.65231083269202,0.8700971425050561,0.07506212455548564,0.0005501905604034124
2_1,XY,2923,136.52776255449007,0.9087675087099831,0.07987097552466145,0.0006095031066200995
2_1,XY,2944,137.41091319766707,0.9049451906169456,0.07336715267169795,0.0005516185661149297
2_1,XY,2965,138.127180640604,1.378562915457949,0.07659375265807765,0.0008259476807322158
2_1,XY,2997,138.19771801236814,0.9211345039832536,0.0734336434282323,0.0005663050195827957
2_1,XY,3018,137.2646297085072,0.9043380909063344,0.07820943367889512,0.0005918660912745182
2_1,XY,3039,138.57829652515537,0.885775734191383,0.07003212287239886,0.0005294372938435375
2_1,XY,3060,137.3221061294684,0.951118219880103,0.0753612927532883,0.0005965892953513467
2_1,XY,3081,136.94971614429863,0.8297565291327812,0.07440569739461116,0.0005177174748857275
2_1,XY,3102,137.74302224003932,0.8330464416448311,0.07861961616822442,0.000550210769414783
2_1,XY,3123,138.031334197926,0.8593654411187096,0.0764018706838315,0.0005619932172413303
2_1,XY,3144,137.10503855482244,0.7825466027153949,0.08034023053307149,0.0005323471867740069
