XscanNumber_YscanNumber,Type,BCID,xsec,xsecErr,SBIL,SBILErr
1_2,XY,103,3272.2958672173736,22.507854680503232,0.07100872901269333,0.0005567663384928704
1_2,XY,124,3244.7424170589306,19.7012143002793,0.08005361391886447,0.0005512038380832178
1_2,XY,145,3239.599332238754,23.259546043403965,0.06430024597489,0.0005283080755022393
1_2,XY,166,3244.911803298743,22.397034916033675,0.07613078071992004,0.0005989038649054196
1_2,XY,187,3215.606429385588,23.832150822366994,0.06553973066404044,0.0005438532234229387
1_2,XY,208,3227.711227160449,24.483056166903808,0.07479648767993335,0.0006474422699268233
1_2,XY,229,3230.0050882899077,23.465936651040725,0.07091278092575512,0.0005837184502602454
1_2,XY,250,3226.5045453820703,22.14144944602824,0.07903862291739196,0.0006191391998399289
1_2,XY,282,3217.7747721086457,24.60521547212806,0.07395909156839148,0.0006362565313391618
1_2,XY,303,3239.4405106518434,20.344224044525138,0.07947049172281709,0.0005618406941870687
1_2,XY,324,3250.620352243686,20.00747108814678,0.07129871863129784,0.0004918426465272903
1_2,XY,345,3234.2796007052457,21.896861024559794,0.08272682248943138,0.0006312576124370483
1_2,XY,366,3235.6980772377055,21.776453983638106,0.07275933943470721,0.0005605546650668981
1_2,XY,387,3235.5198109001926,19.86829602602529,0.08198798737054172,0.0005722701110989989
1_2,XY,408,3243.8428379165875,24.038016864433843,0.06868014049921455,0.000577518212606072
1_2,XY,429,3265.299555866622,22.207798836553078,0.07803459839813669,0.0006015375405921516
1_2,XY,464,3239.225922595501,22.04275603110194,0.07219267884105447,0.0005530643335799464
1_2,XY,485,3242.2208853591446,20.119335858251958,0.07721180213039504,0.0005402191536505613
1_2,XY,506,3229.986511545804,25.34123982097138,0.06667444286222517,0.0005960745703092575
1_2,XY,527,3215.5010314185092,22.03563785129314,0.0747623235297427,0.0005883647253661596
1_2,XY,548,3213.8738301459844,22.12434246699226,0.07257307948715572,0.0005671290041143221
1_2,XY,569,3250.7709221622868,21.71006224588609,0.08047986395376741,0.0006118182568941385
1_2,XY,590,3242.7156623320993,23.067188246118167,0.06934761474504379,0.0005618751298244037
1_2,XY,611,3236.4853909420885,21.700019760133312,0.07833235191907408,0.0005932051896797985
1_2,XY,643,3232.145212403464,20.930537883012803,0.0730662139409895,0.0005312605729739734
1_2,XY,664,3259.417101337852,22.148647161546734,0.07576409340009033,0.0005839634736638319
1_2,XY,685,3245.3094379959884,21.95957042282811,0.06442254451221158,0.000494244922322429
1_2,XY,706,3263.8574868536393,23.07299205355231,0.07144469253901571,0.0005737031584520761
1_2,XY,727,3205.7433593003675,19.63790819965013,0.07006551655727306,0.00048322360231080417
1_2,XY,748,3232.728835563051,20.511832983832708,0.07937731635089086,0.0005706980033287846
1_2,XY,769,3224.1292366882203,25.856055379160573,0.0635265000524135,0.0005786615009001409
1_2,XY,790,3206.856176653305,22.792482650290175,0.072583420175338,0.0005869334255534804
1_2,XY,822,3230.754296055276,20.50500537613644,0.07338276780998622,0.0005264774279210011
1_2,XY,843,3249.967570893469,21.686154393108083,0.07423526108345978,0.0005568538980224279
1_2,XY,864,3227.993258165986,23.74657022114382,0.07001942756557665,0.000583613085740579
1_2,XY,885,3229.3891214676473,20.795301831351054,0.08145288130221039,0.0005923352157160786
1_2,XY,906,3217.420788235732,22.497132884643765,0.0684264190482818,0.0005422036712245723
1_2,XY,927,3245.8151058297267,21.054523642631136,0.07833919267717603,0.0005809611734913461
1_2,XY,948,3222.3524387196244,24.24939615629878,0.06882583985198548,0.0005862459846982108
1_2,XY,969,3241.2011540222106,20.667908278842617,0.07727092816591517,0.0005639473966490417
1_2,XY,1018,3232.0386757549772,19.517030068256773,0.07545019364836822,0.0005131607926010911
1_2,XY,1039,3249.869918620357,20.57704862907482,0.07959088493285804,0.0005741354373681416
1_2,XY,1060,3235.744627846214,21.72963648480809,0.07093263792543157,0.000536823539076894
1_2,XY,1081,3244.970070032311,19.63993951673947,0.077300673398155,0.0005344797176844123
1_2,XY,1102,3213.4299634241706,21.604454963786505,0.06985989347578972,0.0005305384901785851
1_2,XY,1123,3227.1966403201163,22.14100602706715,0.07661396906320628,0.0006006082748080127
1_2,XY,1144,3211.5184664015387,24.807103340201145,0.0710056149686654,0.0006190897348809965
1_2,XY,1165,3244.1920918634546,20.525346000147252,0.07980873950106424,0.0005690792749335325
1_2,XY,1197,3244.7865862614312,19.44504872250417,0.07290670529892812,0.0004966559167292103
1_2,XY,1218,3264.1770470272368,19.13705541325648,0.08010326326936527,0.000529513550325934
1_2,XY,1239,3229.0477193905363,22.472459301977853,0.07075721278510196,0.0005560386315071707
1_2,XY,1260,3241.329699799272,21.920700145302288,0.07958396054304455,0.000609853966620934
1_2,XY,1281,3219.1894623448115,21.87637418236146,0.07280867160642417,0.0005619264235890629
1_2,XY,1302,3242.4789865791804,24.42720706725548,0.08107050622041674,0.0006939418571777412
1_2,XY,1323,3221.3197757191406,24.017889511954603,0.06598078213406437,0.0005541960747772494
1_2,XY,1344,3231.6038468794536,20.41912480279077,0.0759561613918171,0.0005428058824764682
1_2,XY,1376,3238.1158093407194,24.14701219231174,0.07130036687824182,0.0006079748204525259
1_2,XY,1397,3242.776122909311,20.572487266524924,0.07862786815244584,0.0005704300709646968
1_2,XY,1418,3253.420294244271,21.28268973181551,0.07211590967600226,0.0005333694810074447
1_2,XY,1439,3256.64235731232,20.997904322667697,0.07527057898783719,0.0005427467951370719
1_2,XY,1460,3217.263224442659,19.980519223552577,0.07003431430949385,0.00048747586140391274
1_2,XY,1481,3248.568464678645,20.562081174702723,0.07648230881473075,0.0005532784539785648
1_2,XY,1502,3222.8365736651413,22.896989043654237,0.06915372857156889,0.0005517969002583223
1_2,XY,1523,3224.6695657922596,19.72075427812072,0.07250780007426781,0.0004933424987522484
1_2,XY,1555,3252.6484317689433,21.68230018084014,0.07157495564484395,0.0005360021913200707
1_2,XY,1576,3252.159621580435,21.87062629230251,0.06829417902987678,0.0005159474978012265
1_2,XY,1597,3269.3445183298886,22.56110648025263,0.06958372869828709,0.0005414682592350602
1_2,XY,1618,3254.263078995925,21.37681554537865,0.07460137522292547,0.0005587721096984239
1_2,XY,1639,3231.5592286346814,21.894112367076556,0.0789525645206662,0.0006036935749543999
1_2,XY,1660,3244.055012456933,22.091532550113005,0.08279948822474709,0.0006349126647995393
1_2,XY,1681,3234.3205059762017,22.430654538832226,0.07484862983701479,0.0005849366894410281
1_2,XY,1702,3232.7149542842567,19.62207302742771,0.08121561850893783,0.0005535991244950862
1_2,XY,1734,3228.976351829205,22.36954489326551,0.07310451324167379,0.000573213719664822
1_2,XY,1755,3225.120320947147,21.48771451320073,0.0743851050593786,0.0005599193932616639
1_2,XY,1776,3240.7041026401566,20.776078055103053,0.07349426031195193,0.0005364566811203866
1_2,XY,1797,3237.652489678793,24.068086929982034,0.0815540509760215,0.0006799527643906352
1_2,XY,1818,3257.182040405935,20.18720756894318,0.07390041725804397,0.000513347758482912
1_2,XY,1839,3376.953704034817,22.07404724153462,0.07089113689518432,0.0005243471949266822
1_2,XY,1860,3218.896797091297,23.28392524694289,0.0768802625520428,0.0006286283026027315
1_2,XY,1881,3224.746148004935,21.813148827665003,0.08043760679927911,0.0006174431530807048
1_2,XY,1916,3248.2534878927095,20.50919447689091,0.07392665411054578,0.0005289367838624608
1_2,XY,1937,3236.8794326550014,21.501399880415693,0.07248289580820161,0.0005439564922972021
1_2,XY,1958,3242.3432843226547,22.667239993580324,0.07166077261738667,0.0005723454344222097
1_2,XY,1979,3201.8645245065663,21.234446998228815,0.07883288440655134,0.0005899422163760437
1_2,XY,2000,3252.471446336515,21.687937878695255,0.07549537819299237,0.0005648491596538236
1_2,XY,2021,3230.5613270563413,20.532502688460625,0.08074754865790693,0.0005853145722225389
1_2,XY,2042,3196.348730566348,21.0428569553776,0.07563483235252429,0.0005612197155676023
1_2,XY,2063,3243.526416146276,22.264169649846764,0.0800903630278942,0.0006234824112325139
1_2,XY,2095,3226.994114174981,21.357109322594756,0.07329837476579668,0.0005520933856783956
1_2,XY,2116,3233.2323571769243,20.20898370607699,0.07673664580676566,0.0005378231721135475
1_2,XY,2137,3215.6128383686932,22.228711858299903,0.0735580647301756,0.0005732982089343601
1_2,XY,2158,3228.5894484173796,20.048206372933965,0.08003048553440538,0.0005592715376408412
1_2,XY,2179,3233.6360723485454,20.62149009404295,0.0747570784042212,0.0005377001935919288
1_2,XY,2200,3244.550883905458,20.50098756812369,0.08096246288429668,0.0005818343887319223
1_2,XY,2221,3226.1619224917004,20.808851847494296,0.0756411358742168,0.0005525706168108485
1_2,XY,2242,3226.4095910570823,20.418833580987066,0.08061579650629701,0.0005824258062540622
1_2,XY,2274,3234.426772838823,22.878969813762414,0.07556692245572785,0.0005990231154319342
1_2,XY,2295,3220.172358229386,23.23592622606431,0.08119675430095673,0.0006776660242376508
1_2,XY,2316,3239.9151264330962,20.28705903192019,0.07408176094421319,0.0005290632058062415
1_2,XY,2337,3242.1355478073806,19.66655475669568,0.07859084344943529,0.0005378958576974696
1_2,XY,2358,3248.988579197555,21.90845872978444,0.07265675693399698,0.0005516738225360653
1_2,XY,2379,3220.4855779278128,19.2905968103817,0.080414387410364,0.0005453519065547625
1_2,XY,2400,3209.3528763569598,22.04884732255966,0.07214036802161714,0.000560748818545531
1_2,XY,2421,3230.010244612911,20.97792588418897,0.07949033347883978,0.0005838176051124433
1_2,XY,2453,3222.1686084296502,23.317229421044207,0.07809934916247442,0.0006451791290286929
1_2,XY,2474,3233.3818947967357,21.796810659291438,0.0825207562043094,0.0006314835493621175
1_2,XY,2495,3219.611054692889,22.247589165657725,0.07453155025112007,0.0005861772923036294
1_2,XY,2516,3246.7499900448515,21.62647408601328,0.08000947809370114,0.0005956642551707036
1_2,XY,2537,3218.86325152098,21.50996070402012,0.07655565894546103,0.0005773314470964602
1_2,XY,2558,3226.068943488309,21.63795310212353,0.08429338988528799,0.0006463625519634136
1_2,XY,2579,3236.2029245130702,23.47349968472032,0.07753890887020709,0.0006369469863320377
1_2,XY,2600,3227.199160904813,19.329082326781013,0.08261694703874967,0.0005597616951138715
1_2,XY,2632,3214.0737806509883,22.58547309730964,0.0768397054808768,0.000611261852104816
1_2,XY,2653,3233.91116509823,21.014622858874308,0.07906820855522977,0.0005845411662121691
1_2,XY,2674,3206.7866266701826,20.876645238094586,0.07689304328099365,0.0005679572669156784
1_2,XY,2695,3260.6667292122606,19.764042282028093,0.08256578484775817,0.000569836340204354
1_2,XY,2716,3234.367173014994,21.916750041306855,0.07429074749142733,0.0005706614934697179
1_2,XY,2737,3224.751083854559,19.60659065458686,0.0802127242698313,0.0005526067429251008
1_2,XY,2758,3236.5190827321294,22.106179375194127,0.07244839635354917,0.0005602485046771472
1_2,XY,2779,3196.8561475115803,21.542260243918772,0.07992795058563382,0.0006177847155425934
1_2,XY,2818,3234.3769376417704,22.579227492008094,0.07687123978457658,0.0006091459389684439
1_2,XY,2839,3227.0333162270513,20.925416293456102,0.08148691485224044,0.0005966619797798485
1_2,XY,2860,3233.305026121981,21.974450813742546,0.07581527349298586,0.000591066290283917
1_2,XY,2881,3240.0826810818453,21.614423036048475,0.08179931260341516,0.000619045964500994
1_2,XY,2902,3244.3553931649953,20.794297832052692,0.07635985169572576,0.0005527970883178136
1_2,XY,2923,3223.823808285168,23.14297551277326,0.08276420895338235,0.0006717254569145504
1_2,XY,2944,3245.050120310693,20.42149727568714,0.07271256695004509,0.0005213002481984494
1_2,XY,2965,3225.548115309619,22.23480584738159,0.07831732417123331,0.0006147312959208994
1_2,XY,2997,3187.905385691853,22.909126974746606,0.07495831956751288,0.0006065390078028338
1_2,XY,3018,3224.5082655611304,22.77461683123803,0.07860108861173512,0.000629791578115488
1_2,XY,3039,3227.2039011618763,23.51525422278756,0.07137128078010051,0.0005847030010342636
1_2,XY,3060,3228.9907263853597,25.50527538042341,0.07754230211492343,0.0006914760582266515
1_2,XY,3081,3217.976287686868,23.236673835432317,0.07504425838801931,0.0006164634657948825
1_2,XY,3102,3235.8182856615285,20.113879466704905,0.08106336019136544,0.0005756820364575725
1_2,XY,3123,3231.984993129676,20.492713721822707,0.07669233150176977,0.0005504862212458385
1_2,XY,3144,3214.018663176635,20.474654666426364,0.08321131903373073,0.0006050038519554874
