XscanNumber_YscanNumber,Type,BCID,xsec,xsecErr,SBIL,SBILErr
1_2,XY,103,936.9790117254589,2.341989089267139,0.07132971555837286,0.00020325348685389317
1_2,XY,124,935.8871175500717,2.305436890698244,0.07893720932812112,0.0002225844074709636
1_2,XY,145,936.3383103754131,2.410507168336998,0.06399148817339666,0.00018939034543309925
1_2,XY,166,933.9581054823745,2.2403202946874483,0.07515244451030365,0.00020577904596397862
1_2,XY,187,932.7841985179424,2.55808060738134,0.06451504751860142,0.00020228331716996479
1_2,XY,208,934.3864646154021,2.3834869667668075,0.07397168379283886,0.00021527722326772635
1_2,XY,229,932.2353176156233,2.5275795633354257,0.06969235864268261,0.0002170883996228955
1_2,XY,250,934.2867477732058,2.2672232484791714,0.07768455440095176,0.00021522437332430273
1_2,XY,282,939.1475810132416,2.2084460281262484,0.07239598610066245,0.0001922377187004046
1_2,XY,303,932.6563511943191,2.3281952225231657,0.07845044914035344,0.00022231749651235142
1_2,XY,324,932.7619067362592,2.247200994809276,0.0706389962675053,0.00019441188664250257
1_2,XY,345,932.2920552239403,2.2024166253345134,0.08108759216900932,0.00021898168740385455
1_2,XY,366,935.0624397785276,2.323877151194227,0.0722494048911345,0.00020354156806189704
1_2,XY,387,934.9853269091474,2.2308895268553286,0.08050538977252349,0.00021912101705068188
1_2,XY,408,934.4995366177917,2.4632078840481264,0.06825662600750457,0.00020347392336651806
1_2,XY,429,933.5555510493763,2.551747035521252,0.07769795298884472,0.00024214712356777877
1_2,XY,464,936.4484878155079,2.201259559766536,0.07232246129328697,0.0001925658474437269
1_2,XY,485,935.2394716938502,2.2975073607560557,0.07626003202529846,0.0002135991683903715
1_2,XY,506,936.05354545038,2.460889209552559,0.06565295417485088,0.00019564848930552487
1_2,XY,527,936.7708012099583,2.348833241109692,0.07300223985927369,0.000209429709515723
1_2,XY,548,934.8661203967856,2.334411428485496,0.0709436619524278,0.00020307636487766487
1_2,XY,569,935.5049526841898,2.2340052804426507,0.07967322111985674,0.00021769494876628832
1_2,XY,590,935.7824381649567,2.37782773594362,0.06865736100729034,0.00019695371368882888
1_2,XY,611,934.3894468766669,2.2393633970556457,0.07733141963229506,0.00021172571853077718
1_2,XY,643,938.1932580779497,2.280994198403754,0.07185545877692967,0.00019652075542626467
1_2,XY,664,937.3288409523428,2.135130720933089,0.0754703094226014,0.00019537761877595351
1_2,XY,685,935.5180083299538,2.466848214596827,0.06480781937315268,0.00019467883178849469
1_2,XY,706,940.0636109441392,2.317308911660231,0.07193108252705567,0.00020345081736792295
1_2,XY,727,935.7329041454595,2.589805580583103,0.0683804934871184,0.00021532280303511903
1_2,XY,748,933.6265756595586,2.367683890612023,0.07814129496367293,0.0002268274213266169
1_2,XY,769,932.4460395103272,2.547318675862788,0.0630233564956983,0.00019655812964114818
1_2,XY,790,933.6428125274653,2.4793306792316945,0.07164212814163899,0.00021658767679284447
1_2,XY,822,940.3461465160316,2.3257238325744334,0.07318885093597793,0.00020542895773573275
1_2,XY,843,940.1519745165227,2.1796576261630043,0.07393473793362765,0.00019606050011032898
1_2,XY,864,937.9517706647575,2.223586484640149,0.06887557948968241,0.00018261461727989538
1_2,XY,885,935.6932789685586,2.274733907092801,0.08010600990906606,0.00022059584840125964
1_2,XY,906,936.7023472194672,2.5421607891850515,0.06699780214880645,0.0002060688703478
1_2,XY,927,936.2717637578672,2.2077188582846476,0.07742807940464791,0.00020939077131747492
1_2,XY,948,933.8368431513642,2.2070720782732014,0.06772383337195774,0.0001826275843632068
1_2,XY,969,932.1204195268521,2.2662618113425923,0.07607881452756281,0.0002122876607308586
1_2,XY,1018,939.9548807151392,2.349222083554064,0.0736564588183749,0.00021107971729686538
1_2,XY,1039,936.2244013222806,2.1473646432314384,0.07840487679287157,0.00020447074223196269
1_2,XY,1060,934.7073074022907,2.483734746011936,0.06967048310292384,0.00021125108528893748
1_2,XY,1081,940.169698605867,2.1438190860160202,0.07600431888135253,0.0001993770623580567
1_2,XY,1102,937.6873480357226,2.411750475251675,0.06780694998400792,0.00020010055940817228
1_2,XY,1123,937.4909918722207,2.4385378588389566,0.07484745660227,0.00022195170243514463
1_2,XY,1144,936.6392491213451,2.4281127669490408,0.06890331982949265,0.00020477223697278526
1_2,XY,1165,933.5759626415638,2.2547754266578335,0.0791077702893359,0.00021714888943079745
1_2,XY,1197,937.443596244276,2.4988387634170195,0.07165664474494168,0.00021673521568188375
1_2,XY,1218,936.8272315192836,2.2585842198569246,0.0785149606608461,0.00021695537524623004
1_2,XY,1239,937.7291700923338,2.4869273115616335,0.06913176104628031,0.00021052359369440676
1_2,XY,1260,941.0215271865062,2.267705556176569,0.07741333954332512,0.00021302088258053707
1_2,XY,1281,936.3663711178234,2.325291888797752,0.07052463971023562,0.00019740751520104887
1_2,XY,1302,934.295094475287,2.185992978228171,0.07997672677629768,0.00021480105683192987
1_2,XY,1323,936.3288157660337,2.5229724720120186,0.06500034077061731,0.00020027527598426596
1_2,XY,1344,936.6097240775616,2.3495861074274216,0.07500062403744967,0.00021482479887753066
1_2,XY,1376,938.4563502668672,2.152991768012559,0.07023651470851824,0.00018164823170988838
1_2,XY,1397,935.3975583457843,2.4745332124758477,0.07764122040778915,0.00023563533519938836
1_2,XY,1418,935.4248927030541,2.5116905635011744,0.07169785804758413,0.00022088674121567542
1_2,XY,1439,940.3713488358748,2.163398566753617,0.07497116293014053,0.00019688682336914114
1_2,XY,1460,933.4404199207594,2.3135834867754945,0.06927978427648916,0.00019482790731308077
1_2,XY,1481,936.2111101356909,2.368813338029457,0.07622498098474391,0.00022075681971413992
1_2,XY,1502,934.1562966773469,2.339019851358925,0.0683482714633087,0.00019546439533363278
1_2,XY,1523,938.4262628723819,2.470750955415845,0.0717817984433197,0.0002170850707293243
1_2,XY,1555,940.1862389152149,2.556215588627495,0.07162418444455906,0.0002242992411512623
1_2,XY,1576,942.1820426223725,2.2299564415985125,0.0683115080349822,0.00018302350535473076
1_2,XY,1597,939.7287053930942,2.2731766990262945,0.06946616285349685,0.00019203756021198768
1_2,XY,1618,940.3925608404111,2.144284430671088,0.07413608499118704,0.00019402679264008847
1_2,XY,1639,937.4518406682132,2.160571319596417,0.07797608687153526,0.0002045296981360394
1_2,XY,1660,940.4427433470637,2.201138077608564,0.08159105408899535,0.00021818130038005944
1_2,XY,1681,933.4930968979893,2.3166291296420534,0.07424819406606274,0.00020955731435232618
1_2,XY,1702,935.6574056089618,2.1580471168388136,0.08045693558639315,0.0002104513024598045
1_2,XY,1734,934.5972147378851,2.389190905781211,0.07255251021568651,0.00021143600419513863
1_2,XY,1755,939.1564577950779,2.148621264313053,0.07289320635154979,0.0001901031091221675
1_2,XY,1776,935.2343768989307,2.3733347269986225,0.07319020532700499,0.00021135740439761594
1_2,XY,1797,938.0444630323631,2.351113613291517,0.07950700853445014,0.00022652670192573429
1_2,XY,1818,940.5761589416861,2.238856369708439,0.0740807808910646,0.00020077556539175006
1_2,XY,1839,950.8429060799351,2.318927851116596,0.06469748310143832,0.00017895084195976166
1_2,XY,1860,937.9719781501624,2.2359249757082744,0.07557896136569693,0.00020709565646503977
1_2,XY,1881,934.9200371075962,2.154783925426008,0.07924548899429545,0.00020768492875283866
1_2,XY,1916,936.1595362712892,2.214086699079129,0.0738370378988881,0.0001978978940938078
1_2,XY,1937,940.1680428646654,2.2703812878103014,0.07189493132781086,0.00019903197730471704
1_2,XY,1958,937.8091052096103,2.4900244087964607,0.07046058117077114,0.00021115257668218954
1_2,XY,1979,934.6624791331175,2.3265527585794494,0.07676425674438508,0.0002161331944271038
1_2,XY,2000,937.1157267202892,2.217430498701506,0.07480068108825232,0.00020092674454453495
1_2,XY,2021,935.1976329573838,2.2652584787401535,0.07923304862968322,0.00021981346171189635
1_2,XY,2042,935.6959371632443,2.4202316017539585,0.07397792414982816,0.0002192451208658544
1_2,XY,2063,933.2423814932177,2.2589782112681456,0.07899268907602298,0.00021771896758775015
1_2,XY,2095,936.3561180100878,2.4561459841827533,0.0722399222134453,0.00021617401098229284
1_2,XY,2116,936.4278133843085,2.3399994294263227,0.07560977972765572,0.00021666381679655126
1_2,XY,2137,934.3053084888837,2.2524583002696943,0.07202133552640061,0.0001977296015779968
1_2,XY,2158,936.975201217634,2.3760791960451497,0.07821785618976354,0.00022769393899619233
1_2,XY,2179,935.0739088196171,2.381596399697842,0.0741554982819909,0.00021579839985068507
1_2,XY,2200,936.7044462417804,2.194358379467413,0.07997023602874608,0.00021334910348260038
1_2,XY,2221,935.1665258688138,2.141431208943542,0.07505057040136141,0.00019487549597385675
1_2,XY,2242,936.0721828796878,2.220338835521594,0.07871288901754747,0.00021366844774380303
1_2,XY,2274,936.6402869584581,2.376670524551977,0.07458339269387254,0.00021483706876034193
1_2,XY,2295,935.5952166514478,2.218110527101505,0.0799003474781492,0.0002184061314946233
1_2,XY,2316,935.1581882047496,2.304299534437411,0.07358234096978879,0.00020592239809184596
1_2,XY,2337,937.1100675512328,2.2608475987115884,0.07755861273890186,0.00021376616875352938
1_2,XY,2358,938.5322011246001,2.203518813887209,0.07278831499580565,0.00019591866125734242
1_2,XY,2379,935.7149208898167,2.305038681640952,0.07882106936299461,0.00022100800370836445
1_2,XY,2400,934.7044795448066,2.4868635023311536,0.07092628787851203,0.00021520513853932538
1_2,XY,2421,934.1756945614063,2.34929205504504,0.07748134842522017,0.00022289879422670835
1_2,XY,2453,936.23249751056,2.3971347173943776,0.07655136831759111,0.00022269728254727228
1_2,XY,2474,935.8398841666492,2.3193074154920676,0.08091545806388797,0.00022912930561699952
1_2,XY,2495,935.2454947132408,2.273897572861469,0.07353542069050611,0.00020490669361876229
1_2,XY,2516,933.8228054036172,2.217858800328676,0.07891497895402888,0.00021432812401471181
1_2,XY,2537,934.7685366179908,2.287963158970041,0.07478312787576273,0.00020855325064695308
1_2,XY,2558,935.5557919327179,2.1920129368719503,0.08251296871650872,0.00021944350666254037
1_2,XY,2579,935.6227549914639,2.21622257149262,0.0766410536982771,0.00020576077552290307
1_2,XY,2600,935.8618385526652,2.2510719010368305,0.0809226718620729,0.0002220906689522701
1_2,XY,2632,936.0266988927177,2.251292391418921,0.07506198297886836,0.00020620090721168148
1_2,XY,2653,932.9033968687903,2.3110312108648836,0.0775994185623733,0.00021699979685630417
1_2,XY,2674,941.5256193108427,2.333017254887811,0.0718728059748345,0.00020305451994890672
1_2,XY,2695,936.4459526282583,2.237827912336514,0.08208706722443121,0.00022466304905071745
1_2,XY,2716,940.0855144448598,2.473286414307922,0.06894792626178906,0.00020688305166756703
1_2,XY,2737,933.5457772405077,2.3348821384762153,0.07829173609838842,0.00022439314013689246
1_2,XY,2758,938.5776040474268,2.3612559938493947,0.0715595583112531,0.0002073144229247857
1_2,XY,2779,936.457820932532,2.4700121862338893,0.07734141176154712,0.00023341163429998576
1_2,XY,2818,935.381781576762,2.1118076248990203,0.07606390419818412,0.00019432528867852915
1_2,XY,2839,936.4743187791639,2.2675458987384527,0.0801907298809714,0.00022195306270186193
1_2,XY,2860,936.7364532298574,2.378946499845906,0.07500505930130323,0.00021591406795604467
1_2,XY,2881,933.754827963659,2.3431384014018577,0.08073887040264671,0.0002311507049027165
1_2,XY,2902,937.8640767185365,2.4476949054748234,0.07510365564304307,0.00022324054994332426
1_2,XY,2923,935.6297947025907,2.1899431999076033,0.08023495337131369,0.00021528819920850058
1_2,XY,2944,935.1482189984357,2.307788895483857,0.07239133210719872,0.0002020660662011282
1_2,XY,2965,934.0505853204811,2.4114926030071473,0.07655492534080713,0.00022620829782849823
1_2,XY,2997,936.8904609765882,2.3218426046727374,0.0727867181418902,0.00020423051236962645
1_2,XY,3018,939.3503629020852,2.051239505635637,0.07725288243879952,0.00019381877697221422
1_2,XY,3039,936.1733660889008,2.3705896762519854,0.07034340409267605,0.00020248525960435488
1_2,XY,3060,935.5879329405662,2.2529223210366456,0.07580779997758483,0.00020637821015898476
1_2,XY,3081,934.2913007347701,2.3890312411743695,0.07354568396122309,0.00021584020589346845
1_2,XY,3102,934.9653203387546,2.2855229721881645,0.07958098117175304,0.00022145344194202557
1_2,XY,3123,934.3800865326964,2.4402632086288194,0.07571228300716701,0.00022608547211173258
1_2,XY,3144,934.6333721688816,2.207171444802865,0.08105560086088205,0.00021840034383171494
